<?xml version="1.0" encoding="utf-8"?>
<COLLADA xmlns="http://www.collada.org/2005/11/COLLADASchema" version="1.4.1">
  <asset>
    <contributor>
      <author>Blender User</author>
      <authoring_tool>Blender 2.78.0</authoring_tool>
    </contributor>
    <created>2017-11-28T15:07:29</created>
    <modified>2017-11-28T15:07:29</modified>
    <unit name="meter" meter="1"/>
    <up_axis>Z_UP</up_axis>
  </asset>
  <library_images/>
  <library_effects/>
  <library_geometries>
    <geometry id="Cube_001-mesh" name="Cube.001">
      <mesh>
        <source id="Cube_001-mesh-positions">
          <float_array id="Cube_001-mesh-positions-array" count="24">-0.4245836 -0.4205332 0.6354067 -0.4245836 -0.4205332 0.7774865 -0.4245836 0.3039333 0.6354067 -0.4245836 0.3039333 0.7774865 0.4245836 -0.4205332 0.6354067 0.4245836 -0.4205332 0.7774865 0.4245836 0.3039333 0.6354067 0.4245836 0.3039333 0.7774865</float_array>
          <technique_common>
            <accessor source="#Cube_001-mesh-positions-array" count="8" stride="3">
              <param name="X" type="float"/>
              <param name="Y" type="float"/>
              <param name="Z" type="float"/>
            </accessor>
          </technique_common>
        </source>
        <source id="Cube_001-mesh-normals">
          <float_array id="Cube_001-mesh-normals-array" count="18">-1 0 0 0 1 0 1 0 0 0 -1 0 0 0 -1 0 0 1</float_array>
          <technique_common>
            <accessor source="#Cube_001-mesh-normals-array" count="6" stride="3">
              <param name="X" type="float"/>
              <param name="Y" type="float"/>
              <param name="Z" type="float"/>
            </accessor>
          </technique_common>
        </source>
        <vertices id="Cube_001-mesh-vertices">
          <input semantic="POSITION" source="#Cube_001-mesh-positions"/>
        </vertices>
        <polylist count="12">
          <input semantic="VERTEX" source="#Cube_001-mesh-vertices" offset="0"/>
          <input semantic="NORMAL" source="#Cube_001-mesh-normals" offset="1"/>
          <vcount>3 3 3 3 3 3 3 3 3 3 3 3 </vcount>
          <p>1 0 2 0 0 0 3 1 6 1 2 1 7 2 4 2 6 2 5 3 0 3 4 3 6 4 0 4 2 4 3 5 5 5 7 5 1 0 3 0 2 0 3 1 7 1 6 1 7 2 5 2 4 2 5 3 1 3 0 3 6 4 4 4 0 4 3 5 1 5 5 5</p>
        </polylist>
      </mesh>
    </geometry>
    <geometry id="Cube_002-mesh" name="Cube.002">
      <mesh>
        <source id="Cube_002-mesh-positions">
          <float_array id="Cube_002-mesh-positions-array" count="24">0.3869311 -0.09495157 0.7148566 0.3457831 -0.2595715 1.107385 0.3869311 0.170238 0.7148566 0.3457831 0.1803942 1.108358 0.4529731 -0.09495157 0.7148566 0.4917007 -0.2595715 1.107385 0.4529731 0.170238 0.7148566 0.4917007 0.1803942 1.108358</float_array>
          <technique_common>
            <accessor source="#Cube_002-mesh-positions-array" count="8" stride="3">
              <param name="X" type="float"/>
              <param name="Y" type="float"/>
              <param name="Z" type="float"/>
            </accessor>
          </technique_common>
        </source>
        <source id="Cube_002-mesh-normals">
          <float_array id="Cube_002-mesh-normals-array" count="30">-0.9945771 0 -0.104002 0 0.9996672 -0.0258013 0.9951919 0 -0.09794479 0 -0.9221847 -0.3867498 0 0 -1 0 -0.002210915 0.9999976 -0.9945605 2.30332e-4 -0.1041614 0 0.9996671 -0.02580124 0.995177 2.16873e-4 -0.09809505 0 -0.922185 -0.3867493</float_array>
          <technique_common>
            <accessor source="#Cube_002-mesh-normals-array" count="10" stride="3">
              <param name="X" type="float"/>
              <param name="Y" type="float"/>
              <param name="Z" type="float"/>
            </accessor>
          </technique_common>
        </source>
        <vertices id="Cube_002-mesh-vertices">
          <input semantic="POSITION" source="#Cube_002-mesh-positions"/>
        </vertices>
        <polylist count="12">
          <input semantic="VERTEX" source="#Cube_002-mesh-vertices" offset="0"/>
          <input semantic="NORMAL" source="#Cube_002-mesh-normals" offset="1"/>
          <vcount>3 3 3 3 3 3 3 3 3 3 3 3 </vcount>
          <p>0 0 3 0 2 0 2 1 7 1 6 1 7 2 4 2 6 2 5 3 0 3 4 3 6 4 0 4 2 4 3 5 5 5 7 5 0 6 1 6 3 6 2 7 3 7 7 7 7 8 5 8 4 8 5 9 1 9 0 9 6 4 4 4 0 4 3 5 1 5 5 5</p>
        </polylist>
      </mesh>
    </geometry>
    <geometry id="Cube_003-mesh" name="Cube.003">
      <mesh>
        <source id="Cube_003-mesh-positions">
          <float_array id="Cube_003-mesh-positions-array" count="24">0.3869311 -0.09495157 0.7148566 0.3457831 -0.2595715 1.107385 0.3869311 0.170238 0.7148566 0.3457831 0.1803942 1.108358 0.4529731 -0.09495157 0.7148566 0.4917007 -0.2595715 1.107385 0.4529731 0.170238 0.7148566 0.4917007 0.1803942 1.108358</float_array>
          <technique_common>
            <accessor source="#Cube_003-mesh-positions-array" count="8" stride="3">
              <param name="X" type="float"/>
              <param name="Y" type="float"/>
              <param name="Z" type="float"/>
            </accessor>
          </technique_common>
        </source>
        <source id="Cube_003-mesh-normals">
          <float_array id="Cube_003-mesh-normals-array" count="30">-0.9945771 0 -0.104002 0 0.9996672 -0.0258013 0.9951919 0 -0.09794479 0 -0.9221847 -0.3867498 0 0 -1 0 -0.002210915 0.9999976 -0.9945605 2.30332e-4 -0.1041614 0 0.9996671 -0.02580124 0.995177 2.16873e-4 -0.09809505 0 -0.922185 -0.3867493</float_array>
          <technique_common>
            <accessor source="#Cube_003-mesh-normals-array" count="10" stride="3">
              <param name="X" type="float"/>
              <param name="Y" type="float"/>
              <param name="Z" type="float"/>
            </accessor>
          </technique_common>
        </source>
        <vertices id="Cube_003-mesh-vertices">
          <input semantic="POSITION" source="#Cube_003-mesh-positions"/>
        </vertices>
        <polylist count="12">
          <input semantic="VERTEX" source="#Cube_003-mesh-vertices" offset="0"/>
          <input semantic="NORMAL" source="#Cube_003-mesh-normals" offset="1"/>
          <vcount>3 3 3 3 3 3 3 3 3 3 3 3 </vcount>
          <p>0 0 3 0 2 0 2 1 7 1 6 1 7 2 4 2 6 2 5 3 0 3 4 3 6 4 0 4 2 4 3 5 5 5 7 5 0 6 1 6 3 6 2 7 3 7 7 7 7 8 5 8 4 8 5 9 1 9 0 9 6 4 4 4 0 4 3 5 1 5 5 5</p>
        </polylist>
      </mesh>
    </geometry>
    <geometry id="Cube_004-mesh" name="Cube.004">
      <mesh>
        <source id="Cube_004-mesh-positions">
          <float_array id="Cube_004-mesh-positions-array" count="24">0.2925316 0.1517975 -0.0385878 0.2925316 0.256362 0.596265 0.2925316 0.3216471 -0.0385878 0.2925316 0.4145933 0.5933604 1 0.1517975 -0.0385878 1 0.256362 0.596265 1 0.3216471 -0.0385878 1 0.4145933 0.5933604</float_array>
          <technique_common>
            <accessor source="#Cube_004-mesh-positions-array" count="8" stride="3">
              <param name="X" type="float"/>
              <param name="Y" type="float"/>
              <param name="Z" type="float"/>
            </accessor>
          </technique_common>
        </source>
        <source id="Cube_004-mesh-normals">
          <float_array id="Cube_004-mesh-normals-array" count="24">-1 0 0 0 0.9893563 -0.1455134 1 0 0 0 -0.9867058 0.162517 0 0 -1 0 0.01835352 0.9998317 0 -0.9867058 0.162517 0 0.01835352 0.9998316</float_array>
          <technique_common>
            <accessor source="#Cube_004-mesh-normals-array" count="8" stride="3">
              <param name="X" type="float"/>
              <param name="Y" type="float"/>
              <param name="Z" type="float"/>
            </accessor>
          </technique_common>
        </source>
        <vertices id="Cube_004-mesh-vertices">
          <input semantic="POSITION" source="#Cube_004-mesh-positions"/>
        </vertices>
        <polylist count="12">
          <input semantic="VERTEX" source="#Cube_004-mesh-vertices" offset="0"/>
          <input semantic="NORMAL" source="#Cube_004-mesh-normals" offset="1"/>
          <vcount>3 3 3 3 3 3 3 3 3 3 3 3 </vcount>
          <p>1 0 2 0 0 0 3 1 6 1 2 1 6 2 5 2 4 2 5 3 0 3 4 3 6 4 0 4 2 4 3 5 5 5 7 5 1 0 3 0 2 0 3 1 7 1 6 1 6 2 7 2 5 2 5 6 1 6 0 6 6 4 4 4 0 4 3 7 1 7 5 7</p>
        </polylist>
      </mesh>
    </geometry>
    <geometry id="Cube_005-mesh" name="Cube.005">
      <mesh>
        <source id="Cube_005-mesh-positions">
          <float_array id="Cube_005-mesh-positions-array" count="180">0.5998165 -0.1166436 -0.7112707 0.5998165 -0.1166436 -0.1786541 0.5998165 -0.009220898 -0.7112707 0.5998165 -0.009220898 -0.1786541 0.7072392 -0.1166436 -0.7112707 0.7072392 -0.1166436 -0.1786541 0.7072392 -0.009220898 -0.7112707 0.7072392 -0.009220898 -0.1786541 0.7072392 -0.009220898 -0.5953691 0.7072392 -0.1166436 -0.5953691 0.5998165 -0.1166436 -0.5953691 0.5998165 -0.009220898 -0.5953691 0.1903697 -0.1140504 -0.7097388 0.2223138 -0.1140504 -0.6493446 0.2223138 -0.01181411 -0.6493446 0.1903697 -0.01181411 -0.7097388 0.6024097 0.3682816 -0.7097388 0.6024097 0.3682816 -0.6493446 0.7046459 0.3682816 -0.6493446 0.7046459 0.3682816 -0.7097388 1.084742 -0.01181411 -0.7097388 1.084742 -0.01181411 -0.6493446 1.084742 -0.1140504 -0.6493446 1.084742 -0.1140504 -0.7097388 0.7046459 -0.5315657 -0.7097388 0.7046459 -0.4941462 -0.6493446 0.6024097 -0.4941462 -0.6493446 0.6024097 -0.5315657 -0.7097388 0.6018381 0.2850708 -0.6374471 0.6018381 0.2850708 -0.7100765 0.7052175 0.2850708 -0.6374471 0.7052175 0.2850708 -0.7100765 0.3178688 -0.1147068 -0.6356822 0.3178688 -0.1147068 -0.7101266 0.3178688 -0.01115775 -0.6356822 0.3178688 -0.01115775 -0.7101266 0.9885456 -0.01115334 -0.6355905 0.9885456 -0.01115334 -0.7101292 0.9885456 -0.1147112 -0.6355905 0.9885456 -0.1147112 -0.7101292 0.7052227 -0.4101833 -0.6373396 0.7052227 -0.4101832 -0.7100796 0.6018329 -0.4101833 -0.6373396 0.6018329 -0.4101833 -0.7100796 0.317452 -0.1147068 -0.8128464 0.1899529 -0.1140504 -0.8124586 0.1899529 -0.01181411 -0.8124586 0.317452 -0.01115775 -0.8128464 0.6018381 0.2854877 -0.8127963 0.6024097 0.3686984 -0.8124586 0.7046459 0.3686984 -0.8124586 0.7052175 0.2854877 -0.8127963 0.9889624 -0.01115334 -0.812849 1.085158 -0.01181411 -0.8124586 1.085158 -0.1140504 -0.8124586 0.9889624 -0.1147112 -0.812849 0.7052227 -0.4106001 -0.8127994 0.7046459 -0.5319826 -0.8124586 0.6024097 -0.5319826 -0.8124586 0.6018329 -0.4106001 -0.8127994</float_array>
          <technique_common>
            <accessor source="#Cube_005-mesh-positions-array" count="60" stride="3">
              <param name="X" type="float"/>
              <param name="Y" type="float"/>
              <param name="Z" type="float"/>
            </accessor>
          </technique_common>
        </source>
        <source id="Cube_005-mesh-normals">
          <float_array id="Cube_005-mesh-normals-array" count="318">0 0 -1 0 0 1 -0.8839649 0 0.4675532 1 0 0 0 -1 0 -1 0 0 0 1 0 -0.006869196 -0.9999765 0 -0.1415402 0 0.9899326 -0.006869196 0.9999765 0 -0.9999765 0.006869077 0 0 0.1415411 0.9899325 0.9999764 0.006869077 0 0.006869196 0.9999764 0 0.1415402 0 0.9899326 0.006869196 -0.9999764 0 0 -0.8500602 0.5266856 0.9999765 -0.006869137 0 0 -0.1415407 0.9899325 -0.9999764 -0.00686872 0 0 0.004057943 -0.9999918 0.9999764 0.006868839 0 0 0.1415413 0.9899324 -0.9999764 0.006869137 0 -0.004058361 0 -0.9999918 -0.006869196 0.9999764 0 -0.141541 0 0.9899324 -0.006869196 -0.9999764 0 0.004057765 0 -0.9999918 0.006869196 -0.9999765 0 0.1415413 0 0.9899324 0.006869196 0.9999764 0 0 -0.004057765 -0.9999918 -0.9999765 -0.006869792 0 0 -0.141541 0.9899324 0.9999765 -0.006869256 0 -0.003040611 0 -0.9999954 -0.005148112 -0.9999868 2.08523e-5 -0.9999918 0 0.004058301 -0.005148112 0.9999868 2.09062e-5 0.9999918 0 -0.004058301 0 0.004057824 -0.9999918 -0.9999764 0.006868958 2.78756e-5 0 0.9999918 0.004057347 0.9999764 0.006870269 2.78756e-5 0 -0.9999918 -0.004057765 0.004058122 0 -0.9999918 0.006869077 0.9999764 2.78824e-5 0.9999918 0 0.004058301 0.006869077 -0.9999764 2.77089e-5 -0.9999918 0 -0.004057705 2.98264e-7 -0.002807259 -0.9999961 0.9999888 -0.004751622 1.92802e-5 0 -0.9999918 0.004058063 -0.9999887 -0.004751503 1.92848e-5 -2.84336e-7 0.9999918 -0.00405842 -0.8839649 0 0.4675533 -0.005139946 -0.9999831 0.002718806 -0.1415398 0 0.9899326 -0.005139946 0.9999832 0.002718627 -0.9999764 0.006869316 0 0 0.1415409 0.9899325 0.9999764 0.006868541 0 0.006869196 0.9999765 0 0.1415411 0 0.9899325 0.006869196 -0.9999764 0 0 -0.8500593 0.5266871 0.9999845 -0.004742264 0.002938687 0 -0.1415405 0.9899325 -0.9999845 -0.004743039 0.002938687 0 0.004057943 -0.9999918 0.9999764 0.006869614 0 0 0.1415411 0.9899325 -0.9999764 0.006869494 0 -0.004057765 0 -0.9999918 -0.006869196 0.9999764 0 -0.1415414 0 0.9899324 -0.006869196 -0.9999764 0 0.004058659 0 -0.9999918 0.006869196 -0.9999764 0 0.141541 0 0.9899325 0.006869196 0.9999764 0 0 -0.004057765 -0.9999918 -0.9999764 -0.006869018 0 0 -0.1415412 0.9899324 0.9999764 -0.006869375 0 -0.003042459 0 -0.9999954 -0.005148112 -0.9999868 2.09062e-5 -0.9999918 0 0.004058301 -0.005148112 0.9999868 2.08822e-5 0.9999918 0 -0.004058301 0 0.004057824 -0.9999918 -0.9999765 0.006869375 2.78722e-5 0 0.9999918 0.004058063 0.9999764 0.006869375 2.78722e-5 0 -0.9999918 -0.004057765 0.004057705 0 -0.9999918 0.006869077 0.9999764 2.78974e-5 0.9999918 0 0.004058301 0.006869077 -0.9999764 2.79342e-5 -0.9999918 0 -0.004057705 0 -0.002807259 -0.9999961 0.9999887 -0.004751801 1.92848e-5 0 -0.9999918 0.004058778 -0.9999887 -0.004751026 1.92802e-5 -2.90483e-7 0.9999918 -0.00405842</float_array>
          <technique_common>
            <accessor source="#Cube_005-mesh-normals-array" count="106" stride="3">
              <param name="X" type="float"/>
              <param name="Y" type="float"/>
              <param name="Z" type="float"/>
            </accessor>
          </technique_common>
        </source>
        <vertices id="Cube_005-mesh-vertices">
          <input semantic="POSITION" source="#Cube_005-mesh-positions"/>
        </vertices>
        <polylist count="116">
          <input semantic="VERTEX" source="#Cube_005-mesh-vertices" offset="0"/>
          <input semantic="NORMAL" source="#Cube_005-mesh-normals" offset="1"/>
          <vcount>3 3 3 3 3 3 3 3 3 3 3 3 3 3 3 3 3 3 3 3 3 3 3 3 3 3 3 3 3 3 3 3 3 3 3 3 3 3 3 3 3 3 3 3 3 3 3 3 3 3 3 3 3 3 3 3 3 3 3 3 3 3 3 3 3 3 3 3 3 3 3 3 3 3 3 3 3 3 3 3 3 3 3 3 3 3 3 3 3 3 3 3 3 3 3 3 3 3 3 3 3 3 3 3 3 3 3 3 3 3 3 3 3 3 3 3 </vcount>
          <p>6 0 0 0 2 0 3 1 5 1 7 1 13 2 15 2 12 2 8 3 5 3 9 3 9 4 1 4 10 4 10 5 3 5 11 5 11 6 7 6 8 6 13 7 33 7 32 7 14 8 32 8 34 8 35 9 14 9 34 9 17 6 19 6 16 6 17 10 29 10 28 10 18 11 28 11 30 11 31 12 18 12 30 12 21 3 23 3 20 3 21 13 37 13 36 13 22 14 36 14 38 14 39 15 22 15 38 15 25 16 27 16 24 16 25 17 41 17 40 17 26 18 40 18 42 18 43 19 26 19 42 19 29 20 6 20 2 20 6 21 30 21 8 21 30 22 11 22 8 22 28 23 2 23 11 23 33 24 2 24 0 24 2 25 34 25 11 25 34 26 10 26 11 26 32 27 0 27 10 27 37 28 4 28 6 28 4 29 38 29 9 29 38 30 8 30 9 30 36 31 6 31 8 31 41 32 0 32 4 32 0 33 42 33 10 33 42 34 9 34 10 34 40 35 4 35 9 35 45 36 47 36 44 36 12 37 44 37 33 37 46 38 12 38 15 38 47 39 15 39 35 39 44 40 35 40 33 40 49 41 51 41 48 41 49 42 29 42 16 42 50 43 16 43 19 43 31 44 50 44 19 44 48 45 31 45 29 45 53 46 55 46 52 46 20 47 52 47 37 47 54 48 20 48 23 48 55 49 23 49 39 49 52 50 39 50 37 50 57 51 59 51 56 51 24 52 56 52 41 52 58 53 24 53 27 53 59 54 27 54 43 54 56 55 43 55 41 55 6 0 4 0 0 0 3 1 1 1 5 1 13 56 14 56 15 56 8 3 7 3 5 3 9 4 5 4 1 4 10 5 1 5 3 5 11 6 3 6 7 6 13 57 12 57 33 57 14 58 13 58 32 58 35 59 15 59 14 59 17 6 18 6 19 6 17 60 16 60 29 60 18 61 17 61 28 61 31 62 19 62 18 62 21 3 22 3 23 3 21 63 20 63 37 63 22 64 21 64 36 64 39 65 23 65 22 65 25 66 26 66 27 66 25 67 24 67 41 67 26 68 25 68 40 68 43 69 27 69 26 69 29 70 31 70 6 70 6 71 31 71 30 71 30 72 28 72 11 72 28 73 29 73 2 73 33 74 35 74 2 74 2 75 35 75 34 75 34 76 32 76 10 76 32 77 33 77 0 77 37 78 39 78 4 78 4 79 39 79 38 79 38 80 36 80 8 80 36 81 37 81 6 81 41 82 43 82 0 82 0 83 43 83 42 83 42 84 40 84 9 84 40 85 41 85 4 85 45 86 46 86 47 86 12 87 45 87 44 87 46 88 45 88 12 88 47 89 46 89 15 89 44 90 47 90 35 90 49 91 50 91 51 91 49 92 48 92 29 92 50 93 49 93 16 93 31 94 51 94 50 94 48 95 51 95 31 95 53 96 54 96 55 96 20 97 53 97 52 97 54 98 53 98 20 98 55 99 54 99 23 99 52 100 55 100 39 100 57 101 58 101 59 101 24 102 57 102 56 102 58 103 57 103 24 103 59 104 58 104 27 104 56 105 59 105 43 105</p>
        </polylist>
      </mesh>
    </geometry>
  </library_geometries>
  <library_controllers/>
  <library_visual_scenes>
    <visual_scene id="Scene" name="Scene">
      <node id="Empty" name="Empty" type="NODE">
        <matrix sid="transform">1 0 0 0 0 1 0 0 0 0 1 0 0 0 0 1</matrix>
        <node id="Cube" name="Cube" type="NODE">
          <matrix sid="transform">1 0 0 0 0 1 0 0 0 0 1 0 0 0 0 1</matrix>
          <instance_geometry url="#Cube_001-mesh" name="Cube"/>
        </node>
        <node id="Cube_001" name="Cube_001" type="NODE">
          <matrix sid="transform">1 0 0 0 0 1 0 0 0 0 1 0 0 0 0 1</matrix>
          <instance_geometry url="#Cube_002-mesh" name="Cube_001"/>
        </node>
        <node id="Cube_002" name="Cube_002" type="NODE">
          <matrix sid="transform">1 0 0 -0.8229328 0 1 0 0 0 0 1 0 0 0 0 1</matrix>
          <instance_geometry url="#Cube_003-mesh" name="Cube_002"/>
        </node>
        <node id="Cube_003" name="Cube_003" type="NODE">
          <matrix sid="transform">1 0 0 -0.6450061 0 1 0 -0.001945559 0 0 1 0.8106462 0 0 0 1</matrix>
          <instance_geometry url="#Cube_004-mesh" name="Cube_003"/>
        </node>
        <node id="Cube_004" name="Cube_004" type="NODE">
          <matrix sid="transform">1 0 0 -0.6450061 0 1 0 -0.001945559 0 0 1 0.8106462 0 0 0 1</matrix>
          <instance_geometry url="#Cube_005-mesh" name="Cube_004"/>
        </node>
      </node>
    </visual_scene>
  </library_visual_scenes>
  <scene>
    <instance_visual_scene url="#Scene"/>
  </scene>
</COLLADA>