<?xml version="1.0" encoding="utf-8"?>
<COLLADA xmlns="http://www.collada.org/2005/11/COLLADASchema" version="1.4.1" xmlns:xsi="http://www.w3.org/2001/XMLSchema-instance">
  <asset>
    <contributor>
      <author>Blender User</author>
      <authoring_tool>Blender 2.79.0 commit date:2017-09-11, commit time:10:43, hash:5bd8ac9</authoring_tool>
    </contributor>
    <created>2017-12-13T19:33:19</created>
    <modified>2017-12-13T19:33:19</modified>
    <unit name="meter" meter="1"/>
    <up_axis>Z_UP</up_axis>
  </asset>
  <library_images/>
  <library_effects>
    <effect id="Wood_Oak_002-effect">
      <profile_COMMON>
        <technique sid="common">
          <phong>
            <emission>
              <color sid="emission">0 0 0 1</color>
            </emission>
            <ambient>
              <color sid="ambient">0 0 0 1</color>
            </ambient>
            <diffuse>
              <color sid="diffuse">0.8406016 0.5458646 0 1</color>
            </diffuse>
            <specular>
              <color sid="specular">6.32305e-5 6.32305e-5 6.32305e-5 1</color>
            </specular>
            <shininess>
              <float sid="shininess">13</float>
            </shininess>
            <index_of_refraction>
              <float sid="index_of_refraction">1</float>
            </index_of_refraction>
          </phong>
        </technique>
      </profile_COMMON>
    </effect>
  </library_effects>
  <library_materials>
    <material id="Wood_Oak_002-material" name="Wood_Oak_002">
      <instance_effect url="#Wood_Oak_002-effect"/>
    </material>
  </library_materials>
  <library_geometries>
    <geometry id="Cube_004-mesh" name="Cube.004">
      <mesh>
        <source id="Cube_004-mesh-positions">
          <float_array id="Cube_004-mesh-positions-array" count="96">-0.5 -0.5 0.5 -0.5 0.5 0.5 -0.5 0.5 -0.5 -0.5 0.406376 -0.5 -0.5 0.406376 0.4075574 -0.5 -0.406376 0.4075574 -0.5 -0.406376 -0.5 -0.5 -0.5 -0.5 0.5 -0.5 0.5 -0.4037088 -0.5 -0.5 -0.4037088 -0.5 0.4013945 0.4037088 -0.5 0.4013945 0.4037088 -0.5 -0.5 0.5 -0.5 -0.5 0.5 0.5 0.5 0.5 0.5 -0.5 0.4037088 0.5 -0.5 0.4037088 0.5 0.4013945 -0.4037088 0.5 0.4013945 -0.4037088 0.5 -0.5 -0.4037088 0.406376 -0.5 -0.4037088 0.406376 0.4013945 0.4037088 0.406376 0.4013945 0.4037088 0.406376 -0.5 0.5 0.406376 -0.5 0.5 0.406376 0.4075574 0.5 -0.406376 0.4075574 0.5 -0.406376 -0.5 0.4037088 -0.406376 -0.5 0.4037088 -0.406376 0.4013945 -0.4037088 -0.406376 0.4013945 -0.4037088 -0.406376 -0.5</float_array>
          <technique_common>
            <accessor source="#Cube_004-mesh-positions-array" count="32" stride="3">
              <param name="X" type="float"/>
              <param name="Y" type="float"/>
              <param name="Z" type="float"/>
            </accessor>
          </technique_common>
        </source>
        <source id="Cube_004-mesh-normals">
          <float_array id="Cube_004-mesh-normals-array" count="18">-1 0 0 0 -1 0 0 0 1 0 1 0 0 0 -1 1 0 0</float_array>
          <technique_common>
            <accessor source="#Cube_004-mesh-normals-array" count="6" stride="3">
              <param name="X" type="float"/>
              <param name="Y" type="float"/>
              <param name="Z" type="float"/>
            </accessor>
          </technique_common>
        </source>
        <vertices id="Cube_004-mesh-vertices">
          <input semantic="POSITION" source="#Cube_004-mesh-positions"/>
        </vertices>
        <triangles material="Wood_Oak_002-material" count="60">
          <input semantic="VERTEX" source="#Cube_004-mesh-vertices" offset="0"/>
          <input semantic="NORMAL" source="#Cube_004-mesh-normals" offset="1"/>
          <p>0 0 1 0 4 0 8 1 0 1 10 1 14 2 1 2 0 2 1 3 14 3 17 3 2 4 19 4 20 4 21 1 22 1 4 1 5 4 4 4 25 4 29 3 30 3 26 3 6 4 31 4 9 4 14 5 8 5 26 5 27 4 13 4 12 4 15 4 24 4 23 4 9 5 31 5 30 5 10 4 30 4 29 4 28 0 12 0 11 0 20 5 19 5 18 5 21 4 18 4 17 4 16 0 23 0 22 0 5 0 7 0 0 0 2 0 3 0 4 0 5 0 6 0 7 0 1 0 2 0 4 0 4 0 5 0 0 0 11 1 13 1 8 1 7 1 9 1 10 1 11 1 12 1 13 1 0 1 7 1 10 1 10 1 11 1 8 1 8 2 14 2 0 2 18 3 2 3 1 3 15 3 16 3 17 3 18 3 19 3 2 3 14 3 15 3 17 3 17 3 18 3 1 3 3 4 2 4 20 4 22 1 24 1 25 1 21 1 3 1 20 1 22 1 23 1 24 1 4 1 3 1 21 1 22 1 25 1 4 1 26 4 5 4 25 4 30 3 6 3 5 3 29 3 27 3 28 3 30 3 31 3 6 3 26 3 27 3 29 3 30 3 5 3 26 3 7 4 6 4 9 4 25 5 15 5 14 5 13 5 27 5 26 5 25 5 24 5 15 5 8 5 13 5 26 5 26 5 25 5 14 5 28 4 27 4 12 4 16 4 15 4 23 4 10 5 9 5 30 5 11 4 10 4 29 4 29 0 28 0 11 0 21 5 20 5 18 5 22 4 21 4 17 4 17 0 16 0 22 0</p>
        </triangles>
      </mesh>
    </geometry>
  </library_geometries>
  <library_controllers/>
  <library_visual_scenes>
    <visual_scene id="Scene" name="Scene">
      <node id="COL_table" name="COL_table" type="NODE">
        <instance_geometry url="#Cube_004-mesh" name="COL_table">
          <bind_material>
            <technique_common>
              <instance_material symbol="Wood_Oak_002-material" target="#Wood_Oak_002-material"/>
            </technique_common>
          </bind_material>
        </instance_geometry>
      </node>
    </visual_scene>
  </library_visual_scenes>
  <scene>
    <instance_visual_scene url="#Scene"/>
  </scene>
</COLLADA>