<?xml version="1.0" encoding="utf-8"?>
<COLLADA xmlns="http://www.collada.org/2005/11/COLLADASchema" version="1.4.1">
  <asset>
    <contributor>
      <author>Blender User</author>
      <authoring_tool>Blender 2.78.0</authoring_tool>
    </contributor>
    <created>2017-11-29T10:55:19</created>
    <modified>2017-11-29T10:55:19</modified>
    <unit name="meter" meter="1"/>
    <up_axis>Z_UP</up_axis>
  </asset>
  <library_images/>
  <library_effects/>
  <library_geometries>
    <geometry id="Cylinder_001-mesh" name="Cylinder.001">
      <mesh>
        <source id="Cylinder_001-mesh-positions">
          <float_array id="Cylinder_001-mesh-positions-array" count="216">0.00532484 0.06083202 -0.1662154 -0.1295585 0.005867958 0.1899015 0.03859305 0.0430147 -0.1662154 -0.1319449 0.004149258 0.1920471 0.05891621 0 -0.1662154 -0.1329333 0 0.1929358 0.04321968 -0.0430147 -0.1662154 -0.1319449 -0.004149198 0.1920471 0.00532484 -0.06083202 -0.1662154 -0.1295585 -0.005867898 0.1899015 -0.03256994 -0.0430147 -0.1662154 -0.127172 -0.004149198 0.187756 -0.04826647 0 -0.1662154 -0.1261835 0 0.1868673 -0.02794331 0.0430147 -0.1662154 -0.127172 0.004149258 0.187756 0.00532484 0.06083202 0.02150285 0.03859305 0.0430147 0.02150285 0.05891621 0 0.02150285 0.04321968 -0.0430147 0.02150285 0.00532484 -0.06083202 0.02150285 -0.03256994 -0.0430147 0.02150285 -0.04826647 0 0.02150285 -0.02794331 0.0430147 0.02150285 0.00532484 0.0427367 0.07398808 0.02869701 0.03021937 0.07398808 0.03837805 0 0.07398808 0.02869701 -0.03021937 0.07398808 0.00532484 -0.0427367 0.07398808 -0.01804727 -0.03021937 0.07398808 -0.02772831 0 0.07398808 -0.01804727 0.03021937 0.07398808 0.00532484 0.0427367 0.1132452 0.02869701 0.03021937 0.1132452 0.03837805 0 0.1132452 0.02869701 -0.03021937 0.1132452 0.00532484 -0.0427367 0.1132452 -0.01804727 -0.03021937 0.1132452 -0.02772831 0 0.1132452 -0.01804727 0.03021937 0.1132452 0.004782736 0.005867958 0.1170572 0.00799185 0.004149258 0.1170572 0.009321093 0 0.1170572 0.00799185 -0.004149258 0.1170572 0.004782736 -0.005867898 0.1170572 0.001573622 -0.004149258 0.1170572 2.44391e-4 0 0.1170572 0.001573622 0.004149258 0.1170572 -5.2469e-4 0.005867958 0.3115224 0.002684414 0.004149258 0.3115224 0.004013657 0 0.3115224 0.002684414 -0.004149258 0.3115224 -5.24691e-4 -0.005867898 0.3115224 -0.003733754 -0.002238929 0.3115224 -0.005062997 0 0.3115224 -0.003733754 0.002238929 0.3115224 -0.006165683 0.005743503 0.3283175 -0.004707753 0.004061222 0.3313765 -0.004103839 0 0.3326436 -0.004707753 -0.004061222 0.3313765 -0.006165683 -0.005743503 0.3283175 -0.007623612 -0.004061222 0.3252586 -0.008227527 0 0.3239915 -0.007623612 0.004061222 0.3252586 -0.02519953 0.005518555 0.3280467 -0.02725279 0.003902196 0.3307422 -0.02810329 0 0.3318588 -0.02725279 -0.003902196 0.3307422 -0.02519953 -0.005518555 0.3280467 -0.02314627 -0.003902196 0.3253511 -0.02229577 0 0.3242346 -0.02314627 0.003902196 0.3253511</float_array>
          <technique_common>
            <accessor source="#Cylinder_001-mesh-positions-array" count="72" stride="3">
              <param name="X" type="float"/>
              <param name="Y" type="float"/>
              <param name="Z" type="float"/>
            </accessor>
          </technique_common>
        </source>
        <source id="Cylinder_001-mesh-normals">
          <float_array id="Cylinder_001-mesh-normals-array" count="408">-0.3533059 0.8962134 0.2682846 -0.7542828 0.3272562 0.5691756 -0.7542827 -0.3272568 0.5691754 -0.3533064 -0.8962131 0.2682847 0.3555864 -0.895887 -0.266355 0.7540348 -0.3272925 -0.5694835 -0.6685781 -1.54554e-6 -0.743642 0.7540351 0.3272913 -0.5694836 0.3555876 0.8958863 -0.2663555 -2.68608e-7 0 -1 -0.472119 0.8815349 0 -0.9041625 0.4271889 0 -0.9394085 -0.3428001 0 -0.4254929 -0.9049618 0 0.4254928 -0.9049618 0 0.9394084 -0.3428003 0 0.9041624 0.4271889 0 0.472119 0.8815349 0 -0.4517169 0.8434404 0.2907924 -0.8718823 0.4119372 0.2648189 -0.8884529 -0.3242059 0.3248726 -0.4061818 -0.8638901 0.2978428 0.4061818 -0.8638901 0.2978428 0.8884528 -0.324206 0.3248726 0.8718823 0.4119373 0.2648189 0.4517168 0.8434404 0.2907923 -0.472119 0.8815349 0 -0.9523249 0.3050856 0 -0.952325 -0.3050854 0 -0.472119 -0.8815348 0 0.4721188 -0.881535 0 0.9523249 -0.3050856 0 0.9523249 0.3050856 0 0.4721189 0.8815349 0 -0.05542695 0.103493 0.9930847 -0.1349002 0.04321652 0.9899163 -0.1349007 -0.04321652 0.9899162 -0.05542749 -0.1034929 0.9930846 0.05457246 -0.1018975 0.993297 0.1299625 -0.04163455 0.9906444 0.1299625 0.0416345 0.9906444 0.05457299 0.1018974 0.9932969 -0.4720793 0.881462 -0.01288419 -0.9520733 0.3050048 -0.02298825 -0.9520734 -0.3050048 -0.02298825 -0.4720794 -0.8814619 -0.01288419 0.472079 -0.8814621 0.01288419 0.9520035 -0.3049823 0.02598255 0.9520035 0.3049824 0.02598255 0.4720799 0.8814617 0.01288419 -0.7175173 0.634501 -0.2873631 -0.8401079 0.4987605 -0.2132063 -0.8401073 -0.4987612 -0.2132065 -0.7175173 -0.634501 -0.287363 0.4658116 -0.8697609 0.1628978 0.8971891 -0.2874223 0.3353213 0.8971886 0.2874229 0.3353217 0.4658138 0.8697597 0.1628981 -0.01184964 0.8785524 -0.4774991 -0.01647603 0.3000229 -0.9537897 -0.01647835 -0.300023 -0.9537897 -0.0118488 -0.8785521 -0.4774996 -0.01725715 -0.8726142 0.4881053 -0.0289548 -0.2937803 0.9554343 -0.02894943 0.2937805 0.9554345 -0.01725733 0.8726139 0.4881058 -0.3766112 0.8808801 0.2867308 -0.7600897 0.3040744 0.5742844 -0.7600893 -0.3040749 0.5742845 -0.3766117 -0.8808797 0.2867312 0.3784854 -0.8807793 -0.2845641 0.7598199 -0.304087 -0.5746347 -0.6685749 0 -0.7436449 -0.6685729 1.05536e-5 -0.7436466 -0.6685743 0 -0.7436454 -0.6685749 0 -0.7436448 -0.6685743 -5.46428e-7 -0.7436453 0.7598199 0.3040869 -0.5746346 0.3784869 0.8807784 -0.284565 0 0 -1 3.25404e-7 0 -1 2.85676e-7 0 -1 -3.37401e-7 0 -1 -0.472119 0.8815349 0 -0.9041625 0.4271886 0 -0.9394084 -0.3428003 0 -0.4254928 -0.9049618 0 0.4254928 -0.904962 0 0.9394083 -0.3428004 0 0.9041625 0.4271888 0 0.472119 0.8815349 0 -0.451717 0.8434404 0.2907925 -0.8923752 0.2858803 0.3491979 -0.8923752 -0.2858803 0.3491978 -0.4462301 -0.8331953 0.3265954 0.44623 -0.8331952 0.3265956 0.8923752 -0.2858803 0.3491979 0.8923751 0.2858802 0.3491979 0.451717 0.8434404 0.2907923 -0.952325 0.3050854 0 -0.9523249 -0.3050856 0 -0.472119 -0.8815348 0 0.4721191 -0.8815348 0 0.472119 0.8815348 0 -0.05542385 0.103493 0.9930849 -0.1349003 0.04321646 0.9899163 -0.1349003 -0.04321652 0.9899163 -0.05542558 -0.103493 0.9930847 0.05456972 -0.1018974 0.9932971 0.1299621 -0.0416345 0.9906445 0.1299627 0.0416345 0.9906444 0.05457496 0.1018973 0.9932968 -0.749041 0.6623771 -0.01393646 -0.8596412 0.5103594 -0.02346175 -0.8596411 -0.5103597 -0.02346175 -0.749041 -0.6623772 -0.01393646 0.4720791 -0.881462 0.01288419 0.9520035 -0.3049823 0.02598255 0.9520035 0.3049824 0.02598255 0.4720799 0.8814616 0.01288419 -0.5563504 0.8110281 -0.1808532 -0.9280779 0.2294983 -0.2932608 -0.9280784 -0.2294976 -0.2932603 -0.5563514 -0.8110273 -0.1808531 0.5295767 -0.8241461 0.200828 0.9054096 -0.2431979 0.3479774 0.9054092 0.2431984 0.3479784 0.529577 0.8241457 0.2008284 -0.002781331 0.8566884 -0.5158269 -0.008538484 0.2733667 -0.9618721 -0.008536338 -0.2733669 -0.961872 -0.002782583 -0.8566883 -0.515827 -0.02024269 -0.8641801 0.5027754 -0.03136807 -0.2812674 0.9591167 -0.03136652 0.2812676 0.9591167 -0.02024114 0.8641795 0.5027765</float_array>
          <technique_common>
            <accessor source="#Cylinder_001-mesh-normals-array" count="136" stride="3">
              <param name="X" type="float"/>
              <param name="Y" type="float"/>
              <param name="Z" type="float"/>
            </accessor>
          </technique_common>
        </source>
        <vertices id="Cylinder_001-mesh-vertices">
          <input semantic="POSITION" source="#Cylinder_001-mesh-positions"/>
        </vertices>
        <polylist count="140">
          <input semantic="VERTEX" source="#Cylinder_001-mesh-vertices" offset="0"/>
          <input semantic="NORMAL" source="#Cylinder_001-mesh-normals" offset="1"/>
          <vcount>3 3 3 3 3 3 3 3 3 3 3 3 3 3 3 3 3 3 3 3 3 3 3 3 3 3 3 3 3 3 3 3 3 3 3 3 3 3 3 3 3 3 3 3 3 3 3 3 3 3 3 3 3 3 3 3 3 3 3 3 3 3 3 3 3 3 3 3 3 3 3 3 3 3 3 3 3 3 3 3 3 3 3 3 3 3 3 3 3 3 3 3 3 3 3 3 3 3 3 3 3 3 3 3 3 3 3 3 3 3 3 3 3 3 3 3 3 3 3 3 3 3 3 3 3 3 3 3 3 3 3 3 3 3 3 3 3 3 3 3 </vcount>
          <p>64 0 3 0 65 0 65 1 5 1 66 1 5 2 67 2 66 2 7 3 68 3 67 3 9 4 69 4 68 4 11 5 70 5 69 5 13 6 7 6 5 6 70 7 15 7 71 7 71 8 1 8 64 8 6 9 12 9 4 9 23 10 0 10 14 10 22 11 14 11 12 11 21 12 12 12 10 12 20 13 10 13 8 13 19 14 8 14 6 14 18 15 6 15 4 15 17 16 4 16 2 16 16 17 2 17 0 17 23 18 24 18 16 18 22 19 31 19 23 19 29 20 22 20 21 20 28 21 21 21 20 21 19 22 28 22 20 22 18 23 27 23 19 23 25 24 18 24 17 24 24 25 17 25 16 25 39 26 24 26 31 26 38 27 31 27 30 27 37 28 30 28 29 28 36 29 29 29 28 29 35 30 28 30 27 30 34 31 27 31 26 31 33 32 26 32 25 32 32 33 25 33 24 33 39 34 40 34 32 34 38 35 47 35 39 35 45 36 38 36 37 36 44 37 37 37 36 37 35 38 44 38 36 38 34 39 43 39 35 39 41 40 34 40 33 40 40 41 33 41 32 41 47 42 48 42 40 42 46 43 55 43 47 43 53 44 46 44 45 44 52 45 45 45 44 45 51 46 44 46 43 46 50 47 43 47 42 47 41 48 50 48 42 48 40 49 49 49 41 49 63 50 48 50 55 50 62 51 55 51 54 51 53 52 62 52 54 52 52 53 61 53 53 53 51 54 60 54 52 54 50 55 59 55 51 55 57 56 50 56 49 56 56 57 49 57 48 57 71 58 56 58 63 58 70 59 63 59 62 59 61 60 70 60 62 60 60 61 69 61 61 61 59 62 68 62 60 62 58 63 67 63 59 63 65 64 58 64 57 64 64 65 57 65 56 65 64 66 1 66 3 66 65 67 3 67 5 67 5 68 7 68 67 68 7 69 9 69 68 69 9 70 11 70 69 70 11 71 13 71 70 71 5 72 3 72 13 72 1 73 15 73 3 73 13 74 11 74 7 74 9 75 7 75 11 75 3 76 15 76 13 76 70 77 13 77 15 77 71 78 15 78 1 78 14 79 0 79 2 79 2 80 4 80 14 80 6 79 8 79 10 79 10 81 12 81 6 81 14 82 4 82 12 82 23 83 16 83 0 83 22 84 23 84 14 84 21 85 22 85 12 85 20 86 21 86 10 86 19 87 20 87 8 87 18 88 19 88 6 88 17 89 18 89 4 89 16 90 17 90 2 90 23 91 31 91 24 91 22 92 30 92 31 92 29 93 30 93 22 93 28 94 29 94 21 94 19 95 27 95 28 95 18 96 26 96 27 96 25 97 26 97 18 97 24 98 25 98 17 98 39 26 32 26 24 26 38 99 39 99 31 99 37 100 38 100 30 100 36 101 37 101 29 101 35 102 36 102 28 102 34 31 35 31 27 31 33 32 34 32 26 32 32 103 33 103 25 103 39 104 47 104 40 104 38 105 46 105 47 105 45 106 46 106 38 106 44 107 45 107 37 107 35 108 43 108 44 108 34 109 42 109 43 109 41 110 42 110 34 110 40 111 41 111 33 111 47 112 55 112 48 112 46 113 54 113 55 113 53 114 54 114 46 114 52 115 53 115 45 115 51 116 52 116 44 116 50 117 51 117 43 117 41 118 49 118 50 118 40 119 48 119 49 119 63 120 56 120 48 120 62 121 63 121 55 121 53 122 61 122 62 122 52 123 60 123 61 123 51 124 59 124 60 124 50 125 58 125 59 125 57 126 58 126 50 126 56 127 57 127 49 127 71 128 64 128 56 128 70 129 71 129 63 129 61 130 69 130 70 130 60 131 68 131 69 131 59 132 67 132 68 132 58 133 66 133 67 133 65 134 66 134 58 134 64 135 65 135 57 135</p>
        </polylist>
      </mesh>
    </geometry>
  </library_geometries>
  <library_controllers/>
  <library_visual_scenes>
    <visual_scene id="Scene" name="Scene">
      <node id="Cylinder" name="Cylinder" type="NODE">
        <matrix sid="transform">1 0 0 0 0 1 0 0 0 0 1 0.17 0 0 0 1</matrix>
        <instance_geometry url="#Cylinder_001-mesh" name="Cylinder"/>
      </node>
    </visual_scene>
  </library_visual_scenes>
  <scene>
    <instance_visual_scene url="#Scene"/>
  </scene>
</COLLADA>