<?xml version="1.0" encoding="UTF-8"?>
<COLLADA xmlns="http://www.collada.org/2005/11/COLLADASchema" version="1.4.1">
    <asset>
        <contributor>
            <author>VCGLab</author>
            <authoring_tool>VCGLib | MeshLab</authoring_tool>
        </contributor>
        <created>Mi Nov 9 07:26:11 2016 GMT</created>
        <modified>Mi Nov 9 07:26:11 2016 GMT</modified>
        <up_axis>Y_UP</up_axis>
    </asset>
    <library_geometries>
        <geometry id="shape0-lib" name="shape0">
            <mesh>
                <source id="shape0-lib-positions" name="position">
                    <float_array id="shape0-lib-positions-array" count="294">0.00278779 -0.00368402 0.00258938 0.00387659 0.00364421 0.000859004 -0.00388483 0.00364421 0.00085983 -0.00281509 -0.00368402 0.00258997 0.00280842 -0.00235346 0.00901436 0.00288881 0.00363036 0.0108097 -0.00289492 0.00348049 0.0108103 -0.00279554 -0.00235346 0.00901496 0.00313981 -0.00376409 0.00594908 0.00434883 0.00400691 0.00601522 -0.00435597 0.00400691 0.00601615 -0.00314702 -0.00376408 0.00594975 -2.99594e-06 0.00384067 0.011354 -4.18245e-06 0.00400691 0.000266164 1.57175e-06 -0.00253763 0.00919845 -8.77036e-06 -0.00402554 0.00237234 -3.56716e-06 0.00400691 0.00601569 -3.57876e-06 -0.00434729 0.00594453 0.00329728 -0.000101039 0.0101816 0.00338477 -0.000287732 0.00178274 -0.00330033 -0.000101038 0.0101823 -0.00339601 -0.000287733 0.00178346 0.00407815 -0.000298168 0.00600396 -0.0040853 -0.000298161 0.00600483 -4.49391e-06 -0.00032917 0.00127754 -2.65777e-06 -0.000118175 0.0106894 0.00306107 -0.00305163 0.00772006 0.00382475 0.00400691 0.00897989 -0.00383126 0.00400691 0.00898071 -0.00305524 -0.00305163 0.00772071 -3.2499e-06 0.0040069 0.00898029 -4.92407e-07 -0.0035318 0.00773485 0.00395203 -0.000196324 0.00836022 -0.0039567 -0.000196325 0.00836106 0.00434851 0.00400691 0.003008 -0.00435629 0.00400691 0.00300893 -0.00306726 -0.00385856 0.00402807 0.00304696 -0.00385857 0.00402741 -3.88898e-06 0.00400691 0.00300847 -6.71203e-06 -0.00446687 0.00398339 0.00400619 -0.000297747 0.00361623 -0.00401584 -0.000297751 0.00361709 0.00314554 -0.00223784 0.00219566 -0.00314506 -0.00142741 0.00957266 0.00384867 -0.00222548 0.00597658 -6.86823e-06 -0.0023807 0.00170246 -3.0237e-07 -0.00144592 0.0100426 0.00315142 -0.00142741 0.00957199 -0.00316626 -0.00223784 0.00219633 -0.00385585 -0.00222548 0.0059774 -0.00373782 -0.00181535 0.00800892 0.0037394 -0.00181535 0.00800813 -0.00374995 -0.00227245 0.00385292 0.00373397 -0.00227245 0.00385212 0.00314335 0.00184973 0.0106529 -0.0036023 0.00183553 0.00129848 -0.00418108 0.00183261 0.00600952 0.00359388 0.00183553 0.00129771 -0.00314922 0.00181761 0.0106536 0.00417394 0.0018326 0.00600862 -4.12563e-06 0.00183087 0.000806852 -3.01682e-06 0.0018254 0.011168 0.00390006 0.00184144 0.00864419 -0.00390649 0.00184144 0.00864502 0.00415085 0.00183414 0.00335896 -0.0041587 0.00183413 0.00335985 0.00217202 0.00400691 0.000265931 0.00151515 -0.00245266 0.00912656 0.00217263 0.00400691 0.00601546 0.0014597 0.00392379 0.0112854 0.00149958 -0.0038928 0.00245174 0.00163176 -0.00417869 0.00594564 0.00172201 -0.00010635 0.0105708 0.00176872 -0.000308916 0.00139522 0.0015885 -0.00338886 0.00770884 0.00191074 0.00400691 0.00898009 0.00157821 -0.00428907 0.00401536 0.00217232 0.00400691 0.00300824 0.00164459 -0.00141151 0.00992534 0.00163837 -0.00231213 0.00182402 0.00163017 0.00183757 0.0110606 0.00187742 0.0018332 0.000903802 -0.0014657 0.00379533 0.0112857 -0.00152209 -0.00389281 0.00245206 -0.00163894 -0.00417869 0.00594599 -0.00218038 0.00400691 0.000266396 -0.00150707 -0.00245265 0.00912688 -0.00217977 0.00400691 0.00601592 -0.00177886 -0.000308915 0.0013956 -0.00172616 -0.000106342 0.0105712 -0.00191725 0.00400691 0.0089805 -0.00158604 -0.00338885 0.00770918 -0.00218009 0.00400691 0.00300869 -0.00159511 -0.00428907 0.0040157 -0.00165564 -0.00231213 0.00182437 -0.00164166 -0.0014115 0.0099257 -0.00188578 0.0018332 0.000904209 -0.00163609 0.00182151 0.0110609</float_array>
                    <technique_common>
                        <accessor count="98" source="#shape0-lib-positions-array" stride="3">
                            <param name="X" type="float"/>
                            <param name="Y" type="float"/>
                            <param name="Z" type="float"/>
                        </accessor>
                    </technique_common>
                </source>
                <source id="shape0-lib-normals" name="normal">
                    <float_array id="shape0-lib-normals-array" count="576">0.96449 -0.194183 -0.179029 -0.208126 0.978102 2.2265e-05 -0.896124 -0.305283 -0.322124 0.180884 -0.951161 -0.250148 -0.216387 -0.261902 -0.940523 0.260186 -0.0476949 0.96438 0.991424 -0.0800586 0.103295 2.13992e-07 1 1.19201e-07 -0.886211 -0.41208 0.211706 0.241921 -0.883283 0.401604 2.13979e-07 1 -2.29092e-11 -0.0980376 -0.959853 -0.262812 0.0502401 -0.240836 -0.969265 -0.0436543 -0.0918541 0.994815 2.13998e-07 1 1.75976e-07 -0.0930391 -0.906031 0.412857 0.931095 -0.181252 -0.31656 -0.954269 -0.151573 -0.257674 -0.229933 -0.227428 -0.94626 0.202141 -0.427266 0.881239 0.989889 -0.118958 0.0772598 -0.997397 -0.0449606 0.0563795 0.0805445 -0.202248 -0.976017 -0.0645371 -0.437118 0.897086 0.935543 -0.0221123 0.352519 2.98318e-05 0.961016 0.276492 -0.746511 -0.511403 0.425663 0.190429 -0.848002 0.4946 5.92248e-07 0.999351 0.0360323 -0.0837166 -0.829391 0.55236 0.899029 -0.202503 0.388252 -0.94009 -0.0242264 0.340065 0.995886 -0.0906138 -0.000106769 2.13996e-07 1 1.54824e-07 -0.91642 -0.398517 -0.0368689 0.280608 -0.958669 0.0470357 2.13995e-07 1 1.54825e-07 -0.109817 -0.992099 0.0606677 0.989702 -0.139998 -0.0298522 -0.997658 -0.0678779 -0.00846643 -0.932134 -0.176734 -0.316057 -0.989547 -0.118966 0.0815073 0.89402 -0.309385 -0.32405 -0.241687 -0.309056 -0.919822 0.184165 -0.556198 0.810387 0.887473 -0.412543 0.205424 0.0816762 -0.376 -0.923013 -0.0718002 -0.610218 0.788973 -0.89689 -0.206331 0.391172 0.750071 -0.50974 0.421377 -0.990184 -0.136767 -0.0288286 0.915223 -0.400903 -0.0405501 0.954006 -0.152863 -0.257888 -0.22948 -0.237872 -0.943799 0.235151 -0.210693 0.948848 0.997455 -0.0449649 0.0553324 0.0671195 -0.212442 -0.974866 -0.0629444 -0.238607 0.969074 -0.964551 -0.194043 -0.178853 -0.991396 -0.080058 0.10356 0.940401 -0.0232956 0.339269 -0.935564 -0.0221328 0.352462 0.997596 -0.0687489 -0.00873356 -0.995892 -0.0905488 0.000106546 0.0983104 -0.959764 -0.263038 0.0660219 -0.101553 0.992637 0.0931402 -0.906144 0.412588 0.208127 0.978102 -2.27425e-05 0.254738 -0.303913 -0.918012 2.14e-07 1 1.94901e-07 0.0729535 -0.44561 0.89225 0.243763 -0.218145 -0.944983 0.0836595 -0.82955 0.55213 2.18125e-05 0.979473 0.201575 0.110077 -0.992091 0.0603159 -2.78149e-06 1 2.32302e-06 0.0689669 -0.61264 0.787347 0.158533 -0.376405 -0.912791 0.0682326 -0.240704 0.968197 0.218042 -0.228715 -0.948761 2.13979e-07 1 -2.28911e-11 -0.000102713 -0.281565 -0.959542 2.13994e-07 1 1.38125e-07 -0.180249 -0.951442 -0.249535 -0.298117 -0.0825384 0.950954 -0.241707 -0.882831 0.402725 -0.0672857 -0.212782 -0.97478 -0.216302 -0.444052 0.869501 1.36847e-05 0.995815 0.0913956 -0.19063 -0.84748 0.495417 2.13995e-07 1 1.54824e-07 -0.279975 -0.958783 0.0484687 -0.083847 -0.37388 -0.923679 -0.115102 -0.613995 0.780872 -0.0506162 -0.2257 -0.972881 -0.252606 -0.227117 0.940536 0.957304 -0.128883 -0.258763 -1.76117e-05 0.986055 -0.166417 -0.890499 -0.405973 -0.20542 0.278664 -0.946098 -0.165059 -0.254936 -0.303901 -0.917961 0.300427 -0.0778723 0.950621 0.984706 0.00726104 0.174074 2.43305e-07 1 1.3553e-07 -0.850015 -0.504577 0.151249 0.204401 -0.904973 0.373154 2.13978e-07 1 -2.33815e-11 -0.112738 -0.96191 -0.249035 -0.000102721 -0.281562 -0.959543 -0.0647669 -0.107369 0.992108 -3.16257e-06 1 2.35644e-06 -0.0884938 -0.908043 0.409422 0.927855 -0.167698 -0.333109 -0.942264 -0.101644 -0.319071 -0.243439 -0.217299 -0.945261 0.216442 -0.443094 0.869954 0.988018 -0.142599 0.0590473 -0.994569 0.0100683 0.103589 0.0671178 -0.21302 -0.97474 -0.0729153 -0.44594 0.892088 0.879932 0.0846317 0.467501 -0.256651 0.956591 0.138072 -0.742077 -0.528441 0.412398 0.11126 -0.826634 0.551632 -0.0533302 0.996137 0.0697637 -0.0730556 -0.824954 0.560459 0.905523 -0.255334 0.33887 -0.935679 -0.0129179 0.352615 0.996745 -0.0801466 -0.00873276 2.13996e-07 1 1.54824e-07 -0.908233 -0.418113 -0.0171393 0.264857 -0.963667 0.0345813 2.13996e-07 1 1.54825e-07 -0.102352 -0.993256 0.0544732 0.991781 -0.117362 -0.0509526 -0.998572 -0.0448254 -0.0290568 -0.929215 -0.164626 -0.330845 -0.987364 -0.14658 0.0602239 0.88856 -0.408045 -0.20967 -0.158089 -0.375936 -0.913061 0.114839 -0.613627 0.7812 0.852293 -0.501934 0.147173 0.0838345 -0.37413 -0.923579 -0.0689397 -0.612864 0.787175 -0.903525 -0.261742 0.339314 0.746446 -0.523697 0.410561 -0.991976 -0.117428 -0.0468498 0.908155 -0.417983 -0.023333 0.941923 -0.102509 -0.3198 -0.218233 -0.228534 -0.948761 0.255148 -0.224868 0.94039 0.994588 0.0109668 0.103319 0.0504078 -0.225743 -0.972882 -0.0680476 -0.242646 0.967725 -0.957384 -0.128814 -0.2585 -0.984669 0.00719435 0.174282 0.935727 -0.0113386 0.352543 -0.875986 0.0892974 0.473999 0.998541 -0.0448267 -0.0301018 -0.996747 -0.0801464 -0.0084658 0.112925 -0.961788 -0.249424 0.0519136 -0.0918188 0.994422 0.0883955 -0.908236 0.409016 -2.05481e-05 0.986055 -0.166419 0.216205 -0.261933 -0.940556 2.4331e-07 1 1.78566e-07 0.0646933 -0.436928 0.897167 0.229847 -0.228509 -0.94602 0.0729372 -0.825057 0.560323 0.225716 0.970971 0.0791717 0.102368 -0.993282 0.0539594 2.13996e-07 1 1.54825e-07 0.0717336 -0.610067 0.789096 0.241984 -0.310159 -0.919372 0.0654831 -0.238545 0.968921 0.229426 -0.238175 -0.943735 2.13979e-07 1 -2.28993e-11 -0.0504473 -0.240836 -0.969254 3.64965e-06 1 2.35572e-06 -0.278163 -0.94649 -0.16365 -0.25948 -0.0511907 0.964391 -0.204642 -0.904389 0.374437 -0.0805731 -0.202069 -0.976051 -0.202263 -0.428462 0.88063 -0.0341651 0.996974 0.0698202 -0.111565 -0.826393 0.551932 2.13996e-07 1 1.54825e-07 -0.26483 -0.963608 0.0363844 -0.081597 -0.37584 -0.923085 -0.184245 -0.557169 0.809701 -0.0672868 -0.212418 -0.97486 -0.234939 -0.214373 0.948076</float_array>
                    <technique_common>
                        <accessor count="192" source="#shape0-lib-normals-array" stride="3">
                            <param name="X" type="float"/>
                            <param name="Y" type="float"/>
                            <param name="Z" type="float"/>
                        </accessor>
                    </technique_common>
                </source>
                <source id="shape0-lib-vcolor" name="vcolor">
                    <float_array id="shape0-lib-vcolor-array" count="392">0.654902 0.501961 0.313725 1 0.654902 0.501961 0.313725 1 0.654902 0.501961 0.313725 1 0.654902 0.501961 0.313725 1 0.654902 0.501961 0.313725 1 0.654902 0.501961 0.313725 1 0.654902 0.501961 0.313725 1 0.654902 0.501961 0.313725 1 0.654902 0.501961 0.313725 1 0.654902 0.501961 0.313725 1 0.654902 0.501961 0.313725 1 0.654902 0.501961 0.313725 1 0.654902 0.501961 0.313725 1 0.654902 0.501961 0.313725 1 0.654902 0.501961 0.313725 1 0.654902 0.501961 0.313725 1 0.654902 0.501961 0.313725 1 0.654902 0.501961 0.313725 1 0.654902 0.501961 0.313725 1 0.654902 0.501961 0.313725 1 0.654902 0.501961 0.313725 1 0.654902 0.501961 0.313725 1 0.654902 0.501961 0.313725 1 0.654902 0.501961 0.313725 1 0.654902 0.501961 0.313725 1 0.654902 0.501961 0.313725 1 0.654902 0.501961 0.313725 1 0.654902 0.501961 0.313725 1 0.654902 0.501961 0.313725 1 0.654902 0.501961 0.313725 1 0.654902 0.501961 0.313725 1 0.654902 0.501961 0.313725 1 0.654902 0.501961 0.313725 1 0.654902 0.501961 0.313725 1 0.654902 0.501961 0.313725 1 0.654902 0.501961 0.313725 1 0.654902 0.501961 0.313725 1 0.654902 0.501961 0.313725 1 0.654902 0.501961 0.313725 1 0.654902 0.501961 0.313725 1 0.654902 0.501961 0.313725 1 0.654902 0.501961 0.313725 1 0.654902 0.501961 0.313725 1 0.654902 0.501961 0.313725 1 0.654902 0.501961 0.313725 1 0.654902 0.501961 0.313725 1 0.654902 0.501961 0.313725 1 0.654902 0.501961 0.313725 1 0.654902 0.501961 0.313725 1 0.654902 0.501961 0.313725 1 0.654902 0.501961 0.313725 1 0.654902 0.501961 0.313725 1 0.654902 0.501961 0.313725 1 0.654902 0.501961 0.313725 1 0.654902 0.501961 0.313725 1 0.654902 0.501961 0.313725 1 0.654902 0.501961 0.313725 1 0.654902 0.501961 0.313725 1 0.654902 0.501961 0.313725 1 0.654902 0.501961 0.313725 1 0.654902 0.501961 0.313725 1 0.654902 0.501961 0.313725 1 0.654902 0.501961 0.313725 1 0.654902 0.501961 0.313725 1 0.654902 0.501961 0.313725 1 0.654902 0.501961 0.313725 1 0.654902 0.501961 0.313725 1 0.654902 0.501961 0.313725 1 0.654902 0.501961 0.313725 1 0.654902 0.501961 0.313725 1 0.654902 0.501961 0.313725 1 0.654902 0.501961 0.313725 1 0.654902 0.501961 0.313725 1 0.654902 0.501961 0.313725 1 0.654902 0.501961 0.313725 1 0.654902 0.501961 0.313725 1 0.654902 0.501961 0.313725 1 0.654902 0.501961 0.313725 1 0.654902 0.501961 0.313725 1 0.654902 0.501961 0.313725 1 0.654902 0.501961 0.313725 1 0.654902 0.501961 0.313725 1 0.654902 0.501961 0.313725 1 0.654902 0.501961 0.313725 1 0.654902 0.501961 0.313725 1 0.654902 0.501961 0.313725 1 0.654902 0.501961 0.313725 1 0.654902 0.501961 0.313725 1 0.654902 0.501961 0.313725 1 0.654902 0.501961 0.313725 1 0.654902 0.501961 0.313725 1 0.654902 0.501961 0.313725 1 0.654902 0.501961 0.313725 1 0.654902 0.501961 0.313725 1 0.654902 0.501961 0.313725 1 0.654902 0.501961 0.313725 1 0.654902 0.501961 0.313725 1 0.654902 0.501961 0.313725 1</float_array>
                    <technique_common>
                        <accessor count="98" source="#shape0-lib-vcolor-array" stride="4">
                            <param name="R" type="float"/>
                            <param name="G" type="float"/>
                            <param name="B" type="float"/>
                            <param name="A" type="float"/>
                        </accessor>
                    </technique_common>
                </source>
                <vertices id="shape0-lib-vertices">
                    <input semantic="POSITION" source="#shape0-lib-positions"/>
                </vertices>
                <triangles count="192">
                    <input offset="0" semantic="VERTEX" source="#shape0-lib-vertices"/>
                    <input offset="1" semantic="COLOR" source="#shape0-lib-vcolor"/>
                    <input offset="2" semantic="NORMAL" source="#shape0-lib-normals"/>
                    <p>57 57 0 1 1 0 34 34 0 92 92 1 85 85 1 2 2 1 52 52 2 48 48 2 3 3 2 76 76 3 70 70 3 0 0 3 96 96 4 55 55 4 2 2 4 80 80 5 54 54 5 5 5 5 62 62 6 59 59 6 9 9 6 87 87 7 10 10 7 28 28 7 49 49 8 11 11 8 29 29 8 74 74 9 71 71 9 8 8 9 66 66 10 13 13 10 38 38 10 83 83 11 15 15 11 39 39 11 81 81 12 60 60 12 13 13 12 61 61 13 12 12 13 82 82 13 75 75 14 68 68 14 16 16 14 84 84 15 17 17 15 31 31 15 42 42 16 19 19 16 40 40 16 65 65 17 55 55 17 21 21 17 48 48 18 21 21 18 88 88 18 78 78 19 47 47 19 18 18 19 51 51 20 44 44 20 22 22 20 56 56 21 23 23 21 33 33 21 79 79 22 45 45 22 24 24 22 46 46 23 25 25 23 89 89 23 54 54 24 62 62 24 27 27 24 90 90 25 28 28 25 6 6 25 50 50 26 29 29 26 7 7 26 74 74 27 26 26 27 4 4 27 69 69 28 75 75 28 30 30 28 86 86 29 91 91 29 31 31 29 47 47 30 51 51 30 32 32 30 63 63 31 33 33 31 20 20 31 64 64 32 34 34 32 9 9 32 87 87 33 92 92 33 35 35 33 49 49 34 52 52 34 36 36 34 71 71 35 76 76 35 37 37 35 68 68 36 77 77 36 38 38 36 93 93 37 39 39 37 17 17 37 53 53 38 40 40 38 22 22 38 56 56 39 65 65 39 41 41 39 41 41 40 21 21 40 48 48 40 23 23 41 49 49 41 50 50 41 0 0 42 42 42 42 53 53 42 3 3 43 48 48 43 94 94 43 4 4 44 47 47 44 78 78 44 26 26 45 8 8 45 44 44 45 70 70 46 15 15 46 45 45 46 86 86 47 14 14 47 46 46 47 33 33 48 50 50 48 43 43 48 4 4 49 26 26 49 51 51 49 23 23 50 41 41 50 52 52 50 37 37 51 53 53 51 44 44 51 19 19 52 57 57 52 64 64 52 88 88 53 21 21 53 55 55 53 72 72 54 18 18 54 54 54 54 32 32 55 22 22 55 59 59 55 73 73 56 24 24 56 60 60 56 25 25 57 61 61 57 97 97 57 35 35 58 2 2 58 55 55 58 10 10 59 56 56 59 63 63 59 18 18 60 32 32 60 62 62 60 28 28 61 63 63 61 58 58 61 40 40 62 64 64 62 59 59 62 10 10 63 35 35 63 65 65 63 39 39 64 15 15 64 70 70 64 61 61 65 80 80 65 69 69 65 31 31 66 17 17 66 71 71 66 1 1 67 66 66 67 77 77 67 81 81 68 66 66 68 1 1 68 27 27 69 9 9 69 68 68 69 46 46 70 78 78 70 72 72 70 42 42 71 79 79 71 73 73 71 31 31 72 74 74 72 67 67 72 5 5 73 27 27 73 75 75 73 17 17 74 39 39 74 76 76 74 9 9 75 34 34 75 77 77 75 67 67 76 78 78 76 46 46 76 0 0 77 70 70 77 79 79 77 25 25 78 72 72 78 80 80 78 73 73 79 81 81 79 57 57 79 13 13 80 85 85 80 92 92 80 96 96 81 85 85 81 13 13 81 16 16 82 87 87 82 90 90 82 3 3 83 83 83 83 93 93 83 97 97 84 82 82 84 6 6 84 11 11 85 84 84 85 91 91 85 94 94 86 88 88 86 24 24 86 95 95 87 89 89 87 20 20 87 30 30 88 90 90 88 82 82 88 7 7 89 29 29 89 91 91 89 38 38 90 92 92 90 87 87 90 36 36 91 93 93 91 84 84 91 83 83 92 94 94 92 45 45 92 7 7 93 86 86 93 95 95 93 88 88 94 96 96 94 60 60 94 89 89 95 97 97 95 58 58 95 64 64 96 57 57 96 34 34 96 35 35 97 92 92 97 2 2 97 36 36 98 52 52 98 3 3 98 37 37 99 76 76 99 0 0 99 85 85 100 96 96 100 2 2 100 69 69 101 80 80 101 5 5 101 27 27 102 62 62 102 9 9 102 90 90 103 87 87 103 28 28 103 50 50 104 49 49 104 29 29 104 26 26 105 74 74 105 8 8 105 77 77 106 66 66 106 38 38 106 93 93 107 83 83 107 39 39 107 66 66 108 81 81 108 13 13 108 97 97 109 61 61 109 82 82 109 30 30 110 75 75 110 16 16 110 91 91 111 84 84 111 31 31 111 53 53 112 42 42 112 40 40 112 41 41 113 65 65 113 21 21 113 94 94 114 48 48 114 88 88 114 72 72 115 78 78 115 18 18 115 32 32 116 51 51 116 22 22 116 63 63 117 56 56 117 33 33 117 73 73 118 79 79 118 24 24 118 95 95 119 46 46 119 89 89 119 5 5 120 54 54 120 27 27 120 82 82 121 90 90 121 6 6 121 43 43 122 50 50 122 7 7 122 67 67 123 74 74 123 4 4 123 12 12 124 69 69 124 30 30 124 14 14 125 86 86 125 31 31 125 18 18 126 47 47 126 32 32 126 58 58 127 63 63 127 20 20 127 59 59 128 64 64 128 9 9 128 10 10 129 87 87 129 35 35 129 11 11 130 49 49 130 36 36 130 8 8 131 71 71 131 37 37 131 16 16 132 68 68 132 38 38 132 84 84 133 93 93 133 17 17 133 44 44 134 53 53 134 22 22 134 23 23 135 56 56 135 41 41 135 52 52 136 41 41 136 48 48 136 33 33 137 23 23 137 50 50 137 37 37 138 0 0 138 53 53 138 83 83 139 3 3 139 94 94 139 67 67 140 4 4 140 78 78 140 51 51 141 26 26 141 44 44 141 79 79 142 70 70 142 45 45 142 95 95 143 86 86 143 46 46 143 20 20 144 33 33 144 43 43 144 47 47 145 4 4 145 51 51 145 49 49 146 23 23 146 52 52 146 8 8 147 37 37 147 44 44 147 40 40 148 19 19 148 64 64 148 96 96 149 88 88 149 55 55 149 80 80 150 72 72 150 54 54 150 62 62 151 32 32 151 59 59 151 81 81 152 73 73 152 60 60 152 89 89 153 25 25 153 97 97 153 65 65 154 35 35 154 55 55 154 28 28 155 10 10 155 63 63 155 54 54 156 18 18 156 62 62 156 6 6 157 28 28 157 58 58 157 22 22 158 40 40 158 59 59 158 56 56 159 10 10 159 65 65 159 76 76 160 39 39 160 70 70 160 12 12 161 61 61 161 69 69 161 74 74 162 31 31 162 71 71 162 34 34 163 1 1 163 77 77 163 57 57 164 81 81 164 1 1 164 75 75 165 27 27 165 68 68 165 25 25 166 46 46 166 72 72 166 19 19 167 42 42 167 73 73 167 14 14 168 31 31 168 67 67 168 69 69 169 5 5 169 75 75 169 71 71 170 17 17 170 76 76 170 68 68 171 9 9 171 77 77 171 14 14 172 67 67 172 46 46 172 42 42 173 0 0 173 79 79 173 61 61 174 25 25 174 80 80 174 19 19 175 73 73 175 57 57 175 38 38 176 13 13 176 92 92 176 60 60 177 96 96 177 13 13 177 30 30 178 16 16 178 90 90 178 36 36 179 3 3 179 93 93 179 58 58 180 97 97 180 6 6 180 29 29 181 11 11 181 91 91 181 45 45 182 94 94 182 24 24 182 43 43 183 95 95 183 20 20 183 12 12 184 30 30 184 82 82 184 86 86 185 7 7 185 91 91 185 16 16 186 38 38 186 87 87 186 11 11 187 36 36 187 84 84 187 15 15 188 83 83 188 45 45 188 43 43 189 7 7 189 95 95 189 24 24 190 88 88 190 60 60 190 20 20 191 89 89 191 58 58 191</p>
                </triangles>
            </mesh>
        </geometry>
    </library_geometries>
    <library_visual_scenes>
        <visual_scene id="VisualSceneNode" name="VisualScene">
            <node id="node" name="node">
                <instance_geometry url="#shape0-lib"/>
            </node>
        </visual_scene>
    </library_visual_scenes>
    <scene>
        <instance_visual_scene url="#VisualSceneNode"/>
    </scene>
</COLLADA>
