<?xml version="1.0" encoding="utf-8"?>
<COLLADA xmlns="http://www.collada.org/2005/11/COLLADASchema" version="1.4.1">
  <asset>
    <contributor>
      <author>Blender User</author>
      <authoring_tool>Blender 2.76.0 commit date:2015-11-03, commit time:10:56, hash:f337fea</authoring_tool>
    </contributor>
    <created>2016-11-13T17:55:48</created>
    <modified>2016-11-13T17:55:48</modified>
    <unit name="meter" meter="1"/>
    <up_axis>Z_UP</up_axis>
  </asset>
  <library_images/>
  <library_geometries>
    <geometry id="shape0_038-mesh" name="shape0.038">
      <mesh>
        <source id="shape0_038-mesh-positions">
          <float_array id="shape0_038-mesh-positions-array" count="294">-2.539977 -3.072379 -3.65857 -3.629087 -0.9816076 3.66971 4.132407 -0.9816076 3.66971 3.062807 -3.072379 -3.65849 -2.559977 -10.836 -2.327912 -2.640187 -13.0053 3.655888 3.143507 -13.0053 3.506008 3.044017 -10.836 -2.327912 -2.891677 -7.132139 -3.738571 -4.100777 -7.212179 4.032428 4.604115 -7.212179 4.032428 3.395117 -7.132139 -3.738571 0.2517177 -13.6627 3.866198 0.2517177 -0.2647277 4.03238 0.2469116 -11.0581 -2.512142 0.2565157 -2.809769 -4.00008 0.2517177 -7.212179 4.032428 0.2517177 -7.126237 -4.321801 -3.048687 -12.2465 -0.07554525 -3.137087 -2.09774 -0.2622473 3.548907 -12.2465 -0.07550799 3.643707 -2.09774 -0.2622473 -3.829987 -7.198558 -0.2726641 4.333405 -7.198558 -0.2726641 0.2521127 -1.48691 -0.3036782 0.2513157 -12.8597 -0.09264814 -2.812787 -9.272097 -3.026111 -3.576286 -10.7945 4.032418 4.079706 -10.7944 4.032458 3.303507 -9.272097 -3.026111 0.2517177 -10.7945 4.032418 0.2488117 -9.289506 -3.506302 -3.703676 -10.0457 -0.1707895 4.205116 -10.0457 -0.1707895 -4.100777 -3.5784 4.03239 4.604115 -3.5784 4.03239 3.315107 -4.81009 -3.83306 -2.799087 -4.81009 -3.83306 0.2517177 -3.5784 4.03239 0.2546157 -4.756449 -4.441361 -3.758286 -4.313358 -0.2722427 4.263706 -4.313358 -0.2722427 -2.897777 -2.596679 -2.21239 3.393607 -11.5098 -1.401852 -3.600577 -7.165449 -2.199951 0.2545117 -2.000339 -2.35522 0.2488117 -12.0782 -1.420402 -2.902887 -11.5098 -1.401852 3.414007 -2.596679 -2.21239 4.103907 -7.165449 -2.199951 3.986216 -9.62024 -1.789871 -3.491087 -9.62024 -1.789871 3.997816 -4.598319 -2.246951 -3.486086 -4.598319 -2.246951 -2.894677 -12.816 1.875268 3.849915 -1.51165 1.86102 4.429204 -7.204208 1.858109 -3.346287 -1.51173 1.86103 3.397807 -12.816 1.843148 -3.925786 -7.204208 1.858109 0.2517177 -0.9180902 1.85634 0.2517177 -13.4379 1.850898 -3.651687 -10.3888 1.866958 4.154906 -10.3888 1.866958 -3.903077 -4.00248 1.859629 4.406506 -4.00248 1.859629 -1.924477 -0.2647277 4.03238 -1.26669 -10.9714 -2.427162 -1.924477 -7.212179 4.032428 -1.210988 -13.58 3.949318 -1.251878 -2.905899 -3.86729 -1.383679 -7.127799 -4.153161 -1.473379 -12.7166 -0.08081293 -1.521087 -1.62928 -0.2834542 -1.340188 -9.258316 -3.363331 -1.662277 -10.7945 4.032418 -1.330289 -4.79531 -4.263591 -1.924477 -3.5784 4.03239 -1.39608 -11.9367 -1.385972 -1.390689 -2.147389 -2.28665 -1.381489 -13.3084 1.863088 -1.629887 -1.03551 1.8587 1.714417 -13.58 3.820848 1.769807 -2.905899 -3.86729 1.887107 -7.127799 -4.153161 2.427907 -0.2647277 4.03238 1.755507 -10.9714 -2.427122 2.427907 -7.212179 4.032428 2.026507 -1.62928 -0.2834542 1.974717 -12.7166 -0.08081293 2.165707 -10.7945 4.032418 1.834307 -9.258316 -3.363331 2.427907 -3.5784 4.03239 1.843007 -4.79531 -4.263591 1.903317 -2.147389 -2.28665 1.890207 -11.9367 -1.385972 2.133317 -1.03551 1.8587 1.884707 -13.3084 1.847028</float_array>
          <technique_common>
            <accessor source="#shape0_038-mesh-positions-array" count="98" stride="3">
              <param name="X" type="float"/>
              <param name="Y" type="float"/>
              <param name="Z" type="float"/>
            </accessor>
          </technique_common>
        </source>
        <source id="shape0_038-mesh-normals">
          <float_array id="shape0_038-mesh-normals-array" count="564">-0.9694074 0.1488245 -0.1951941 0 0.1383221 0.9903874 0.896455 0.1712172 -0.4087215 -0.2798961 0.1371467 -0.9501837 0.2973695 0.8864561 -0.3546365 -0.3551641 -0.9302578 -0.09208118 -0.9894249 -0.1448623 0.007311463 0 8.38607e-6 1 0.8925655 -0.1763743 -0.4149929 -0.2089835 -0.3158367 -0.9255123 0 3.0219e-6 1 0.09912687 0.2198939 -0.9704744 0 0.9424994 -0.3342081 0.05268019 -0.9924562 -0.1107053 0 -2.79528e-6 1 0.09570825 -0.3512369 -0.9313821 -0.9461796 0.2661143 -0.184194 0.9577333 0.2684696 -0.1033016 0.2712692 0.9243136 -0.2684352 -0.2479174 -0.8250845 -0.5077132 -0.9885591 -0.04896116 -0.1426663 0.9979012 -0.04657423 -0.04498934 -0.0802809 0.963738 -0.2544881 0.07482683 -0.859323 -0.5059298 -0.9118565 -0.4010338 0.08769059 -8.15318e-6 -0.2316359 0.9728026 0.7687855 -0.3627042 -0.5267016 -0.1981486 -0.4261115 -0.8827039 0.05338376 -0.05777299 0.9969015 0.07706081 -0.4886149 -0.8690899 -0.9223262 -0.2857545 -0.2601134 0.9577237 -0.2866306 -0.02466231 -0.995886 -9.6234e-7 -0.09061568 0 1.03667e-5 1 0.9082855 0.01428276 -0.418107 -0.2649061 -0.02865797 -0.9638484 0 1.03667e-5 1 0.1098707 -0.05021649 -0.9926766 -0.9898459 0.0246191 -0.1399964 0.9987028 0.0241326 -0.04483783 0.9456484 0.2787058 -0.167548 0.9905908 -0.06739115 -0.1191155 -0.9092087 0.2726612 -0.3146358 0.2821083 0.8889043 -0.3609214 -0.2067875 -0.7531197 -0.6245398 -0.8551996 -0.122283 -0.5036671 -0.0981276 0.8938273 -0.437543 0.07693099 -0.7261584 -0.6832098 0.9193558 -0.3317574 -0.2114757 -0.7670514 -0.3492876 -0.5381732 0.992313 0.03885775 -0.1174952 -0.915469 0.03348708 -0.4009927 -0.9641758 0.2156215 -0.1545073 0.2569235 0.924904 -0.2802552 -0.3003166 -0.916353 -0.2647776 -0.996259 -0.08571779 0.01098537 -0.06031554 0.9611183 -0.2694696 0.07512128 -0.9557713 -0.2843559 0.9676064 0.2162901 -0.1302177 0.9930825 -0.08576053 -0.08020156 -0.9545717 -0.2977569 -0.01156437 0.9544566 -0.2974949 -0.02257597 -0.9976059 0.007108211 -0.06879085 0.996757 0.007104873 -0.08015668 -0.1140635 0.2084736 -0.9713539 -0.06236839 -0.9919015 -0.110643 -0.09078866 -0.3477978 -0.9331635 -0.2081017 2.97252e-6 0.9781073 -0.297353 0.8864617 -0.3546364 0 -2.79528e-6 1 -0.0747798 -0.8594491 -0.5057226 -0.2713729 0.9239196 -0.2696838 -0.08793932 -0.4805919 -0.872524 -0.2259265 -0.06559884 0.9719331 -0.1024301 -0.04470294 -0.9937353 0 1.03667e-5 1 -0.07678234 -0.7263872 -0.6829832 -0.2826459 0.888251 -0.362107 -0.07789134 -0.9555764 -0.2842652 -0.2569693 0.9247998 -0.2805567 0 3.0219e-6 1 0 0.9424993 -0.3342082 0 -2.79528e-6 1 0.1820306 0.2086018 -0.9609111 0.3527354 -0.930617 -0.09762138 0.2481762 -0.3421308 -0.9062864 0.08022987 0.9638141 -0.2542158 0.247924 -0.8244655 -0.5087145 0 -0.0757358 0.997128 0.1174023 -0.4803991 -0.8691568 0.2801052 -0.04011344 -0.959131 0.09791558 0.8939836 -0.4372711 0.2070042 -0.7522677 -0.6254939 0.06031656 0.9611327 -0.2694177 0.297558 -0.9164789 -0.2674431 -0.9675815 0.2163691 -0.1302714 0.2081146 2.93141e-6 0.9781045 0.9111116 0.2711001 -0.310452 -0.1826885 0.2090829 -0.9606817 0.2546443 0.9165503 -0.3083699 -0.3093487 -0.9492567 -0.05670273 -0.9930849 -0.08569836 -0.08023852 -2.08635e-5 -1.26357e-6 1 0.8530834 -0.1255047 -0.5064557 -0.2482728 -0.3411726 -0.9066212 0 3.0219e-6 1 0.1138161 0.2081692 -0.9714481 -0.0600202 0.9560329 -0.2870517 0.07808643 -0.988528 -0.1292867 0 -2.79528e-6 1 0.09098273 -0.3481444 -0.9330154 -0.9445387 0.2805595 -0.1706845 0.9643972 0.2155863 -0.153169 0.2870964 0.9229573 -0.2563701 -0.2325616 -0.839151 -0.4916713 -0.9908195 -0.06407928 -0.1190406 0.9962627 -0.08578294 0.01010447 -0.09637701 0.9655396 -0.2417533 0.08433544 -0.852947 -0.5151397 -0.9543821 -0.2977355 -0.02254927 0.2574602 -0.1145876 0.9594707 0.7628187 -0.3507813 -0.5431943 -0.1169824 -0.4801142 -0.8693708 0 -0.02981972 0.9995553 0.08812499 -0.4808151 -0.8723822 -0.9211291 -0.3293458 -0.2074912 0.9545907 -0.2976295 -0.01316648 -0.9967539 0.007108032 -0.08019357 0 1.03667e-5 1 0.9166069 0.0305823 -0.3986184 -0.2807082 -0.03897774 -0.9590014 0.1024283 -0.0451101 -0.9937171 -0.9921942 0.04210168 -0.1173801 0.9976693 0.00710535 -0.06786328 0.9471409 0.2658497 -0.1795771 0.9879366 -0.04976236 -0.1466458 -0.8947941 0.1746817 -0.410889 0.1840116 0.8800194 -0.4378422 -0.1277115 -0.7193589 -0.6827977 -0.8934109 -0.1712139 -0.4153347 -0.09561663 0.8930886 -0.4396024 0.08020991 -0.7282502 -0.6806013 0.9204001 -0.285977 -0.2666102 -0.7719236 -0.3590082 -0.52464 0.9903096 0.02394318 -0.1367982 -0.9082264 0.01920425 -0.4180382 -0.9575021 0.2689283 -0.1042468 0.2711904 0.9239872 -0.2696357 -0.2777181 -0.9278473 -0.248942 -0.9979333 -0.04588198 -0.04498851 -0.08028709 0.9639057 -0.25385 0.08118808 -0.9538732 -0.2890234 0.9694342 0.148858 -0.1950355 0.9894281 -0.1448444 0.007229864 -0.957902 -0.2861127 -0.02373403 0.9087703 -0.4068797 0.09265851 -0.998686 0.02482485 -0.04483479 0.9958897 -9.62343e-7 -0.09057432 -0.09945362 0.2200712 -0.9704008 -0.07935768 -0.989314 -0.1223119 -0.09571653 -0.3510113 -0.9314664 0 0.1383221 0.9903874 -0.2547059 0.9165055 -0.308452 0 -2.79528e-6 1 -0.08416819 -0.8531699 -0.5147981 -0.2876946 0.922505 -0.2573252 -0.07678115 -0.4884998 -0.8691793 0 -0.167896 0.9858047 -0.1101175 -0.04994678 -0.9926629 0 1.03667e-5 1 -0.0799281 -0.7284051 -0.6804687 -0.1847135 0.879628 -0.4383329 -0.08116841 -0.9545556 -0.2867668 -0.271361 0.9238705 -0.2698642 0.06002038 0.956033 -0.2870517 0.2793508 0.1360463 -0.9505023 0.308736 -0.9491999 -0.06084358 0.209351 -0.3169414 -0.9250516 0.09616416 0.9656127 -0.2415467 0.232847 -0.8383452 -0.4929094 0.03420311 -0.05782163 0.9977409 0.1985031 -0.4268271 -0.8822785 0 1.03667e-5 1 0.2648894 -0.03009212 -0.9638091 0.09529954 0.8932081 -0.4394285 0.1281479 -0.7189473 -0.6831493 0.08023369 0.9639173 -0.2538234 0.2776012 -0.9267263 -0.2532116</float_array>
          <technique_common>
            <accessor source="#shape0_038-mesh-normals-array" count="188" stride="3">
              <param name="X" type="float"/>
              <param name="Y" type="float"/>
              <param name="Z" type="float"/>
            </accessor>
          </technique_common>
        </source>
        <source id="shape0_038-mesh-colors-shape0-lib-vcolor" name="shape0-lib-vcolor">
          <float_array id="shape0_038-mesh-colors-shape0-lib-vcolor-array" count="1728">0.654902 0.5019608 0.3137255 0.654902 0.5019608 0.3137255 0.654902 0.5019608 0.3137255 0.654902 0.5019608 0.3137255 0.654902 0.5019608 0.3137255 0.654902 0.5019608 0.3137255 0.654902 0.5019608 0.3137255 0.654902 0.5019608 0.3137255 0.654902 0.5019608 0.3137255 0.654902 0.5019608 0.3137255 0.654902 0.5019608 0.3137255 0.654902 0.5019608 0.3137255 0.654902 0.5019608 0.3137255 0.654902 0.5019608 0.3137255 0.654902 0.5019608 0.3137255 0.654902 0.5019608 0.3137255 0.654902 0.5019608 0.3137255 0.654902 0.5019608 0.3137255 0.654902 0.5019608 0.3137255 0.654902 0.5019608 0.3137255 0.654902 0.5019608 0.3137255 0.654902 0.5019608 0.3137255 0.654902 0.5019608 0.3137255 0.654902 0.5019608 0.3137255 0.654902 0.5019608 0.3137255 0.654902 0.5019608 0.3137255 0.654902 0.5019608 0.3137255 0.654902 0.5019608 0.3137255 0.654902 0.5019608 0.3137255 0.654902 0.5019608 0.3137255 0.654902 0.5019608 0.3137255 0.654902 0.5019608 0.3137255 0.654902 0.5019608 0.3137255 0.654902 0.5019608 0.3137255 0.654902 0.5019608 0.3137255 0.654902 0.5019608 0.3137255 0.654902 0.5019608 0.3137255 0.654902 0.5019608 0.3137255 0.654902 0.5019608 0.3137255 0.654902 0.5019608 0.3137255 0.654902 0.5019608 0.3137255 0.654902 0.5019608 0.3137255 0.654902 0.5019608 0.3137255 0.654902 0.5019608 0.3137255 0.654902 0.5019608 0.3137255 0.654902 0.5019608 0.3137255 0.654902 0.5019608 0.3137255 0.654902 0.5019608 0.3137255 0.654902 0.5019608 0.3137255 0.654902 0.5019608 0.3137255 0.654902 0.5019608 0.3137255 0.654902 0.5019608 0.3137255 0.654902 0.5019608 0.3137255 0.654902 0.5019608 0.3137255 0.654902 0.5019608 0.3137255 0.654902 0.5019608 0.3137255 0.654902 0.5019608 0.3137255 0.654902 0.5019608 0.3137255 0.654902 0.5019608 0.3137255 0.654902 0.5019608 0.3137255 0.654902 0.5019608 0.3137255 0.654902 0.5019608 0.3137255 0.654902 0.5019608 0.3137255 0.654902 0.5019608 0.3137255 0.654902 0.5019608 0.3137255 0.654902 0.5019608 0.3137255 0.654902 0.5019608 0.3137255 0.654902 0.5019608 0.3137255 0.654902 0.5019608 0.3137255 0.654902 0.5019608 0.3137255 0.654902 0.5019608 0.3137255 0.654902 0.5019608 0.3137255 0.654902 0.5019608 0.3137255 0.654902 0.5019608 0.3137255 0.654902 0.5019608 0.3137255 0.654902 0.5019608 0.3137255 0.654902 0.5019608 0.3137255 0.654902 0.5019608 0.3137255 0.654902 0.5019608 0.3137255 0.654902 0.5019608 0.3137255 0.654902 0.5019608 0.3137255 0.654902 0.5019608 0.3137255 0.654902 0.5019608 0.3137255 0.654902 0.5019608 0.3137255 0.654902 0.5019608 0.3137255 0.654902 0.5019608 0.3137255 0.654902 0.5019608 0.3137255 0.654902 0.5019608 0.3137255 0.654902 0.5019608 0.3137255 0.654902 0.5019608 0.3137255 0.654902 0.5019608 0.3137255 0.654902 0.5019608 0.3137255 0.654902 0.5019608 0.3137255 0.654902 0.5019608 0.3137255 0.654902 0.5019608 0.3137255 0.654902 0.5019608 0.3137255 0.654902 0.5019608 0.3137255 0.654902 0.5019608 0.3137255 0.654902 0.5019608 0.3137255 0.654902 0.5019608 0.3137255 0.654902 0.5019608 0.3137255 0.654902 0.5019608 0.3137255 0.654902 0.5019608 0.3137255 0.654902 0.5019608 0.3137255 0.654902 0.5019608 0.3137255 0.654902 0.5019608 0.3137255 0.654902 0.5019608 0.3137255 0.654902 0.5019608 0.3137255 0.654902 0.5019608 0.3137255 0.654902 0.5019608 0.3137255 0.654902 0.5019608 0.3137255 0.654902 0.5019608 0.3137255 0.654902 0.5019608 0.3137255 0.654902 0.5019608 0.3137255 0.654902 0.5019608 0.3137255 0.654902 0.5019608 0.3137255 0.654902 0.5019608 0.3137255 0.654902 0.5019608 0.3137255 0.654902 0.5019608 0.3137255 0.654902 0.5019608 0.3137255 0.654902 0.5019608 0.3137255 0.654902 0.5019608 0.3137255 0.654902 0.5019608 0.3137255 0.654902 0.5019608 0.3137255 0.654902 0.5019608 0.3137255 0.654902 0.5019608 0.3137255 0.654902 0.5019608 0.3137255 0.654902 0.5019608 0.3137255 0.654902 0.5019608 0.3137255 0.654902 0.5019608 0.3137255 0.654902 0.5019608 0.3137255 0.654902 0.5019608 0.3137255 0.654902 0.5019608 0.3137255 0.654902 0.5019608 0.3137255 0.654902 0.5019608 0.3137255 0.654902 0.5019608 0.3137255 0.654902 0.5019608 0.3137255 0.654902 0.5019608 0.3137255 0.654902 0.5019608 0.3137255 0.654902 0.5019608 0.3137255 0.654902 0.5019608 0.3137255 0.654902 0.5019608 0.3137255 0.654902 0.5019608 0.3137255 0.654902 0.5019608 0.3137255 0.654902 0.5019608 0.3137255 0.654902 0.5019608 0.3137255 0.654902 0.5019608 0.3137255 0.654902 0.5019608 0.3137255 0.654902 0.5019608 0.3137255 0.654902 0.5019608 0.3137255 0.654902 0.5019608 0.3137255 0.654902 0.5019608 0.3137255 0.654902 0.5019608 0.3137255 0.654902 0.5019608 0.3137255 0.654902 0.5019608 0.3137255 0.654902 0.5019608 0.3137255 0.654902 0.5019608 0.3137255 0.654902 0.5019608 0.3137255 0.654902 0.5019608 0.3137255 0.654902 0.5019608 0.3137255 0.654902 0.5019608 0.3137255 0.654902 0.5019608 0.3137255 0.654902 0.5019608 0.3137255 0.654902 0.5019608 0.3137255 0.654902 0.5019608 0.3137255 0.654902 0.5019608 0.3137255 0.654902 0.5019608 0.3137255 0.654902 0.5019608 0.3137255 0.654902 0.5019608 0.3137255 0.654902 0.5019608 0.3137255 0.654902 0.5019608 0.3137255 0.654902 0.5019608 0.3137255 0.654902 0.5019608 0.3137255 0.654902 0.5019608 0.3137255 0.654902 0.5019608 0.3137255 0.654902 0.5019608 0.3137255 0.654902 0.5019608 0.3137255 0.654902 0.5019608 0.3137255 0.654902 0.5019608 0.3137255 0.654902 0.5019608 0.3137255 0.654902 0.5019608 0.3137255 0.654902 0.5019608 0.3137255 0.654902 0.5019608 0.3137255 0.654902 0.5019608 0.3137255 0.654902 0.5019608 0.3137255 0.654902 0.5019608 0.3137255 0.654902 0.5019608 0.3137255 0.654902 0.5019608 0.3137255 0.654902 0.5019608 0.3137255 0.654902 0.5019608 0.3137255 0.654902 0.5019608 0.3137255 0.654902 0.5019608 0.3137255 0.654902 0.5019608 0.3137255 0.654902 0.5019608 0.3137255 0.654902 0.5019608 0.3137255 0.654902 0.5019608 0.3137255 0.654902 0.5019608 0.3137255 0.654902 0.5019608 0.3137255 0.654902 0.5019608 0.3137255 0.654902 0.5019608 0.3137255 0.654902 0.5019608 0.3137255 0.654902 0.5019608 0.3137255 0.654902 0.5019608 0.3137255 0.654902 0.5019608 0.3137255 0.654902 0.5019608 0.3137255 0.654902 0.5019608 0.3137255 0.654902 0.5019608 0.3137255 0.654902 0.5019608 0.3137255 0.654902 0.5019608 0.3137255 0.654902 0.5019608 0.3137255 0.654902 0.5019608 0.3137255 0.654902 0.5019608 0.3137255 0.654902 0.5019608 0.3137255 0.654902 0.5019608 0.3137255 0.654902 0.5019608 0.3137255 0.654902 0.5019608 0.3137255 0.654902 0.5019608 0.3137255 0.654902 0.5019608 0.3137255 0.654902 0.5019608 0.3137255 0.654902 0.5019608 0.3137255 0.654902 0.5019608 0.3137255 0.654902 0.5019608 0.3137255 0.654902 0.5019608 0.3137255 0.654902 0.5019608 0.3137255 0.654902 0.5019608 0.3137255 0.654902 0.5019608 0.3137255 0.654902 0.5019608 0.3137255 0.654902 0.5019608 0.3137255 0.654902 0.5019608 0.3137255 0.654902 0.5019608 0.3137255 0.654902 0.5019608 0.3137255 0.654902 0.5019608 0.3137255 0.654902 0.5019608 0.3137255 0.654902 0.5019608 0.3137255 0.654902 0.5019608 0.3137255 0.654902 0.5019608 0.3137255 0.654902 0.5019608 0.3137255 0.654902 0.5019608 0.3137255 0.654902 0.5019608 0.3137255 0.654902 0.5019608 0.3137255 0.654902 0.5019608 0.3137255 0.654902 0.5019608 0.3137255 0.654902 0.5019608 0.3137255 0.654902 0.5019608 0.3137255 0.654902 0.5019608 0.3137255 0.654902 0.5019608 0.3137255 0.654902 0.5019608 0.3137255 0.654902 0.5019608 0.3137255 0.654902 0.5019608 0.3137255 0.654902 0.5019608 0.3137255 0.654902 0.5019608 0.3137255 0.654902 0.5019608 0.3137255 0.654902 0.5019608 0.3137255 0.654902 0.5019608 0.3137255 0.654902 0.5019608 0.3137255 0.654902 0.5019608 0.3137255 0.654902 0.5019608 0.3137255 0.654902 0.5019608 0.3137255 0.654902 0.5019608 0.3137255 0.654902 0.5019608 0.3137255 0.654902 0.5019608 0.3137255 0.654902 0.5019608 0.3137255 0.654902 0.5019608 0.3137255 0.654902 0.5019608 0.3137255 0.654902 0.5019608 0.3137255 0.654902 0.5019608 0.3137255 0.654902 0.5019608 0.3137255 0.654902 0.5019608 0.3137255 0.654902 0.5019608 0.3137255 0.654902 0.5019608 0.3137255 0.654902 0.5019608 0.3137255 0.654902 0.5019608 0.3137255 0.654902 0.5019608 0.3137255 0.654902 0.5019608 0.3137255 0.654902 0.5019608 0.3137255 0.654902 0.5019608 0.3137255 0.654902 0.5019608 0.3137255 0.654902 0.5019608 0.3137255 0.654902 0.5019608 0.3137255 0.654902 0.5019608 0.3137255 0.654902 0.5019608 0.3137255 0.654902 0.5019608 0.3137255 0.654902 0.5019608 0.3137255 0.654902 0.5019608 0.3137255 0.654902 0.5019608 0.3137255 0.654902 0.5019608 0.3137255 0.654902 0.5019608 0.3137255 0.654902 0.5019608 0.3137255 0.654902 0.5019608 0.3137255 0.654902 0.5019608 0.3137255 0.654902 0.5019608 0.3137255 0.654902 0.5019608 0.3137255 0.654902 0.5019608 0.3137255 0.654902 0.5019608 0.3137255 0.654902 0.5019608 0.3137255 0.654902 0.5019608 0.3137255 0.654902 0.5019608 0.3137255 0.654902 0.5019608 0.3137255 0.654902 0.5019608 0.3137255 0.654902 0.5019608 0.3137255 0.654902 0.5019608 0.3137255 0.654902 0.5019608 0.3137255 0.654902 0.5019608 0.3137255 0.654902 0.5019608 0.3137255 0.654902 0.5019608 0.3137255 0.654902 0.5019608 0.3137255 0.654902 0.5019608 0.3137255 0.654902 0.5019608 0.3137255 0.654902 0.5019608 0.3137255 0.654902 0.5019608 0.3137255 0.654902 0.5019608 0.3137255 0.654902 0.5019608 0.3137255 0.654902 0.5019608 0.3137255 0.654902 0.5019608 0.3137255 0.654902 0.5019608 0.3137255 0.654902 0.5019608 0.3137255 0.654902 0.5019608 0.3137255 0.654902 0.5019608 0.3137255 0.654902 0.5019608 0.3137255 0.654902 0.5019608 0.3137255 0.654902 0.5019608 0.3137255 0.654902 0.5019608 0.3137255 0.654902 0.5019608 0.3137255 0.654902 0.5019608 0.3137255 0.654902 0.5019608 0.3137255 0.654902 0.5019608 0.3137255 0.654902 0.5019608 0.3137255 0.654902 0.5019608 0.3137255 0.654902 0.5019608 0.3137255 0.654902 0.5019608 0.3137255 0.654902 0.5019608 0.3137255 0.654902 0.5019608 0.3137255 0.654902 0.5019608 0.3137255 0.654902 0.5019608 0.3137255 0.654902 0.5019608 0.3137255 0.654902 0.5019608 0.3137255 0.654902 0.5019608 0.3137255 0.654902 0.5019608 0.3137255 0.654902 0.5019608 0.3137255 0.654902 0.5019608 0.3137255 0.654902 0.5019608 0.3137255 0.654902 0.5019608 0.3137255 0.654902 0.5019608 0.3137255 0.654902 0.5019608 0.3137255 0.654902 0.5019608 0.3137255 0.654902 0.5019608 0.3137255 0.654902 0.5019608 0.3137255 0.654902 0.5019608 0.3137255 0.654902 0.5019608 0.3137255 0.654902 0.5019608 0.3137255 0.654902 0.5019608 0.3137255 0.654902 0.5019608 0.3137255 0.654902 0.5019608 0.3137255 0.654902 0.5019608 0.3137255 0.654902 0.5019608 0.3137255 0.654902 0.5019608 0.3137255 0.654902 0.5019608 0.3137255 0.654902 0.5019608 0.3137255 0.654902 0.5019608 0.3137255 0.654902 0.5019608 0.3137255 0.654902 0.5019608 0.3137255 0.654902 0.5019608 0.3137255 0.654902 0.5019608 0.3137255 0.654902 0.5019608 0.3137255 0.654902 0.5019608 0.3137255 0.654902 0.5019608 0.3137255 0.654902 0.5019608 0.3137255 0.654902 0.5019608 0.3137255 0.654902 0.5019608 0.3137255 0.654902 0.5019608 0.3137255 0.654902 0.5019608 0.3137255 0.654902 0.5019608 0.3137255 0.654902 0.5019608 0.3137255 0.654902 0.5019608 0.3137255 0.654902 0.5019608 0.3137255 0.654902 0.5019608 0.3137255 0.654902 0.5019608 0.3137255 0.654902 0.5019608 0.3137255 0.654902 0.5019608 0.3137255 0.654902 0.5019608 0.3137255 0.654902 0.5019608 0.3137255 0.654902 0.5019608 0.3137255 0.654902 0.5019608 0.3137255 0.654902 0.5019608 0.3137255 0.654902 0.5019608 0.3137255 0.654902 0.5019608 0.3137255 0.654902 0.5019608 0.3137255 0.654902 0.5019608 0.3137255 0.654902 0.5019608 0.3137255 0.654902 0.5019608 0.3137255 0.654902 0.5019608 0.3137255 0.654902 0.5019608 0.3137255 0.654902 0.5019608 0.3137255 0.654902 0.5019608 0.3137255 0.654902 0.5019608 0.3137255 0.654902 0.5019608 0.3137255 0.654902 0.5019608 0.3137255 0.654902 0.5019608 0.3137255 0.654902 0.5019608 0.3137255 0.654902 0.5019608 0.3137255 0.654902 0.5019608 0.3137255 0.654902 0.5019608 0.3137255 0.654902 0.5019608 0.3137255 0.654902 0.5019608 0.3137255 0.654902 0.5019608 0.3137255 0.654902 0.5019608 0.3137255 0.654902 0.5019608 0.3137255 0.654902 0.5019608 0.3137255 0.654902 0.5019608 0.3137255 0.654902 0.5019608 0.3137255 0.654902 0.5019608 0.3137255 0.654902 0.5019608 0.3137255 0.654902 0.5019608 0.3137255 0.654902 0.5019608 0.3137255 0.654902 0.5019608 0.3137255 0.654902 0.5019608 0.3137255 0.654902 0.5019608 0.3137255 0.654902 0.5019608 0.3137255 0.654902 0.5019608 0.3137255 0.654902 0.5019608 0.3137255 0.654902 0.5019608 0.3137255 0.654902 0.5019608 0.3137255 0.654902 0.5019608 0.3137255 0.654902 0.5019608 0.3137255 0.654902 0.5019608 0.3137255 0.654902 0.5019608 0.3137255 0.654902 0.5019608 0.3137255 0.654902 0.5019608 0.3137255 0.654902 0.5019608 0.3137255 0.654902 0.5019608 0.3137255 0.654902 0.5019608 0.3137255 0.654902 0.5019608 0.3137255 0.654902 0.5019608 0.3137255 0.654902 0.5019608 0.3137255 0.654902 0.5019608 0.3137255 0.654902 0.5019608 0.3137255 0.654902 0.5019608 0.3137255 0.654902 0.5019608 0.3137255 0.654902 0.5019608 0.3137255 0.654902 0.5019608 0.3137255 0.654902 0.5019608 0.3137255 0.654902 0.5019608 0.3137255 0.654902 0.5019608 0.3137255 0.654902 0.5019608 0.3137255 0.654902 0.5019608 0.3137255 0.654902 0.5019608 0.3137255 0.654902 0.5019608 0.3137255 0.654902 0.5019608 0.3137255 0.654902 0.5019608 0.3137255 0.654902 0.5019608 0.3137255 0.654902 0.5019608 0.3137255 0.654902 0.5019608 0.3137255 0.654902 0.5019608 0.3137255 0.654902 0.5019608 0.3137255 0.654902 0.5019608 0.3137255 0.654902 0.5019608 0.3137255 0.654902 0.5019608 0.3137255 0.654902 0.5019608 0.3137255 0.654902 0.5019608 0.3137255 0.654902 0.5019608 0.3137255 0.654902 0.5019608 0.3137255 0.654902 0.5019608 0.3137255 0.654902 0.5019608 0.3137255 0.654902 0.5019608 0.3137255 0.654902 0.5019608 0.3137255 0.654902 0.5019608 0.3137255 0.654902 0.5019608 0.3137255 0.654902 0.5019608 0.3137255 0.654902 0.5019608 0.3137255 0.654902 0.5019608 0.3137255 0.654902 0.5019608 0.3137255 0.654902 0.5019608 0.3137255 0.654902 0.5019608 0.3137255 0.654902 0.5019608 0.3137255 0.654902 0.5019608 0.3137255 0.654902 0.5019608 0.3137255 0.654902 0.5019608 0.3137255 0.654902 0.5019608 0.3137255 0.654902 0.5019608 0.3137255 0.654902 0.5019608 0.3137255 0.654902 0.5019608 0.3137255 0.654902 0.5019608 0.3137255 0.654902 0.5019608 0.3137255 0.654902 0.5019608 0.3137255 0.654902 0.5019608 0.3137255 0.654902 0.5019608 0.3137255 0.654902 0.5019608 0.3137255 0.654902 0.5019608 0.3137255 0.654902 0.5019608 0.3137255 0.654902 0.5019608 0.3137255 0.654902 0.5019608 0.3137255 0.654902 0.5019608 0.3137255 0.654902 0.5019608 0.3137255 0.654902 0.5019608 0.3137255 0.654902 0.5019608 0.3137255 0.654902 0.5019608 0.3137255 0.654902 0.5019608 0.3137255 0.654902 0.5019608 0.3137255 0.654902 0.5019608 0.3137255 0.654902 0.5019608 0.3137255 0.654902 0.5019608 0.3137255 0.654902 0.5019608 0.3137255 0.654902 0.5019608 0.3137255 0.654902 0.5019608 0.3137255 0.654902 0.5019608 0.3137255 0.654902 0.5019608 0.3137255 0.654902 0.5019608 0.3137255 0.654902 0.5019608 0.3137255 0.654902 0.5019608 0.3137255 0.654902 0.5019608 0.3137255 0.654902 0.5019608 0.3137255 0.654902 0.5019608 0.3137255 0.654902 0.5019608 0.3137255 0.654902 0.5019608 0.3137255 0.654902 0.5019608 0.3137255 0.654902 0.5019608 0.3137255 0.654902 0.5019608 0.3137255 0.654902 0.5019608 0.3137255 0.654902 0.5019608 0.3137255 0.654902 0.5019608 0.3137255 0.654902 0.5019608 0.3137255 0.654902 0.5019608 0.3137255 0.654902 0.5019608 0.3137255 0.654902 0.5019608 0.3137255 0.654902 0.5019608 0.3137255 0.654902 0.5019608 0.3137255 0.654902 0.5019608 0.3137255 0.654902 0.5019608 0.3137255 0.654902 0.5019608 0.3137255 0.654902 0.5019608 0.3137255 0.654902 0.5019608 0.3137255 0.654902 0.5019608 0.3137255 0.654902 0.5019608 0.3137255 0.654902 0.5019608 0.3137255 0.654902 0.5019608 0.3137255 0.654902 0.5019608 0.3137255 0.654902 0.5019608 0.3137255 0.654902 0.5019608 0.3137255 0.654902 0.5019608 0.3137255 0.654902 0.5019608 0.3137255 0.654902 0.5019608 0.3137255 0.654902 0.5019608 0.3137255 0.654902 0.5019608 0.3137255 0.654902 0.5019608 0.3137255 0.654902 0.5019608 0.3137255 0.654902 0.5019608 0.3137255 0.654902 0.5019608 0.3137255 0.654902 0.5019608 0.3137255 0.654902 0.5019608 0.3137255 0.654902 0.5019608 0.3137255 0.654902 0.5019608 0.3137255 0.654902 0.5019608 0.3137255 0.654902 0.5019608 0.3137255 0.654902 0.5019608 0.3137255 0.654902 0.5019608 0.3137255 0.654902 0.5019608 0.3137255 0.654902 0.5019608 0.3137255 0.654902 0.5019608 0.3137255 0.654902 0.5019608 0.3137255 0.654902 0.5019608 0.3137255 0.654902 0.5019608 0.3137255 0.654902 0.5019608 0.3137255 0.654902 0.5019608 0.3137255 0.654902 0.5019608 0.3137255 0.654902 0.5019608 0.3137255 0.654902 0.5019608 0.3137255 0.654902 0.5019608 0.3137255 0.654902 0.5019608 0.3137255 0.654902 0.5019608 0.3137255 0.654902 0.5019608 0.3137255 0.654902 0.5019608 0.3137255 0.654902 0.5019608 0.3137255 0.654902 0.5019608 0.3137255 0.654902 0.5019608 0.3137255 0.654902 0.5019608 0.3137255 0.654902 0.5019608 0.3137255</float_array>
          <technique_common>
            <accessor source="#shape0_038-mesh-colors-shape0-lib-vcolor-array" count="576" stride="3">
              <param name="R" type="float"/>
              <param name="G" type="float"/>
              <param name="B" type="float"/>
            </accessor>
          </technique_common>
        </source>
        <vertices id="shape0_038-mesh-vertices">
          <input semantic="POSITION" source="#shape0_038-mesh-positions"/>
        </vertices>
        <polylist count="192">
          <input semantic="VERTEX" source="#shape0_038-mesh-vertices" offset="0"/>
          <input semantic="NORMAL" source="#shape0_038-mesh-normals" offset="1"/>
          <input semantic="COLOR" source="#shape0_038-mesh-colors-shape0-lib-vcolor" offset="2" set="0"/>
          <vcount>3 3 3 3 3 3 3 3 3 3 3 3 3 3 3 3 3 3 3 3 3 3 3 3 3 3 3 3 3 3 3 3 3 3 3 3 3 3 3 3 3 3 3 3 3 3 3 3 3 3 3 3 3 3 3 3 3 3 3 3 3 3 3 3 3 3 3 3 3 3 3 3 3 3 3 3 3 3 3 3 3 3 3 3 3 3 3 3 3 3 3 3 3 3 3 3 3 3 3 3 3 3 3 3 3 3 3 3 3 3 3 3 3 3 3 3 3 3 3 3 3 3 3 3 3 3 3 3 3 3 3 3 3 3 3 3 3 3 3 3 3 3 3 3 3 3 3 3 3 3 3 3 3 3 3 3 3 3 3 3 3 3 3 3 3 3 3 3 3 3 3 3 3 3 3 3 3 3 3 3 3 3 3 3 3 3 3 3 3 3 3 3 </vcount>
          <p>34 0 0 1 0 1 57 0 2 92 1 3 35 1 4 2 1 5 52 2 6 36 2 7 3 2 8 76 3 9 37 3 10 0 3 11 96 4 12 85 4 13 2 4 14 80 5 15 69 5 16 5 5 17 62 6 18 27 6 19 9 6 20 28 7 21 10 7 22 87 7 23 29 8 24 11 8 25 49 8 26 74 9 27 26 9 28 8 9 29 38 10 30 13 10 31 66 10 32 39 11 33 15 11 34 83 11 35 81 12 36 66 12 37 13 12 38 82 13 39 12 13 40 61 13 41 75 14 42 30 14 43 16 14 44 31 15 45 17 15 46 84 15 47 40 16 48 19 16 49 42 16 50 65 17 51 41 17 52 21 17 53 88 18 54 21 18 55 48 18 56 78 19 57 72 19 58 18 19 59 51 20 60 32 20 61 22 20 62 33 21 63 23 21 64 56 21 65 79 22 66 73 22 67 24 22 68 89 23 69 25 23 70 46 23 71 54 24 72 5 24 73 27 24 74 6 25 75 28 25 76 90 25 77 7 26 78 29 26 79 50 26 80 4 27 81 26 27 82 74 27 83 69 28 84 12 28 85 30 28 86 86 29 87 14 29 88 31 29 89 47 30 90 18 30 91 32 30 92 20 31 93 33 31 94 63 31 95 9 32 96 34 32 97 64 32 98 10 33 99 35 33 100 92 33 101 49 34 102 11 34 103 36 34 104 71 35 105 8 35 106 37 35 107 16 36 108 38 36 109 77 36 110 17 37 111 39 37 112 93 37 113 22 38 114 40 38 115 53 38 116 56 39 117 23 39 118 41 39 119 41 40 120 52 40 121 48 40 122 50 41 123 49 41 124 23 41 125 53 42 126 42 42 127 0 42 128 94 43 129 48 43 130 3 43 131 78 44 132 47 44 133 4 44 134 26 45 135 51 45 136 44 45 137 70 46 138 79 46 139 45 46 140 86 47 141 95 47 142 46 47 143 43 48 144 50 48 145 33 48 146 4 49 147 47 49 148 51 49 149 23 50 150 49 50 151 52 50 152 44 51 153 53 51 154 37 51 155 64 52 156 57 52 157 19 52 158 96 53 159 55 53 160 21 53 161 72 54 162 80 54 163 54 54 164 32 55 165 62 55 166 59 55 167 73 56 168 81 56 169 60 56 170 97 57 171 61 57 172 25 57 173 35 58 174 65 58 175 55 58 176 63 59 177 56 59 178 10 59 179 18 60 180 54 60 181 62 60 182 58 61 183 63 61 184 28 61 185 59 62 186 64 62 187 40 62 188 10 63 189 56 63 190 65 63 191 39 64 192 76 64 193 70 64 194 61 65 195 12 65 196 69 65 197 31 66 198 74 66 199 71 66 200 77 67 201 66 67 202 1 67 203 1 68 204 66 68 205 81 68 206 27 69 207 75 69 208 68 69 209 46 70 210 25 70 211 72 70 212 42 71 213 19 71 214 73 71 215 67 72 216 74 72 217 31 72 218 5 73 219 69 73 220 75 73 221 17 74 222 71 74 223 76 74 224 68 75 225 77 75 226 34 75 227 46 76 228 78 76 229 67 76 230 0 77 231 42 77 232 79 77 233 25 78 234 61 78 235 80 78 236 19 79 237 57 79 238 81 79 239 92 80 240 85 80 241 13 80 242 13 81 243 85 81 244 96 81 245 90 82 246 87 82 247 16 82 248 93 83 249 83 83 250 3 83 251 6 84 252 82 84 253 97 84 254 91 85 255 84 85 256 11 85 257 24 86 258 88 86 259 94 86 260 20 87 261 89 87 262 95 87 263 82 88 264 90 88 265 30 88 266 7 89 267 86 89 268 91 89 269 87 75 270 92 75 271 38 75 272 84 90 273 93 90 274 36 90 275 45 91 276 94 91 277 83 91 278 7 92 279 43 92 280 95 92 281 60 93 282 96 93 283 88 93 284 58 94 285 97 94 286 89 94 287 64 95 288 34 95 289 57 95 290 85 96 291 92 96 292 2 96 293 48 97 294 52 97 295 3 97 296 70 98 297 76 98 298 0 98 299 55 99 300 96 99 301 2 99 302 54 100 303 80 100 304 5 100 305 59 101 306 62 101 307 9 101 308 90 102 309 28 102 310 87 102 311 50 103 312 29 103 313 49 103 314 71 104 315 74 104 316 8 104 317 77 105 318 38 105 319 66 105 320 93 106 321 39 106 322 83 106 323 60 107 324 81 107 325 13 107 326 97 108 327 82 108 328 61 108 329 68 109 330 75 109 331 16 109 332 91 110 333 31 110 334 84 110 335 53 111 336 40 111 337 42 111 338 55 112 339 65 112 340 21 112 341 94 113 342 88 113 343 48 113 344 47 114 345 78 114 346 18 114 347 44 115 348 51 115 349 22 115 350 63 116 351 33 116 352 56 116 353 45 117 354 79 117 355 24 117 356 95 118 357 89 118 358 46 118 359 62 119 360 54 119 361 27 119 362 82 120 363 6 120 364 90 120 365 43 121 366 7 121 367 50 121 368 67 122 369 4 122 370 74 122 371 75 123 372 69 123 373 30 123 374 91 124 375 86 124 376 31 124 377 51 125 378 47 125 379 32 125 380 58 126 381 20 126 382 63 126 383 59 127 384 9 127 385 64 127 386 87 128 387 10 128 388 92 128 389 52 129 390 49 129 391 36 129 392 76 130 393 71 130 394 37 130 395 68 75 396 16 75 397 77 75 398 84 131 399 17 131 400 93 131 401 44 132 402 22 132 403 53 132 404 65 133 405 56 133 406 41 133 407 21 134 408 41 134 409 48 134 410 33 135 411 50 135 412 23 135 413 37 136 414 53 136 415 0 136 416 83 137 417 94 137 418 3 137 419 67 138 420 78 138 421 4 138 422 8 139 423 26 139 424 44 139 425 15 140 426 70 140 427 45 140 428 14 141 429 86 141 430 46 141 431 20 142 432 43 142 433 33 142 434 26 143 435 4 143 436 51 143 437 41 144 438 23 144 439 52 144 440 8 145 441 44 145 442 37 145 443 40 146 444 64 146 445 19 146 446 88 147 447 96 147 448 21 147 449 18 148 450 72 148 451 54 148 452 22 149 453 32 149 454 59 149 455 24 150 456 73 150 457 60 150 458 89 151 459 97 151 460 25 151 461 2 152 462 35 152 463 55 152 464 28 153 465 63 153 466 10 153 467 32 154 468 18 154 469 62 154 470 6 155 471 58 155 472 28 155 473 22 156 474 59 156 475 40 156 476 35 157 477 10 157 478 65 157 479 15 158 480 39 158 481 70 158 482 80 159 483 61 159 484 69 159 485 17 160 486 31 160 487 71 160 488 34 161 489 77 161 490 1 161 491 57 162 492 1 162 493 81 162 494 9 163 495 27 163 496 68 163 497 78 164 498 46 164 499 72 164 500 79 165 501 42 165 502 73 165 503 14 166 504 67 166 505 31 166 506 27 167 507 5 167 508 75 167 509 39 168 510 17 168 511 76 168 512 9 169 513 68 169 514 34 169 515 14 170 516 46 170 517 67 170 518 70 171 519 0 171 520 79 171 521 72 172 522 25 172 523 80 172 524 73 173 525 19 173 526 81 173 527 38 80 528 92 80 529 13 80 530 60 174 531 13 174 532 96 174 533 30 14 534 90 14 535 16 14 536 36 175 537 93 175 538 3 175 539 58 176 540 6 176 541 97 176 542 29 177 543 91 177 544 11 177 545 45 178 546 24 178 547 94 178 548 43 179 549 20 179 550 95 179 551 12 180 552 82 180 553 30 180 554 29 181 555 7 181 556 91 181 557 16 182 558 87 182 559 38 182 560 11 183 561 84 183 562 36 183 563 15 184 564 45 184 565 83 184 566 86 185 567 7 185 568 95 185 569 24 186 570 60 186 571 88 186 572 20 187 573 58 187 574 89 187 575</p>
        </polylist>
      </mesh>
    </geometry>
  </library_geometries>
  <library_controllers/>
  <library_visual_scenes>
    <visual_scene id="Scene" name="Scene">
      <node id="VIZ_RightFingerJoint13y_link_0" name="VIZ_RightFingerJoint13y_link_0" type="NODE">
        <instance_geometry url="#shape0_038-mesh" name="VIZ_RightFingerJoint13y_link_0"/>
      </node>
    </visual_scene>
  </library_visual_scenes>
  <scene>
    <instance_visual_scene url="#Scene"/>
  </scene>
</COLLADA>