<?xml version="1.0" encoding="utf-8"?>
<COLLADA xmlns="http://www.collada.org/2005/11/COLLADASchema" version="1.4.1">
  <asset>
    <contributor>
      <author>Blender User</author>
      <authoring_tool>Blender 2.76.0 commit date:2015-11-03, commit time:10:56, hash:f337fea</authoring_tool>
    </contributor>
    <created>2016-11-13T17:55:47</created>
    <modified>2016-11-13T17:55:47</modified>
    <unit name="meter" meter="1"/>
    <up_axis>Z_UP</up_axis>
  </asset>
  <library_images/>
  <library_geometries>
    <geometry id="shape0_023-mesh" name="shape0.023">
      <mesh>
        <source id="shape0_023-mesh-positions">
          <float_array id="shape0_023-mesh-positions-array" count="294">-3.139099 -2.972789 -3.684018 -4.354878 -1.01399 3.644199 4.311628 -1.01492 3.644199 3.117129 -2.973459 -3.684008 -3.162169 -10.2457 -2.353461 -3.251919 -12.2781 3.630307 3.206249 -12.2788 3.480467 3.095299 -10.2465 -2.353461 -3.532179 -6.775928 -3.76406 -4.882238 -6.850809 4.006887 4.837727 -6.851849 4.006887 3.487759 -6.776688 -3.76406 -0.0229007 -12.8943 3.840656 -0.02155351 -0.3429515 4.006888 -0.0280047 -10.4542 -2.537641 -0.01643908 -2.727079 -4.025548 -0.02225214 -6.851329 4.006887 -0.02224111 -6.770778 -4.3473 -3.708049 -11.5671 -0.1010369 -3.805738 -2.0597 -0.2877392 3.658959 -11.5679 -0.1010419 3.765779 -2.06051 -0.2877412 -4.579977 -6.838058 -0.298174 4.535479 -6.839028 -0.298177 -0.02121472 -1.48778 -0.3291861 -0.02328449 -12.1419 -0.1181829 -3.444299 -8.780631 -3.05161 -4.297038 -10.2068 4.006886 4.251809 -10.2077 4.006886 3.385259 -8.78137 -3.05161 -0.02261233 -10.2072 4.006886 -0.02568697 -8.797389 -3.53178 -4.439118 -9.505319 -0.1963344 4.391899 -9.506209 -0.1963384 -4.881868 -3.446701 4.006888 4.838098 -3.447739 4.006888 3.398699 -4.601358 -3.85854 -3.428529 -4.600618 -3.85854 -0.0218867 -3.447221 4.006888 -0.01873809 -4.550798 -4.466859 -4.499577 -4.135169 -0.2977566 4.457929 -4.136128 -0.2977606 -3.538579 -2.527079 -2.23783 3.485589 -10.8778 -1.427381 -4.323728 -6.807058 -2.22543 -0.01856046 -1.968789 -2.380699 -0.02590274 -11.4098 -1.445922 -3.545139 -10.877 -1.427381 3.509249 -2.527839 -2.23783 4.279238 -6.807988 -2.22543 4.147448 -9.107601 -1.81535 -4.201727 -9.106709 -1.81535 4.161008 -4.403069 -2.27246 -4.195619 -4.402178 -2.27246 -3.536149 -12.1006 1.849677 3.996149 -1.51151 1.835489 4.642408 -6.844339 1.832568 -4.039207 -1.51065 1.835489 3.490219 -12.1014 1.817547 -4.686908 -6.843329 1.832568 -0.0216186 -0.9549711 1.830839 -0.02287751 -12.6837 1.825357 -4.381098 -9.826769 1.841397 4.335837 -9.827651 1.841397 -4.661139 -3.84393 1.834118 4.617458 -3.844919 1.834118 -2.451519 -0.3426306 4.006888 -1.718079 -10.3728 -2.452641 -2.452209 -6.851069 4.006887 -1.656179 -12.8165 3.923737 -1.700699 -2.816959 -3.89281 -1.848289 -6.772028 -4.178669 -1.949049 -12.0077 -0.1063479 -2.001219 -1.62102 -0.3089322 -1.799989 -8.767938 -3.38885 -2.159799 -10.207 4.006886 -1.788509 -4.586968 -4.28906 -2.451849 -3.446959 4.006888 -1.862599 -11.277 -1.411471 -1.855659 -2.106399 -2.312089 -1.846529 -12.5621 1.837517 -2.122569 -1.06472 1.833169 1.610389 -12.8169 3.795297 1.673339 -2.817319 -3.892748 1.803809 -6.772428 -4.178669 2.408409 -0.3432126 4.006888 1.656549 -10.3732 -2.452641 2.407709 -6.851579 4.006887 1.960049 -1.62145 -0.3089252 1.901229 -12.0081 -0.1063569 2.114569 -10.2074 4.006886 1.744759 -8.76832 -3.38885 2.408079 -3.447479 4.006888 1.754869 -4.587348 -4.28906 1.822489 -2.106789 -2.312089 1.806839 -11.2774 -1.411471 2.079429 -1.06517 1.833169 1.800619 -12.5625 1.821487</float_array>
          <technique_common>
            <accessor source="#shape0_023-mesh-positions-array" count="98" stride="3">
              <param name="X" type="float"/>
              <param name="Y" type="float"/>
              <param name="Z" type="float"/>
            </accessor>
          </technique_common>
        </source>
        <source id="shape0_023-mesh-normals">
          <float_array id="shape0_023-mesh-normals-array" count="576">-0.9604431 0.1758669 -0.2159164 1.56366e-5 0.1474558 0.9890687 0.8733941 0.1987352 -0.4446204 -0.2522811 0.1473885 -0.9563634 0.2549095 0.9054761 -0.3393146 -0.3038955 -0.9486369 -0.08795249 -0.9851027 -0.1717772 0.008093833 0 -2.84177e-7 1 0.8687123 -0.2047124 -0.4510343 -0.1867237 -0.3362382 -0.9230808 -1.75381e-7 0 1 0.08859246 0.2341655 -0.9681518 1.25405e-4 0.9490138 -0.3152346 0.0442028 -0.993612 -0.1038338 0 -2.84181e-7 1 0.08501964 -0.3720868 -0.9242961 -0.9285916 0.311407 -0.2018504 0.942349 0.31479 -0.1135155 0.231257 0.9387728 -0.2553935 -0.2134687 -0.8463467 -0.4879841 -0.9855955 -0.05811387 -0.1588224 0.9971915 -0.05559694 -0.05018144 -0.06762492 0.9685157 -0.2395921 0.06342238 -0.8688337 -0.491025 -0.8817488 -0.4621195 0.09468144 -3.47308e-5 -0.2463248 0.9691873 0.7252019 -0.4078602 -0.5547363 -0.1759904 -0.4508833 -0.8750609 0.04777443 -0.06167876 0.9969521 0.06785142 -0.5133996 -0.855463 -0.8996909 -0.3321084 -0.2833026 0.9414882 -0.3359555 -0.02709293 -0.9948776 1.08267e-4 -0.1010881 0 -2.80154e-7 1 0.8892595 0.01655387 -0.4571034 -0.2389001 -0.03077083 -0.9705566 0 -2.80154e-7 1 0.09850865 -0.05367171 -0.9936879 -0.9873276 0.02939319 -0.1559496 0.9983367 0.02865147 -0.05002886 0.9274806 0.3257455 -0.1834928 0.9879084 -0.08027005 -0.1326416 -0.8848672 0.3163743 -0.3419321 0.2415898 0.9069855 -0.3449807 -0.1789912 -0.7769101 -0.6036332 -0.8271963 -0.1408859 -0.5439647 -0.08336454 0.9058302 -0.4153578 0.0664789 -0.7485821 -0.6597009 0.8940461 -0.3846132 -0.2296832 -0.7239289 -0.3927909 -0.5671352 0.9903186 0.04612523 -0.1309264 -0.8888876 0.03842389 -0.4565114 -0.9521157 0.253885 -0.1703467 0.2189049 0.938659 -0.2664585 -0.2566368 -0.9329311 -0.2525413 -0.9947168 -0.1019248 0.01224386 -0.05074 0.9659438 -0.2537282 0.06332677 -0.961334 -0.2680051 0.9562854 0.2547106 -0.1436697 0.9907556 -0.1020765 -0.08935219 -0.9372833 -0.3483381 -0.0126717 0.9370771 -0.3482438 -0.02475655 -0.9970145 0.008605718 -0.07673329 0.9959576 0.00833106 -0.08943808 -0.1019573 0.2221369 -0.9696701 -0.05259013 -0.9932078 -0.1037917 -0.08072108 -0.3684442 -0.9261388 -0.1871916 1.98988e-5 0.9823235 -0.254731 0.9055125 -0.3393512 -2.6593e-7 -2.84178e-7 1 -0.0635727 -0.8689882 -0.4907323 -0.2311566 0.9384708 -0.2565917 -0.07761967 -0.50532 -0.8594341 -0.2033154 -0.07035696 0.9765822 -0.09181827 -0.04773712 -0.9946309 0 -2.80154e-7 1 -0.06650775 -0.7487628 -0.659493 -0.2418624 0.9064573 -0.3461761 -0.06587767 -0.9611821 -0.267935 -0.2187041 0.9386179 -0.2667679 0 0 1 1.01951e-4 0.9490208 -0.3152137 0 -2.84183e-7 1 0.1630468 0.222713 -0.9611528 0.301554 -0.9488795 -0.09323596 0.2217593 -0.3644635 -0.9044275 0.06779384 0.9685695 -0.2393265 0.2133014 -0.8458161 -0.4889762 -7.64908e-6 -0.08081769 0.996729 0.1035606 -0.5054141 -0.8566399 0 -2.80155e-7 1 0.2527757 -0.04316914 -0.9665614 0.08337646 0.9059457 -0.4151034 0.1790275 -0.7761788 -0.6045625 0.0509445 0.9659444 -0.253685 0.2540171 -0.932968 -0.2550414 -0.9562067 0.2549595 -0.1437519 0.1871911 -1.98991e-5 0.9823235 0.8872033 0.3145908 -0.3374949 -0.1636683 0.2232407 -0.9609247 0.2171483 0.9309761 -0.2934796 -0.2634641 -0.9631592 -0.05395644 -0.9907814 -0.1018213 -0.08935713 0 -2.84182e-7 1 0.8247396 -0.1447513 -0.5466734 -0.2219404 -0.3634189 -0.9048034 2.5285e-7 0 1 0.1017873 0.2218188 -0.9697607 -0.05052232 0.9614213 -0.2704008 0.06557279 -0.9904433 -0.1213353 0 -2.84178e-7 1 0.08081114 -0.3688222 -0.9259804 -0.9260312 0.3279352 -0.1868818 0.9524176 0.2536966 -0.1689348 0.2449642 0.938286 -0.2441558 -0.1997496 -0.8589696 -0.4714567 -0.9882429 -0.07607758 -0.1326211 0.9947019 -0.1021843 0.01124727 -0.08118683 0.9703595 -0.2276209 0.07214719 -0.8733607 -0.4817011 -0.9370571 -0.3482981 -0.02474921 0.2318484 -0.1230368 0.9649395 0.7193169 -0.3942956 -0.5719391 -0.1033058 -0.5051196 -0.8568443 -3.07653e-6 -0.03184872 0.9994927 0.07767277 -0.5055429 -0.8592982 -0.8963131 -0.3818404 -0.2254348 0.9372312 -0.3484093 -0.01445162 -0.9959549 0.008602619 -0.08944201 0 -2.80155e-7 1 0.8989824 0.03565919 -0.4365308 -0.2533577 -0.04189473 -0.9664651 0 -2.80154e-7 1 0.09180557 -0.04819148 -0.9946101 -0.9901323 0.05018615 -0.1308412 0.997092 0.008332967 -0.07575076 0.9297993 0.3110074 -0.1968445 0.9847992 -0.05924808 -0.1632797 -0.8713428 0.2028272 -0.4467918 0.1571227 0.8951297 -0.4171996 -0.1107247 -0.7427213 -0.6603826 -0.8698748 -0.1986002 -0.4515264 -0.08119374 0.9051042 -0.4173655 0.06924927 -0.7505858 -0.6571343 0.8973515 -0.3324294 -0.2902605 -0.7287487 -0.4038621 -0.5530107 0.9879148 0.02836805 -0.1523804 -0.8988146 0.02381706 -0.4376817 -0.9420045 0.315469 -0.1144858 0.2311952 0.9384609 -0.2565932 -0.2367365 -0.9422653 -0.2368378 -0.9972476 -0.05458092 -0.05018162 -0.06762892 0.9686732 -0.2389531 0.06839942 -0.959742 -0.2724276 0.9605083 0.1756901 -0.2157703 0.9850662 -0.1719883 0.008039295 -0.9418045 -0.3351503 -0.02605354 0.8777805 -0.4685285 0.09991276 -0.9983062 0.0297029 -0.05002623 0.9948856 -1.08268e-4 -0.1010087 -0.08880323 0.2343723 -0.9680826 -0.06685394 -0.9911409 -0.1147623 -0.08511018 -0.3718348 -0.9243891 1.59557e-5 0.1474556 0.9890688 -0.2169657 0.9310073 -0.2935153 0 -2.84176e-7 1 -0.07218629 -0.8734779 -0.4814828 -0.2452768 0.9379588 -0.2450973 -0.06774926 -0.5132636 -0.8555529 -1.69571e-5 -0.1788843 0.9838702 -0.09873986 -0.05336016 -0.9936817 0 -2.80154e-7 1 -0.06919962 -0.7507209 -0.6569853 -0.1575706 0.8948245 -0.4176849 -0.06858372 -0.9603376 -0.2702742 -0.2311458 0.9384166 -0.2567995 0 0 1 0.05072534 0.9614106 -0.2704008 -2.6594e-7 -2.84181e-7 1 0.2518016 0.1461214 -0.9566842 0.26271 -0.9631369 -0.05788671 0.1869742 -0.3374425 -0.9225906 0.08121407 0.970404 -0.2274212 0.1998196 -0.8582776 -0.4726856 0.03063076 -0.06171846 0.9976235 0.1762054 -0.4516407 -0.8746269 0 -2.80154e-7 1 0.2388698 -0.03237223 -0.9705119 0.08112782 0.9051887 -0.4171951 0.1109229 -0.7423816 -0.6607312 0.0677964 0.9686681 -0.2389265 0.236462 -0.9412921 -0.2409457</float_array>
          <technique_common>
            <accessor source="#shape0_023-mesh-normals-array" count="192" stride="3">
              <param name="X" type="float"/>
              <param name="Y" type="float"/>
              <param name="Z" type="float"/>
            </accessor>
          </technique_common>
        </source>
        <source id="shape0_023-mesh-colors-shape0-lib-vcolor" name="shape0-lib-vcolor">
          <float_array id="shape0_023-mesh-colors-shape0-lib-vcolor-array" count="1728">0.654902 0.5019608 0.3137255 0.654902 0.5019608 0.3137255 0.654902 0.5019608 0.3137255 0.654902 0.5019608 0.3137255 0.654902 0.5019608 0.3137255 0.654902 0.5019608 0.3137255 0.654902 0.5019608 0.3137255 0.654902 0.5019608 0.3137255 0.654902 0.5019608 0.3137255 0.654902 0.5019608 0.3137255 0.654902 0.5019608 0.3137255 0.654902 0.5019608 0.3137255 0.654902 0.5019608 0.3137255 0.654902 0.5019608 0.3137255 0.654902 0.5019608 0.3137255 0.654902 0.5019608 0.3137255 0.654902 0.5019608 0.3137255 0.654902 0.5019608 0.3137255 0.654902 0.5019608 0.3137255 0.654902 0.5019608 0.3137255 0.654902 0.5019608 0.3137255 0.654902 0.5019608 0.3137255 0.654902 0.5019608 0.3137255 0.654902 0.5019608 0.3137255 0.654902 0.5019608 0.3137255 0.654902 0.5019608 0.3137255 0.654902 0.5019608 0.3137255 0.654902 0.5019608 0.3137255 0.654902 0.5019608 0.3137255 0.654902 0.5019608 0.3137255 0.654902 0.5019608 0.3137255 0.654902 0.5019608 0.3137255 0.654902 0.5019608 0.3137255 0.654902 0.5019608 0.3137255 0.654902 0.5019608 0.3137255 0.654902 0.5019608 0.3137255 0.654902 0.5019608 0.3137255 0.654902 0.5019608 0.3137255 0.654902 0.5019608 0.3137255 0.654902 0.5019608 0.3137255 0.654902 0.5019608 0.3137255 0.654902 0.5019608 0.3137255 0.654902 0.5019608 0.3137255 0.654902 0.5019608 0.3137255 0.654902 0.5019608 0.3137255 0.654902 0.5019608 0.3137255 0.654902 0.5019608 0.3137255 0.654902 0.5019608 0.3137255 0.654902 0.5019608 0.3137255 0.654902 0.5019608 0.3137255 0.654902 0.5019608 0.3137255 0.654902 0.5019608 0.3137255 0.654902 0.5019608 0.3137255 0.654902 0.5019608 0.3137255 0.654902 0.5019608 0.3137255 0.654902 0.5019608 0.3137255 0.654902 0.5019608 0.3137255 0.654902 0.5019608 0.3137255 0.654902 0.5019608 0.3137255 0.654902 0.5019608 0.3137255 0.654902 0.5019608 0.3137255 0.654902 0.5019608 0.3137255 0.654902 0.5019608 0.3137255 0.654902 0.5019608 0.3137255 0.654902 0.5019608 0.3137255 0.654902 0.5019608 0.3137255 0.654902 0.5019608 0.3137255 0.654902 0.5019608 0.3137255 0.654902 0.5019608 0.3137255 0.654902 0.5019608 0.3137255 0.654902 0.5019608 0.3137255 0.654902 0.5019608 0.3137255 0.654902 0.5019608 0.3137255 0.654902 0.5019608 0.3137255 0.654902 0.5019608 0.3137255 0.654902 0.5019608 0.3137255 0.654902 0.5019608 0.3137255 0.654902 0.5019608 0.3137255 0.654902 0.5019608 0.3137255 0.654902 0.5019608 0.3137255 0.654902 0.5019608 0.3137255 0.654902 0.5019608 0.3137255 0.654902 0.5019608 0.3137255 0.654902 0.5019608 0.3137255 0.654902 0.5019608 0.3137255 0.654902 0.5019608 0.3137255 0.654902 0.5019608 0.3137255 0.654902 0.5019608 0.3137255 0.654902 0.5019608 0.3137255 0.654902 0.5019608 0.3137255 0.654902 0.5019608 0.3137255 0.654902 0.5019608 0.3137255 0.654902 0.5019608 0.3137255 0.654902 0.5019608 0.3137255 0.654902 0.5019608 0.3137255 0.654902 0.5019608 0.3137255 0.654902 0.5019608 0.3137255 0.654902 0.5019608 0.3137255 0.654902 0.5019608 0.3137255 0.654902 0.5019608 0.3137255 0.654902 0.5019608 0.3137255 0.654902 0.5019608 0.3137255 0.654902 0.5019608 0.3137255 0.654902 0.5019608 0.3137255 0.654902 0.5019608 0.3137255 0.654902 0.5019608 0.3137255 0.654902 0.5019608 0.3137255 0.654902 0.5019608 0.3137255 0.654902 0.5019608 0.3137255 0.654902 0.5019608 0.3137255 0.654902 0.5019608 0.3137255 0.654902 0.5019608 0.3137255 0.654902 0.5019608 0.3137255 0.654902 0.5019608 0.3137255 0.654902 0.5019608 0.3137255 0.654902 0.5019608 0.3137255 0.654902 0.5019608 0.3137255 0.654902 0.5019608 0.3137255 0.654902 0.5019608 0.3137255 0.654902 0.5019608 0.3137255 0.654902 0.5019608 0.3137255 0.654902 0.5019608 0.3137255 0.654902 0.5019608 0.3137255 0.654902 0.5019608 0.3137255 0.654902 0.5019608 0.3137255 0.654902 0.5019608 0.3137255 0.654902 0.5019608 0.3137255 0.654902 0.5019608 0.3137255 0.654902 0.5019608 0.3137255 0.654902 0.5019608 0.3137255 0.654902 0.5019608 0.3137255 0.654902 0.5019608 0.3137255 0.654902 0.5019608 0.3137255 0.654902 0.5019608 0.3137255 0.654902 0.5019608 0.3137255 0.654902 0.5019608 0.3137255 0.654902 0.5019608 0.3137255 0.654902 0.5019608 0.3137255 0.654902 0.5019608 0.3137255 0.654902 0.5019608 0.3137255 0.654902 0.5019608 0.3137255 0.654902 0.5019608 0.3137255 0.654902 0.5019608 0.3137255 0.654902 0.5019608 0.3137255 0.654902 0.5019608 0.3137255 0.654902 0.5019608 0.3137255 0.654902 0.5019608 0.3137255 0.654902 0.5019608 0.3137255 0.654902 0.5019608 0.3137255 0.654902 0.5019608 0.3137255 0.654902 0.5019608 0.3137255 0.654902 0.5019608 0.3137255 0.654902 0.5019608 0.3137255 0.654902 0.5019608 0.3137255 0.654902 0.5019608 0.3137255 0.654902 0.5019608 0.3137255 0.654902 0.5019608 0.3137255 0.654902 0.5019608 0.3137255 0.654902 0.5019608 0.3137255 0.654902 0.5019608 0.3137255 0.654902 0.5019608 0.3137255 0.654902 0.5019608 0.3137255 0.654902 0.5019608 0.3137255 0.654902 0.5019608 0.3137255 0.654902 0.5019608 0.3137255 0.654902 0.5019608 0.3137255 0.654902 0.5019608 0.3137255 0.654902 0.5019608 0.3137255 0.654902 0.5019608 0.3137255 0.654902 0.5019608 0.3137255 0.654902 0.5019608 0.3137255 0.654902 0.5019608 0.3137255 0.654902 0.5019608 0.3137255 0.654902 0.5019608 0.3137255 0.654902 0.5019608 0.3137255 0.654902 0.5019608 0.3137255 0.654902 0.5019608 0.3137255 0.654902 0.5019608 0.3137255 0.654902 0.5019608 0.3137255 0.654902 0.5019608 0.3137255 0.654902 0.5019608 0.3137255 0.654902 0.5019608 0.3137255 0.654902 0.5019608 0.3137255 0.654902 0.5019608 0.3137255 0.654902 0.5019608 0.3137255 0.654902 0.5019608 0.3137255 0.654902 0.5019608 0.3137255 0.654902 0.5019608 0.3137255 0.654902 0.5019608 0.3137255 0.654902 0.5019608 0.3137255 0.654902 0.5019608 0.3137255 0.654902 0.5019608 0.3137255 0.654902 0.5019608 0.3137255 0.654902 0.5019608 0.3137255 0.654902 0.5019608 0.3137255 0.654902 0.5019608 0.3137255 0.654902 0.5019608 0.3137255 0.654902 0.5019608 0.3137255 0.654902 0.5019608 0.3137255 0.654902 0.5019608 0.3137255 0.654902 0.5019608 0.3137255 0.654902 0.5019608 0.3137255 0.654902 0.5019608 0.3137255 0.654902 0.5019608 0.3137255 0.654902 0.5019608 0.3137255 0.654902 0.5019608 0.3137255 0.654902 0.5019608 0.3137255 0.654902 0.5019608 0.3137255 0.654902 0.5019608 0.3137255 0.654902 0.5019608 0.3137255 0.654902 0.5019608 0.3137255 0.654902 0.5019608 0.3137255 0.654902 0.5019608 0.3137255 0.654902 0.5019608 0.3137255 0.654902 0.5019608 0.3137255 0.654902 0.5019608 0.3137255 0.654902 0.5019608 0.3137255 0.654902 0.5019608 0.3137255 0.654902 0.5019608 0.3137255 0.654902 0.5019608 0.3137255 0.654902 0.5019608 0.3137255 0.654902 0.5019608 0.3137255 0.654902 0.5019608 0.3137255 0.654902 0.5019608 0.3137255 0.654902 0.5019608 0.3137255 0.654902 0.5019608 0.3137255 0.654902 0.5019608 0.3137255 0.654902 0.5019608 0.3137255 0.654902 0.5019608 0.3137255 0.654902 0.5019608 0.3137255 0.654902 0.5019608 0.3137255 0.654902 0.5019608 0.3137255 0.654902 0.5019608 0.3137255 0.654902 0.5019608 0.3137255 0.654902 0.5019608 0.3137255 0.654902 0.5019608 0.3137255 0.654902 0.5019608 0.3137255 0.654902 0.5019608 0.3137255 0.654902 0.5019608 0.3137255 0.654902 0.5019608 0.3137255 0.654902 0.5019608 0.3137255 0.654902 0.5019608 0.3137255 0.654902 0.5019608 0.3137255 0.654902 0.5019608 0.3137255 0.654902 0.5019608 0.3137255 0.654902 0.5019608 0.3137255 0.654902 0.5019608 0.3137255 0.654902 0.5019608 0.3137255 0.654902 0.5019608 0.3137255 0.654902 0.5019608 0.3137255 0.654902 0.5019608 0.3137255 0.654902 0.5019608 0.3137255 0.654902 0.5019608 0.3137255 0.654902 0.5019608 0.3137255 0.654902 0.5019608 0.3137255 0.654902 0.5019608 0.3137255 0.654902 0.5019608 0.3137255 0.654902 0.5019608 0.3137255 0.654902 0.5019608 0.3137255 0.654902 0.5019608 0.3137255 0.654902 0.5019608 0.3137255 0.654902 0.5019608 0.3137255 0.654902 0.5019608 0.3137255 0.654902 0.5019608 0.3137255 0.654902 0.5019608 0.3137255 0.654902 0.5019608 0.3137255 0.654902 0.5019608 0.3137255 0.654902 0.5019608 0.3137255 0.654902 0.5019608 0.3137255 0.654902 0.5019608 0.3137255 0.654902 0.5019608 0.3137255 0.654902 0.5019608 0.3137255 0.654902 0.5019608 0.3137255 0.654902 0.5019608 0.3137255 0.654902 0.5019608 0.3137255 0.654902 0.5019608 0.3137255 0.654902 0.5019608 0.3137255 0.654902 0.5019608 0.3137255 0.654902 0.5019608 0.3137255 0.654902 0.5019608 0.3137255 0.654902 0.5019608 0.3137255 0.654902 0.5019608 0.3137255 0.654902 0.5019608 0.3137255 0.654902 0.5019608 0.3137255 0.654902 0.5019608 0.3137255 0.654902 0.5019608 0.3137255 0.654902 0.5019608 0.3137255 0.654902 0.5019608 0.3137255 0.654902 0.5019608 0.3137255 0.654902 0.5019608 0.3137255 0.654902 0.5019608 0.3137255 0.654902 0.5019608 0.3137255 0.654902 0.5019608 0.3137255 0.654902 0.5019608 0.3137255 0.654902 0.5019608 0.3137255 0.654902 0.5019608 0.3137255 0.654902 0.5019608 0.3137255 0.654902 0.5019608 0.3137255 0.654902 0.5019608 0.3137255 0.654902 0.5019608 0.3137255 0.654902 0.5019608 0.3137255 0.654902 0.5019608 0.3137255 0.654902 0.5019608 0.3137255 0.654902 0.5019608 0.3137255 0.654902 0.5019608 0.3137255 0.654902 0.5019608 0.3137255 0.654902 0.5019608 0.3137255 0.654902 0.5019608 0.3137255 0.654902 0.5019608 0.3137255 0.654902 0.5019608 0.3137255 0.654902 0.5019608 0.3137255 0.654902 0.5019608 0.3137255 0.654902 0.5019608 0.3137255 0.654902 0.5019608 0.3137255 0.654902 0.5019608 0.3137255 0.654902 0.5019608 0.3137255 0.654902 0.5019608 0.3137255 0.654902 0.5019608 0.3137255 0.654902 0.5019608 0.3137255 0.654902 0.5019608 0.3137255 0.654902 0.5019608 0.3137255 0.654902 0.5019608 0.3137255 0.654902 0.5019608 0.3137255 0.654902 0.5019608 0.3137255 0.654902 0.5019608 0.3137255 0.654902 0.5019608 0.3137255 0.654902 0.5019608 0.3137255 0.654902 0.5019608 0.3137255 0.654902 0.5019608 0.3137255 0.654902 0.5019608 0.3137255 0.654902 0.5019608 0.3137255 0.654902 0.5019608 0.3137255 0.654902 0.5019608 0.3137255 0.654902 0.5019608 0.3137255 0.654902 0.5019608 0.3137255 0.654902 0.5019608 0.3137255 0.654902 0.5019608 0.3137255 0.654902 0.5019608 0.3137255 0.654902 0.5019608 0.3137255 0.654902 0.5019608 0.3137255 0.654902 0.5019608 0.3137255 0.654902 0.5019608 0.3137255 0.654902 0.5019608 0.3137255 0.654902 0.5019608 0.3137255 0.654902 0.5019608 0.3137255 0.654902 0.5019608 0.3137255 0.654902 0.5019608 0.3137255 0.654902 0.5019608 0.3137255 0.654902 0.5019608 0.3137255 0.654902 0.5019608 0.3137255 0.654902 0.5019608 0.3137255 0.654902 0.5019608 0.3137255 0.654902 0.5019608 0.3137255 0.654902 0.5019608 0.3137255 0.654902 0.5019608 0.3137255 0.654902 0.5019608 0.3137255 0.654902 0.5019608 0.3137255 0.654902 0.5019608 0.3137255 0.654902 0.5019608 0.3137255 0.654902 0.5019608 0.3137255 0.654902 0.5019608 0.3137255 0.654902 0.5019608 0.3137255 0.654902 0.5019608 0.3137255 0.654902 0.5019608 0.3137255 0.654902 0.5019608 0.3137255 0.654902 0.5019608 0.3137255 0.654902 0.5019608 0.3137255 0.654902 0.5019608 0.3137255 0.654902 0.5019608 0.3137255 0.654902 0.5019608 0.3137255 0.654902 0.5019608 0.3137255 0.654902 0.5019608 0.3137255 0.654902 0.5019608 0.3137255 0.654902 0.5019608 0.3137255 0.654902 0.5019608 0.3137255 0.654902 0.5019608 0.3137255 0.654902 0.5019608 0.3137255 0.654902 0.5019608 0.3137255 0.654902 0.5019608 0.3137255 0.654902 0.5019608 0.3137255 0.654902 0.5019608 0.3137255 0.654902 0.5019608 0.3137255 0.654902 0.5019608 0.3137255 0.654902 0.5019608 0.3137255 0.654902 0.5019608 0.3137255 0.654902 0.5019608 0.3137255 0.654902 0.5019608 0.3137255 0.654902 0.5019608 0.3137255 0.654902 0.5019608 0.3137255 0.654902 0.5019608 0.3137255 0.654902 0.5019608 0.3137255 0.654902 0.5019608 0.3137255 0.654902 0.5019608 0.3137255 0.654902 0.5019608 0.3137255 0.654902 0.5019608 0.3137255 0.654902 0.5019608 0.3137255 0.654902 0.5019608 0.3137255 0.654902 0.5019608 0.3137255 0.654902 0.5019608 0.3137255 0.654902 0.5019608 0.3137255 0.654902 0.5019608 0.3137255 0.654902 0.5019608 0.3137255 0.654902 0.5019608 0.3137255 0.654902 0.5019608 0.3137255 0.654902 0.5019608 0.3137255 0.654902 0.5019608 0.3137255 0.654902 0.5019608 0.3137255 0.654902 0.5019608 0.3137255 0.654902 0.5019608 0.3137255 0.654902 0.5019608 0.3137255 0.654902 0.5019608 0.3137255 0.654902 0.5019608 0.3137255 0.654902 0.5019608 0.3137255 0.654902 0.5019608 0.3137255 0.654902 0.5019608 0.3137255 0.654902 0.5019608 0.3137255 0.654902 0.5019608 0.3137255 0.654902 0.5019608 0.3137255 0.654902 0.5019608 0.3137255 0.654902 0.5019608 0.3137255 0.654902 0.5019608 0.3137255 0.654902 0.5019608 0.3137255 0.654902 0.5019608 0.3137255 0.654902 0.5019608 0.3137255 0.654902 0.5019608 0.3137255 0.654902 0.5019608 0.3137255 0.654902 0.5019608 0.3137255 0.654902 0.5019608 0.3137255 0.654902 0.5019608 0.3137255 0.654902 0.5019608 0.3137255 0.654902 0.5019608 0.3137255 0.654902 0.5019608 0.3137255 0.654902 0.5019608 0.3137255 0.654902 0.5019608 0.3137255 0.654902 0.5019608 0.3137255 0.654902 0.5019608 0.3137255 0.654902 0.5019608 0.3137255 0.654902 0.5019608 0.3137255 0.654902 0.5019608 0.3137255 0.654902 0.5019608 0.3137255 0.654902 0.5019608 0.3137255 0.654902 0.5019608 0.3137255 0.654902 0.5019608 0.3137255 0.654902 0.5019608 0.3137255 0.654902 0.5019608 0.3137255 0.654902 0.5019608 0.3137255 0.654902 0.5019608 0.3137255 0.654902 0.5019608 0.3137255 0.654902 0.5019608 0.3137255 0.654902 0.5019608 0.3137255 0.654902 0.5019608 0.3137255 0.654902 0.5019608 0.3137255 0.654902 0.5019608 0.3137255 0.654902 0.5019608 0.3137255 0.654902 0.5019608 0.3137255 0.654902 0.5019608 0.3137255 0.654902 0.5019608 0.3137255 0.654902 0.5019608 0.3137255 0.654902 0.5019608 0.3137255 0.654902 0.5019608 0.3137255 0.654902 0.5019608 0.3137255 0.654902 0.5019608 0.3137255 0.654902 0.5019608 0.3137255 0.654902 0.5019608 0.3137255 0.654902 0.5019608 0.3137255 0.654902 0.5019608 0.3137255 0.654902 0.5019608 0.3137255 0.654902 0.5019608 0.3137255 0.654902 0.5019608 0.3137255 0.654902 0.5019608 0.3137255 0.654902 0.5019608 0.3137255 0.654902 0.5019608 0.3137255 0.654902 0.5019608 0.3137255 0.654902 0.5019608 0.3137255 0.654902 0.5019608 0.3137255 0.654902 0.5019608 0.3137255 0.654902 0.5019608 0.3137255 0.654902 0.5019608 0.3137255 0.654902 0.5019608 0.3137255 0.654902 0.5019608 0.3137255 0.654902 0.5019608 0.3137255 0.654902 0.5019608 0.3137255 0.654902 0.5019608 0.3137255 0.654902 0.5019608 0.3137255 0.654902 0.5019608 0.3137255 0.654902 0.5019608 0.3137255 0.654902 0.5019608 0.3137255 0.654902 0.5019608 0.3137255 0.654902 0.5019608 0.3137255 0.654902 0.5019608 0.3137255 0.654902 0.5019608 0.3137255 0.654902 0.5019608 0.3137255 0.654902 0.5019608 0.3137255 0.654902 0.5019608 0.3137255 0.654902 0.5019608 0.3137255 0.654902 0.5019608 0.3137255 0.654902 0.5019608 0.3137255 0.654902 0.5019608 0.3137255 0.654902 0.5019608 0.3137255 0.654902 0.5019608 0.3137255 0.654902 0.5019608 0.3137255 0.654902 0.5019608 0.3137255 0.654902 0.5019608 0.3137255 0.654902 0.5019608 0.3137255 0.654902 0.5019608 0.3137255 0.654902 0.5019608 0.3137255 0.654902 0.5019608 0.3137255 0.654902 0.5019608 0.3137255 0.654902 0.5019608 0.3137255 0.654902 0.5019608 0.3137255 0.654902 0.5019608 0.3137255 0.654902 0.5019608 0.3137255 0.654902 0.5019608 0.3137255 0.654902 0.5019608 0.3137255 0.654902 0.5019608 0.3137255 0.654902 0.5019608 0.3137255 0.654902 0.5019608 0.3137255 0.654902 0.5019608 0.3137255 0.654902 0.5019608 0.3137255 0.654902 0.5019608 0.3137255 0.654902 0.5019608 0.3137255 0.654902 0.5019608 0.3137255 0.654902 0.5019608 0.3137255 0.654902 0.5019608 0.3137255 0.654902 0.5019608 0.3137255 0.654902 0.5019608 0.3137255 0.654902 0.5019608 0.3137255 0.654902 0.5019608 0.3137255 0.654902 0.5019608 0.3137255 0.654902 0.5019608 0.3137255 0.654902 0.5019608 0.3137255 0.654902 0.5019608 0.3137255 0.654902 0.5019608 0.3137255 0.654902 0.5019608 0.3137255 0.654902 0.5019608 0.3137255 0.654902 0.5019608 0.3137255 0.654902 0.5019608 0.3137255 0.654902 0.5019608 0.3137255 0.654902 0.5019608 0.3137255 0.654902 0.5019608 0.3137255 0.654902 0.5019608 0.3137255 0.654902 0.5019608 0.3137255 0.654902 0.5019608 0.3137255 0.654902 0.5019608 0.3137255 0.654902 0.5019608 0.3137255 0.654902 0.5019608 0.3137255 0.654902 0.5019608 0.3137255 0.654902 0.5019608 0.3137255 0.654902 0.5019608 0.3137255 0.654902 0.5019608 0.3137255 0.654902 0.5019608 0.3137255 0.654902 0.5019608 0.3137255 0.654902 0.5019608 0.3137255 0.654902 0.5019608 0.3137255 0.654902 0.5019608 0.3137255 0.654902 0.5019608 0.3137255 0.654902 0.5019608 0.3137255 0.654902 0.5019608 0.3137255 0.654902 0.5019608 0.3137255 0.654902 0.5019608 0.3137255 0.654902 0.5019608 0.3137255 0.654902 0.5019608 0.3137255 0.654902 0.5019608 0.3137255 0.654902 0.5019608 0.3137255 0.654902 0.5019608 0.3137255 0.654902 0.5019608 0.3137255 0.654902 0.5019608 0.3137255 0.654902 0.5019608 0.3137255 0.654902 0.5019608 0.3137255 0.654902 0.5019608 0.3137255 0.654902 0.5019608 0.3137255 0.654902 0.5019608 0.3137255 0.654902 0.5019608 0.3137255 0.654902 0.5019608 0.3137255 0.654902 0.5019608 0.3137255 0.654902 0.5019608 0.3137255</float_array>
          <technique_common>
            <accessor source="#shape0_023-mesh-colors-shape0-lib-vcolor-array" count="576" stride="3">
              <param name="R" type="float"/>
              <param name="G" type="float"/>
              <param name="B" type="float"/>
            </accessor>
          </technique_common>
        </source>
        <vertices id="shape0_023-mesh-vertices">
          <input semantic="POSITION" source="#shape0_023-mesh-positions"/>
        </vertices>
        <polylist count="192">
          <input semantic="VERTEX" source="#shape0_023-mesh-vertices" offset="0"/>
          <input semantic="NORMAL" source="#shape0_023-mesh-normals" offset="1"/>
          <input semantic="COLOR" source="#shape0_023-mesh-colors-shape0-lib-vcolor" offset="2" set="0"/>
          <vcount>3 3 3 3 3 3 3 3 3 3 3 3 3 3 3 3 3 3 3 3 3 3 3 3 3 3 3 3 3 3 3 3 3 3 3 3 3 3 3 3 3 3 3 3 3 3 3 3 3 3 3 3 3 3 3 3 3 3 3 3 3 3 3 3 3 3 3 3 3 3 3 3 3 3 3 3 3 3 3 3 3 3 3 3 3 3 3 3 3 3 3 3 3 3 3 3 3 3 3 3 3 3 3 3 3 3 3 3 3 3 3 3 3 3 3 3 3 3 3 3 3 3 3 3 3 3 3 3 3 3 3 3 3 3 3 3 3 3 3 3 3 3 3 3 3 3 3 3 3 3 3 3 3 3 3 3 3 3 3 3 3 3 3 3 3 3 3 3 3 3 3 3 3 3 3 3 3 3 3 3 3 3 3 3 3 3 3 3 3 3 3 3 </vcount>
          <p>34 0 0 1 0 1 57 0 2 92 1 3 35 1 4 2 1 5 52 2 6 36 2 7 3 2 8 76 3 9 37 3 10 0 3 11 96 4 12 85 4 13 2 4 14 80 5 15 69 5 16 5 5 17 62 6 18 27 6 19 9 6 20 28 7 21 10 7 22 87 7 23 29 8 24 11 8 25 49 8 26 74 9 27 26 9 28 8 9 29 38 10 30 13 10 31 66 10 32 39 11 33 15 11 34 83 11 35 81 12 36 66 12 37 13 12 38 82 13 39 12 13 40 61 13 41 75 14 42 30 14 43 16 14 44 31 15 45 17 15 46 84 15 47 40 16 48 19 16 49 42 16 50 65 17 51 41 17 52 21 17 53 88 18 54 21 18 55 48 18 56 78 19 57 72 19 58 18 19 59 51 20 60 32 20 61 22 20 62 33 21 63 23 21 64 56 21 65 79 22 66 73 22 67 24 22 68 95 23 69 89 23 70 25 23 71 54 24 72 5 24 73 27 24 74 6 25 75 28 25 76 90 25 77 7 26 78 29 26 79 50 26 80 4 27 81 26 27 82 74 27 83 69 28 84 12 28 85 30 28 86 86 29 87 14 29 88 31 29 89 47 30 90 18 30 91 32 30 92 20 31 93 33 31 94 63 31 95 9 32 96 34 32 97 64 32 98 87 33 99 10 33 100 35 33 101 49 34 102 11 34 103 36 34 104 71 35 105 8 35 106 37 35 107 16 36 108 38 36 109 77 36 110 17 37 111 39 37 112 93 37 113 22 38 114 40 38 115 53 38 116 56 39 117 23 39 118 41 39 119 41 40 120 52 40 121 48 40 122 50 41 123 49 41 124 23 41 125 53 42 126 42 42 127 0 42 128 94 43 129 48 43 130 3 43 131 78 44 132 47 44 133 4 44 134 26 45 135 51 45 136 44 45 137 70 46 138 79 46 139 45 46 140 86 47 141 95 47 142 46 47 143 43 48 144 50 48 145 33 48 146 4 49 147 47 49 148 51 49 149 23 50 150 49 50 151 52 50 152 8 51 153 44 51 154 53 51 155 64 52 156 57 52 157 19 52 158 96 53 159 55 53 160 21 53 161 72 54 162 80 54 163 54 54 164 32 55 165 62 55 166 59 55 167 73 56 168 81 56 169 60 56 170 97 57 171 61 57 172 25 57 173 35 58 174 65 58 175 55 58 176 63 59 177 56 59 178 10 59 179 18 60 180 54 60 181 62 60 182 58 61 183 63 61 184 28 61 185 59 62 186 64 62 187 40 62 188 10 63 189 56 63 190 65 63 191 39 64 192 76 64 193 70 64 194 61 65 195 12 65 196 69 65 197 31 66 198 74 66 199 71 66 200 77 67 201 66 67 202 1 67 203 1 68 204 66 68 205 81 68 206 27 69 207 75 69 208 68 69 209 25 70 210 72 70 211 78 70 212 42 71 213 19 71 214 73 71 215 67 72 216 74 72 217 31 72 218 5 73 219 69 73 220 75 73 221 17 74 222 71 74 223 76 74 224 68 75 225 77 75 226 34 75 227 46 76 228 78 76 229 67 76 230 0 77 231 42 77 232 79 77 233 25 78 234 61 78 235 80 78 236 19 79 237 57 79 238 81 79 239 92 80 240 85 80 241 13 80 242 13 81 243 85 81 244 96 81 245 90 82 246 87 82 247 16 82 248 93 83 249 83 83 250 3 83 251 6 84 252 82 84 253 97 84 254 91 85 255 84 85 256 11 85 257 24 86 258 88 86 259 94 86 260 20 87 261 89 87 262 95 87 263 82 88 264 90 88 265 30 88 266 7 89 267 86 89 268 91 89 269 87 90 270 92 90 271 38 90 272 84 91 273 93 91 274 36 91 275 45 92 276 94 92 277 83 92 278 7 93 279 43 93 280 95 93 281 60 94 282 96 94 283 88 94 284 58 95 285 97 95 286 89 95 287 64 96 288 34 96 289 57 96 290 85 97 291 92 97 292 2 97 293 48 98 294 52 98 295 3 98 296 70 99 297 76 99 298 0 99 299 55 100 300 96 100 301 2 100 302 54 101 303 80 101 304 5 101 305 59 102 306 62 102 307 9 102 308 90 103 309 28 103 310 87 103 311 50 104 312 29 104 313 49 104 314 71 105 315 74 105 316 8 105 317 77 106 318 38 106 319 66 106 320 93 107 321 39 107 322 83 107 323 60 108 324 81 108 325 13 108 326 97 109 327 82 109 328 61 109 329 68 110 330 75 110 331 16 110 332 91 111 333 31 111 334 84 111 335 53 112 336 40 112 337 42 112 338 55 113 339 65 113 340 21 113 341 94 114 342 88 114 343 48 114 344 47 115 345 78 115 346 18 115 347 44 116 348 51 116 349 22 116 350 63 117 351 33 117 352 56 117 353 45 118 354 79 118 355 24 118 356 46 119 357 95 119 358 25 119 359 62 120 360 54 120 361 27 120 362 82 121 363 6 121 364 90 121 365 43 122 366 7 122 367 50 122 368 67 123 369 4 123 370 74 123 371 75 124 372 69 124 373 30 124 374 91 125 375 86 125 376 31 125 377 51 126 378 47 126 379 32 126 380 58 127 381 20 127 382 63 127 383 59 128 384 9 128 385 64 128 386 92 129 387 87 129 388 35 129 389 52 130 390 49 130 391 36 130 392 76 131 393 71 131 394 37 131 395 68 132 396 16 132 397 77 132 398 84 133 399 17 133 400 93 133 401 44 134 402 22 134 403 53 134 404 65 135 405 56 135 406 41 135 407 21 136 408 41 136 409 48 136 410 33 137 411 50 137 412 23 137 413 37 138 414 53 138 415 0 138 416 83 139 417 94 139 418 3 139 419 67 140 420 78 140 421 4 140 422 8 141 423 26 141 424 44 141 425 15 142 426 70 142 427 45 142 428 14 143 429 86 143 430 46 143 431 20 144 432 43 144 433 33 144 434 26 145 435 4 145 436 51 145 437 41 146 438 23 146 439 52 146 440 37 147 441 8 147 442 53 147 443 40 148 444 64 148 445 19 148 446 88 149 447 96 149 448 21 149 449 18 150 450 72 150 451 54 150 452 22 151 453 32 151 454 59 151 455 24 152 456 73 152 457 60 152 458 89 153 459 97 153 460 25 153 461 2 154 462 35 154 463 55 154 464 28 155 465 63 155 466 10 155 467 32 156 468 18 156 469 62 156 470 6 157 471 58 157 472 28 157 473 22 158 474 59 158 475 40 158 476 35 159 477 10 159 478 65 159 479 15 160 480 39 160 481 70 160 482 80 161 483 61 161 484 69 161 485 17 162 486 31 162 487 71 162 488 34 163 489 77 163 490 1 163 491 57 164 492 1 164 493 81 164 494 9 165 495 27 165 496 68 165 497 46 166 498 25 166 499 78 166 500 79 167 501 42 167 502 73 167 503 14 168 504 67 168 505 31 168 506 27 169 507 5 169 508 75 169 509 39 170 510 17 170 511 76 170 512 9 171 513 68 171 514 34 171 515 14 172 516 46 172 517 67 172 518 70 173 519 0 173 520 79 173 521 72 174 522 25 174 523 80 174 524 73 175 525 19 175 526 81 175 527 38 176 528 92 176 529 13 176 530 60 177 531 13 177 532 96 177 533 30 178 534 90 178 535 16 178 536 36 179 537 93 179 538 3 179 539 58 180 540 6 180 541 97 180 542 29 181 543 91 181 544 11 181 545 45 182 546 24 182 547 94 182 548 43 183 549 20 183 550 95 183 551 12 184 552 82 184 553 30 184 554 29 185 555 7 185 556 91 185 557 16 186 558 87 186 559 38 186 560 11 187 561 84 187 562 36 187 563 15 188 564 45 188 565 83 188 566 86 189 567 7 189 568 95 189 569 24 190 570 60 190 571 88 190 572 20 191 573 58 191 574 89 191 575</p>
        </polylist>
      </mesh>
    </geometry>
  </library_geometries>
  <library_controllers/>
  <library_visual_scenes>
    <visual_scene id="Scene" name="Scene">
      <node id="VIZ_LeftFingerJoint43y_link_0" name="VIZ_LeftFingerJoint43y_link_0" type="NODE">
        <instance_geometry url="#shape0_023-mesh" name="VIZ_LeftFingerJoint43y_link_0"/>
      </node>
    </visual_scene>
  </library_visual_scenes>
  <scene>
    <instance_visual_scene url="#Scene"/>
  </scene>
</COLLADA>