<?xml version="1.0" encoding="utf-8"?>
<COLLADA xmlns="http://www.collada.org/2005/11/COLLADASchema" version="1.4.1">
  <asset>
    <contributor>
      <author>Blender User</author>
      <authoring_tool>Blender 2.77.0 commit date:2016-04-05, commit time:18:12, hash:abf6f08</authoring_tool>
    </contributor>
    <created>2017-08-10T21:16:22</created>
    <modified>2017-08-10T21:16:22</modified>
    <unit name="meter" meter="1"/>
    <up_axis>Z_UP</up_axis>
  </asset>
  <library_images>
    <image id="PBRFULL_Ramp-material_Base_Color_jpg" name="PBRFULL_Ramp-material_Base_Color_jpg">
      <init_from>PBRFULL_Ramp-material_Base_Color.jpg</init_from>
    </image>
  </library_images>
  <library_effects>
    <effect id="PBRFULL_Ramp-effect">
      <profile_COMMON>
        <newparam sid="PBRFULL_Ramp-material_Base_Color_jpg-surface">
          <surface type="2D">
            <init_from>PBRFULL_Ramp-material_Base_Color_jpg</init_from>
          </surface>
        </newparam>
        <newparam sid="PBRFULL_Ramp-material_Base_Color_jpg-sampler">
          <sampler2D>
            <source>PBRFULL_Ramp-material_Base_Color_jpg-surface</source>
          </sampler2D>
        </newparam>
        <technique sid="common">
          <phong>
            <emission>
              <color sid="emission">0 0 0 1</color>
            </emission>
            <ambient>
              <color sid="ambient">0 0 0 1</color>
            </ambient>
            <diffuse>
              <texture texture="PBRFULL_Ramp-material_Base_Color_jpg-sampler"/>
            </diffuse>
            <specular>
              <color sid="specular">0.5 0.5 0.5 1</color>
            </specular>
            <shininess>
              <float sid="shininess">50</float>
            </shininess>
            <index_of_refraction>
              <float sid="index_of_refraction">1</float>
            </index_of_refraction>
          </phong>
        </technique>
      </profile_COMMON>
    </effect>
  </library_effects>
  <library_materials>
    <material id="PBRFULL_Ramp-material" name="PBRFULL_Ramp">
      <instance_effect url="#PBRFULL_Ramp-effect"/>
    </material>
  </library_materials>
  <library_geometries>
    <geometry id="Cube-mesh" name="Cube">
      <mesh>
        <source id="Cube-mesh-positions">
          <float_array id="Cube-mesh-positions-array" count="18">-1 -0.5 0 -1 -0.5 1 -1 0.5 0 -1 0.5 1 1 -0.5 0 1 0.5 0</float_array>
          <technique_common>
            <accessor source="#Cube-mesh-positions-array" count="6" stride="3">
              <param name="X" type="float"/>
              <param name="Y" type="float"/>
              <param name="Z" type="float"/>
            </accessor>
          </technique_common>
        </source>
        <source id="Cube-mesh-normals">
          <float_array id="Cube-mesh-normals-array" count="12">-1 0 0 0 -1 0 0.4472137 0 0.8944273 0 1 0</float_array>
          <technique_common>
            <accessor source="#Cube-mesh-normals-array" count="4" stride="3">
              <param name="X" type="float"/>
              <param name="Y" type="float"/>
              <param name="Z" type="float"/>
            </accessor>
          </technique_common>
        </source>
        <source id="Cube-mesh-map-0">
          <float_array id="Cube-mesh-map-0-array" count="36">0.3366013 0.6677632 0.6633986 0.9967105 0.3366013 0.9967105 0.6633988 0.6611841 0.3366014 0.6611842 0.3366013 0.003289461 0.3300652 0.003289461 0.003268182 0.7388378 0.003267943 0.003289461 0.996732 0.6611842 0.6699347 0.6611843 0.9967319 0.003289461 0.3366013 0.6677632 0.6633986 0.6677631 0.6633986 0.9967105 0.3300652 0.003289461 0.3300653 0.7388377 0.003268182 0.7388378</float_array>
          <technique_common>
            <accessor source="#Cube-mesh-map-0-array" count="18" stride="2">
              <param name="S" type="float"/>
              <param name="T" type="float"/>
            </accessor>
          </technique_common>
        </source>
        <vertices id="Cube-mesh-vertices">
          <input semantic="POSITION" source="#Cube-mesh-positions"/>
        </vertices>
        <polylist material="PBRFULL_Ramp-material" count="6">
          <input semantic="VERTEX" source="#Cube-mesh-vertices" offset="0"/>
          <input semantic="NORMAL" source="#Cube-mesh-normals" offset="1"/>
          <input semantic="TEXCOORD" source="#Cube-mesh-map-0" offset="2" set="0"/>
          <vcount>3 3 3 3 3 3 </vcount>
          <p>3 0 0 0 0 1 1 0 2 1 1 3 0 1 4 4 1 5 1 2 6 5 2 7 3 2 8 2 3 9 3 3 10 5 3 11 3 0 12 2 0 13 0 0 14 1 2 15 4 2 16 5 2 17</p>
        </polylist>
      </mesh>
    </geometry>
  </library_geometries>
  <library_controllers/>
  <library_visual_scenes>
    <visual_scene id="Scene" name="Scene">
      <node id="ramp" name="ramp" type="NODE">
        <matrix sid="transform">1 0 0 0 0 1 0 0 0 0 1 0 0 0 0 1</matrix>
        <instance_geometry url="#Cube-mesh" name="ramp">
          <bind_material>
            <technique_common>
              <instance_material symbol="PBRFULL_Ramp-material" target="#PBRFULL_Ramp-material"/>
            </technique_common>
          </bind_material>
        </instance_geometry>
      </node>
    </visual_scene>
  </library_visual_scenes>
  <scene>
    <instance_visual_scene url="#Scene"/>
  </scene>
</COLLADA>