<?xml version="1.0" encoding="utf-8"?>
<COLLADA xmlns="http://www.collada.org/2005/11/COLLADASchema" version="1.4.1">
  <asset>
    <contributor>
      <author>Blender User</author>
      <authoring_tool>Blender 2.76.0 commit date:2015-11-03, commit time:10:56, hash:f337fea</authoring_tool>
    </contributor>
    <created>2017-01-25T08:36:05</created>
    <modified>2017-01-25T08:36:05</modified>
    <unit name="meter" meter="1"/>
    <up_axis>Z_UP</up_axis>
  </asset>
  <library_images/>
  <library_geometries>
    <geometry id="Cube_001-mesh" name="Cube.001">
      <mesh>
        <source id="Cube_001-mesh-positions">
          <float_array id="Cube_001-mesh-positions-array" count="294">-44.0439 5.871282 0.1216139 -40.7222 -1.78993e-5 17.3049 -30.4586 42.36199 -6.107023 -40.8156 -1.22974e-5 -17.0795 -30.4586 -42.36191 -6.107037 -31.3093 -38.00401 13.37599 -30.2761 33.28038 20.85821 -30.4586 42.36199 -6.107023 -31.3815 -38.00381 -13.20181 -2.062518 59.25169 -5.029223 -2.74529 55.166 17.53071 11.4083 58.21049 -2.64274 -2.84047 55.166 -17.51149 -9.619544 58.34139 0.02813947 -4.94035 58.21049 9.41462 15.6489 55.166 9.85302 7.57717 55.13559 -16.64179 -4.99137 58.21049 -9.383611 45.7368 -1.50601e-5 -0.122189 42.2892 -1.78626e-5 17.0795 32.5566 -42.36191 -0.08640611 38.0393 -1.09926e-5 -25.0884 31.9322 42.36199 6.107037 31.9322 42.36199 6.107037 27.2096 -42.36191 17.59669 27.1137 -42.36191 -17.74011 27.1137 42.36199 -17.74009 0.736817 -60.00001 -9.7419e-6 0.785049 -55.19641 17.76019 -9.619544 -58.34141 0.02812021 -2.84047 -55.16601 -17.51151 11.0932 -58.34141 -0.02812623 15.6489 -55.16601 9.853001 -4.94035 -58.2107 9.414605 -8.677803 -58.2107 -5.67711 15.5952 -55.16601 -9.93384 0.615211 5.871289 -44.7807 -24.3515 -9.00264e-6 -37.3024 0.642361 38.0039 -34.78309 17.8163 -8.31023e-6 -41.5524 0.642361 -38.004 -34.78311 -13.6503 -33.2805 -34.4687 -13.6503 33.2804 -34.4687 14.9365 33.2804 -34.54619 7.4126 -38.00381 -34.10061 0.858428 5.871275 44.7807 18.0418 -2.18345e-5 41.459 0.831276 38.00388 34.78311 -30.9966 -2.02782e-5 31.9062 0.831276 -38.00401 34.78309 7.59767 -38.00401 34.06389 15.1239 33.28038 34.4687 -13.4629 33.28038 34.5462 -13.4629 -33.28031 34.54619 -19.5032 -46.30701 -20.13041 -27.8095 -46.30701 0.07752436 -25.64 -42.36191 17.74009 -23.7917 -38.00401 24.6622 -30.9966 -2.02782e-5 31.9062 -25.646 33.28038 26.52651 -28.0965 38.00388 19.39231 -27.2493 46.30709 -5.478732 -27.2493 46.30709 -5.478732 -17.0033 42.36199 -26.37679 -31.1694 -9.90996e-6 -31.7333 -23.9253 -38.00401 -24.52861 -16.8598 42.36198 26.47281 0.785044 55.19638 17.76031 18.4769 42.36198 26.37681 18.2675 55.166 3.482109 18.2675 55.166 3.482109 18.2484 55.166 -3.577221 10.5898 55.166 -14.91209 10.5898 55.166 -14.91209 -10.2408 46.30709 -26.30009 27.2633 33.28038 26.38281 38.175 -1.91343e-5 24.8854 18.4769 -42.36191 26.37679 18.2675 -55.16601 3.482091 18.2675 -55.16601 3.482091 18.2484 -55.16601 -3.577239 18.3334 -42.36191 -26.47271 38.0393 -1.09926e-5 -25.0884 18.3334 42.36199 -26.47269 18.4769 -42.36191 26.37679 0.814339 -46.30702 28.54629 -16.8598 -42.36191 26.47279 -17.0033 -42.36191 -26.37681 0.659297 -46.30701 -28.54631 18.3334 -42.36191 -26.47271 -21.8243 -42.36191 -22.43891 -21.7021 -42.36191 22.56109 -19.5032 46.30709 -20.13039 -23.7917 38.00388 24.66221 23.1757 -42.36191 -22.56111 23.2979 -42.36191 22.43889 18.3334 42.36199 -26.47269 23.2979 42.36189 22.43891</float_array>
          <technique_common>
            <accessor source="#Cube_001-mesh-positions-array" count="98" stride="3">
              <param name="X" type="float"/>
              <param name="Y" type="float"/>
              <param name="Z" type="float"/>
            </accessor>
          </technique_common>
        </source>
        <source id="Cube_001-mesh-normals">
          <float_array id="Cube_001-mesh-normals-array" count="513">-0.9617239 -0.2733508 0.01914983 -0.8048119 -0.2547575 0.536075 -0.7000125 -0.673836 0.2364904 -0.6415158 -0.5602474 0.5240042 -0.9268273 0.2622185 0.2687616 -0.8768044 0.4538708 0.1587933 -0.7552887 0.2211583 0.6169505 -0.6775335 0.4844138 0.5534363 0 0 1 -0.7871195 0.3277772 -0.5224988 -0.6924852 0.6216353 -0.3661065 -0.9697265 -0.2430912 -0.0231797 -0.652082 -0.7091879 -0.2680329 -0.8077121 -0.2547587 -0.5316949 -0.7051016 9.18232e-5 0.7091063 -0.08291131 0.9950266 0.05520832 -0.3261687 0.7953001 0.5109909 -0.5771448 0.7803175 0.2408497 -0.5561744 0.6958895 0.4543213 0.07509064 0.9808143 0.1799018 0.2957619 0.778941 0.5529699 0.4173419 0.7515246 0.5109174 0.1175736 0.9627137 -0.2436365 0.4065093 0.913646 -0.001100122 0.5839727 0.709429 -0.3945713 0.1357204 0.9390586 -0.3158308 -0.4903863 0.8340513 -0.252745 0.1472797 0.6318777 -0.7609463 -0.3181098 0.8189834 -0.4775692 0.8887194 0.3057603 0.3415969 0.61296 0.7205994 0.3240627 0.9070193 -0.3195238 0.2742638 0.6810685 -0.7026622 0.2059412 0.6782015 -0.2916131 0.6745403 0 1 -3.84336e-6 0.9159201 -0.285211 -0.2823918 0.6745287 -0.2916141 -0.6782126 0.667097 -0.7449687 -0.001804947 0.4871305 -0.777414 -0.3979088 0.9159199 0.2852103 -0.2823932 0.7293878 0.6680367 -0.1473786 0.6745283 0.2916138 -0.6782132 0.154255 -0.9591566 0.237116 0.2957605 -0.7789394 0.552973 0.6785697 -0.6795243 0.2789086 0.1271224 -0.9575704 0.2586485 -0.5247391 -0.8148078 0.2464492 -0.2423713 -0.7893704 0.5640484 0 -1 0 -0.158079 -0.9862255 -0.04868727 -0.4472939 -0.7878608 -0.4233246 -0.5631846 -0.7932431 -0.2314924 -0.4878847 -0.6365576 -0.5972965 0.1177716 -0.9508065 -0.2865258 0.3415586 -0.928985 -0.1425641 0.2421928 -0.7861865 -0.568554 0.4145492 -0.7515256 -0.5131843 -0.09446519 -0.2212312 -0.9706354 -0.6077751 -0.2582146 -0.7509558 -0.2263638 -0.5852931 -0.7785829 -0.5240041 -0.5602493 -0.6415143 -0.321241 0.1824169 -0.9292622 -0.2020235 0.5577118 -0.8050739 -0.6984166 0.3148249 -0.6427283 -0.398629 0.6949467 -0.5984514 0.1132362 0.2950901 -0.9487358 0.7038281 0.3064638 -0.6408635 -0.01057922 0.6665789 -0.7453594 0.09791123 -0.2172359 -0.9711962 0.2316239 -0.6639814 -0.7109706 0.6097763 -0.2591798 -0.7489985 0.1031718 -0.2172303 0.9706526 0.471368 -0.2915084 0.8323671 0.2354809 -0.6639927 0.7096918 0.2571297 0.2201855 0.9409584 0.2164037 0.6037367 0.7672494 0.6261845 0.1710826 0.7606732 0.5394498 0.5223504 0.6604121 -0.1132357 0.2950897 0.9487358 -0.5366021 0.2180426 0.8151783 -0.1585997 0.6944703 0.7018243 -0.4914897 0.4798004 0.7267941 -0.3543304 -0.1130435 0.9282625 -0.2122436 -0.603725 0.7684197 -0.6036794 -0.2582162 0.7542517 -0.5205156 -0.5602506 0.6443468 -0.9632057 -0.2490215 0.10111 -0.8048149 -0.25476 0.5360693 -0.8749231 -0.4793195 0.06900984 -0.7361124 -0.4666146 0.4903157 -0.9218817 0.3652753 0.1292601 -0.7772079 0.6043375 0.1752834 -0.8157914 0.1980457 0.5433805 -0.6775314 0.4843979 0.5534528 -0.9159898 0.2945152 -0.2724403 -0.7886621 0.3293784 -0.5191551 -0.7869297 0.3284338 -0.5223724 -0.9614991 -0.2589244 -0.09207469 -0.06765085 -0.8540307 -0.5158052 -0.8077117 -0.2547584 -0.5316956 -0.6726779 -0.5928179 -0.4427997 0.5345827 0.8286042 0.1662423 0.03134328 -0.9330152 -0.3584696 -0.600156 0.7375929 0.3094665 -0.5236332 0.7748915 0.3540502 0.03535622 0.9736647 0.2252266 0.30636 0.9435504 0.1259215 -0.007444918 0.9998132 -0.01783877 0.6785702 0.6795237 0.2789087 0.02886593 0.9494544 -0.312575 -0.005130767 -0.9996358 0.02649623 0.355273 0.8879011 -0.2922547 -0.016487 0.9998022 0.01113265 -0.1888179 0.976228 -0.1064271 -0.4518877 0.7895025 -0.4153112 -0.4904413 0.8320077 -0.2592883 0.9415453 0.2790746 0.1887065 0.854262 0.2598301 0.4502497 0.7617445 0.5075053 0.4027203 0.9378752 -0.2916457 0.1879708 0.8451631 -0.2954151 0.445454 0.4892809 -0.7774155 0.3952586 0.9159195 -0.2852115 -0.2823933 0.6799419 -0.7026604 -0.2096364 0 1 -3.84312e-6 0.9255818 0.3291223 -0.1870211 0.6839401 0.7295359 -0.001851022 0.4357153 0.7862728 -0.4380952 0.1393056 -0.9559978 0.25819 0.2430014 -0.7488876 0.6165369 0.3423306 -0.9289841 0.1407063 0.4173336 -0.7515251 0.5109237 -0.1572221 -0.9832623 0.09206771 -0.5299215 -0.8021054 0.2753365 -0.4630052 -0.6833785 0.5644645 -0.4313181 -0.7911387 0.4336639 -0.02596938 -0.96497 -0.2610719 -0.2406141 -0.7182055 -0.6529057 -0.5486546 -0.8288401 -0.1095539 -0.1357152 -0.8122435 -0.5673112 0.1529652 -0.9591568 -0.2379497 0.4051833 -0.9142348 -0.001096606 0.2315407 -0.793137 -0.5633141 0.6770429 -0.6795249 -0.2825931 -0.248218 -0.1611454 -0.9552068 -0.6108428 -0.2600864 -0.7478143 -0.2164056 -0.6037436 -0.7672434 -0.4919673 -0.470862 -0.7322959 -0.1183775 0.2950905 -0.9481078 0.04801994 0.7439182 -0.6665433 -0.6108413 0.2600875 -0.7478152 -0.3192195 0.5620257 -0.7630373 0.2520164 0.2201892 -0.94234 0.6168767 0.2128947 -0.7577198 0.2345071 0.6745529 -0.6999893 0.1065698 -0.2208412 -0.96947 0.08036625 -0.59854 -0.7970516 0.4668371 -0.291509 -0.8349165 0.1118342 -0.2208417 0.9688768 0.6138373 -0.2591796 0.7456741 0.08467155 -0.5985418 0.7966043 0.1183788 0.29509 0.9481078 0.1624109 0.69447 0.7009524 0.5410273 0.218042 0.8122482 0.488422 0.4730299 0.7332712 -0.3925312 0.1346307 0.9098318 -0.2122365 0.6037271 0.76842 -0.4844288 0.4730232 0.7359198 -0.08920371 -0.2212314 0.9711331 -0.2221306 -0.5852938 0.7798007 -0.4879808 -0.4708485 0.734967</float_array>
          <technique_common>
            <accessor source="#Cube_001-mesh-normals-array" count="171" stride="3">
              <param name="X" type="float"/>
              <param name="Y" type="float"/>
              <param name="Z" type="float"/>
            </accessor>
          </technique_common>
        </source>
        <vertices id="Cube_001-mesh-vertices">
          <input semantic="POSITION" source="#Cube_001-mesh-positions"/>
        </vertices>
        <polylist count="192">
          <input semantic="VERTEX" source="#Cube_001-mesh-vertices" offset="0"/>
          <input semantic="NORMAL" source="#Cube_001-mesh-normals" offset="1"/>
          <vcount>3 3 3 3 3 3 3 3 3 3 3 3 3 3 3 3 3 3 3 3 3 3 3 3 3 3 3 3 3 3 3 3 3 3 3 3 3 3 3 3 3 3 3 3 3 3 3 3 3 3 3 3 3 3 3 3 3 3 3 3 3 3 3 3 3 3 3 3 3 3 3 3 3 3 3 3 3 3 3 3 3 3 3 3 3 3 3 3 3 3 3 3 3 3 3 3 3 3 3 3 3 3 3 3 3 3 3 3 3 3 3 3 3 3 3 3 3 3 3 3 3 3 3 3 3 3 3 3 3 3 3 3 3 3 3 3 3 3 3 3 3 3 3 3 3 3 3 3 3 3 3 3 3 3 3 3 3 3 3 3 3 3 3 3 3 3 3 3 3 3 3 3 3 3 3 3 3 3 3 3 3 3 3 3 3 3 3 3 3 3 3 3 </vcount>
          <p>0 0 4 0 5 0 1 1 5 1 57 1 55 2 56 2 5 2 56 3 91 3 57 3 0 4 1 4 6 4 2 5 6 5 60 5 58 6 59 6 6 6 6 7 59 7 93 7 0 8 2 8 7 8 3 9 7 9 63 9 61 8 62 8 7 8 7 10 62 10 92 10 3 11 8 11 4 11 8 12 54 12 55 12 3 13 64 13 65 13 65 14 90 14 54 14 9 15 13 15 14 15 14 16 66 16 67 16 61 17 60 17 14 17 60 18 93 18 66 18 9 19 10 19 15 19 15 8 69 8 70 8 67 20 68 20 15 20 15 21 68 21 97 21 9 22 11 22 16 22 16 8 72 8 73 8 11 23 70 23 71 23 71 24 96 24 72 24 9 25 12 25 17 25 13 26 17 26 62 26 12 27 73 27 74 27 17 28 74 28 92 28 22 8 23 8 19 8 19 29 23 29 75 29 70 8 69 8 23 8 23 30 69 30 97 30 19 31 24 31 20 31 20 32 24 32 78 32 76 33 77 33 24 33 24 34 77 34 95 34 20 35 25 35 21 35 25 36 81 36 82 36 20 37 79 37 80 37 25 38 80 38 94 38 18 39 21 39 26 39 22 40 26 40 71 40 82 41 83 41 26 41 26 8 83 8 96 8 27 42 31 42 32 42 28 43 32 43 84 43 79 8 78 8 32 8 32 44 78 44 95 44 27 45 28 45 33 45 33 46 56 46 55 46 85 47 86 47 33 47 86 48 91 48 56 48 27 49 29 49 34 49 30 50 34 50 87 50 55 51 54 51 34 51 54 52 90 52 87 52 27 53 30 53 35 53 31 54 35 54 80 54 88 55 89 55 35 55 35 56 89 56 94 56 36 57 40 57 41 57 41 58 65 58 64 58 40 59 88 59 87 59 87 60 90 60 65 60 36 61 37 61 42 61 38 62 42 62 74 62 64 63 63 63 42 63 63 64 92 64 74 64 36 65 38 65 43 65 43 66 83 66 82 66 38 8 73 8 72 8 43 67 72 67 96 67 39 68 44 68 40 68 44 69 89 69 88 69 39 70 82 70 81 70 81 8 94 8 89 8 49 71 50 71 46 71 46 72 50 72 77 72 85 73 84 73 50 73 84 8 95 8 77 8 45 74 46 74 51 74 47 75 51 75 68 75 46 76 76 76 75 76 75 77 97 77 68 77 45 78 47 78 52 78 48 79 52 79 59 79 47 80 67 80 66 80 66 81 93 81 59 81 45 82 48 82 53 82 49 83 53 83 86 83 58 84 57 84 53 84 57 85 91 85 86 85 1 86 0 86 5 86 58 87 1 87 57 87 4 88 55 88 5 88 5 89 56 89 57 89 2 90 0 90 6 90 61 91 2 91 60 91 1 92 58 92 6 92 60 93 6 93 93 93 3 94 0 94 7 94 64 95 3 95 63 95 2 8 61 8 7 8 63 96 7 96 92 96 0 97 3 97 4 97 4 98 8 98 55 98 8 99 3 99 65 99 8 100 65 100 54 100 10 101 9 101 14 101 10 102 14 102 67 102 13 103 61 103 14 103 14 104 60 104 66 104 11 105 9 105 15 105 11 106 15 106 70 106 10 107 67 107 15 107 69 108 15 108 97 108 12 109 9 109 16 109 12 110 16 110 73 110 16 111 11 111 71 111 16 112 71 112 72 112 13 113 9 113 17 113 61 8 13 8 62 8 17 114 12 114 74 114 62 115 17 115 92 115 18 116 22 116 19 116 76 117 19 117 75 117 22 8 70 8 23 8 75 118 23 118 97 118 18 119 19 119 20 119 79 8 20 8 78 8 19 120 76 120 24 120 78 121 24 121 95 121 18 122 20 122 21 122 21 8 25 8 82 8 25 123 20 123 80 123 81 124 25 124 94 124 22 125 18 125 26 125 70 126 22 126 71 126 21 8 82 8 26 8 71 127 26 127 96 127 28 128 27 128 32 128 85 129 28 129 84 129 31 130 79 130 32 130 84 131 32 131 95 131 29 132 27 132 33 132 29 133 33 133 55 133 28 134 85 134 33 134 33 135 86 135 56 135 30 136 27 136 34 136 88 137 30 137 87 137 29 138 55 138 34 138 34 139 54 139 87 139 31 140 27 140 35 140 79 141 31 141 80 141 30 142 88 142 35 142 80 143 35 143 94 143 37 144 36 144 41 144 37 145 41 145 64 145 41 146 40 146 87 146 41 147 87 147 65 147 38 148 36 148 42 148 73 149 38 149 74 149 37 150 64 150 42 150 42 151 63 151 74 151 39 152 36 152 43 152 39 153 43 153 82 153 43 154 38 154 72 154 83 8 43 8 96 8 36 155 39 155 40 155 40 156 44 156 88 156 44 157 39 157 81 157 44 8 81 8 89 8 45 158 49 158 46 158 76 159 46 159 77 159 49 160 85 160 50 160 50 8 84 8 77 8 47 161 45 161 51 161 67 162 47 162 68 162 51 163 46 163 75 163 51 164 75 164 68 164 48 165 45 165 52 165 58 8 48 8 59 8 52 166 47 166 66 166 52 167 66 167 59 167 49 168 45 168 53 168 85 169 49 169 86 169 48 8 58 8 53 8 53 170 57 170 86 170</p>
        </polylist>
      </mesh>
    </geometry>
  </library_geometries>
  <library_controllers/>
  <library_visual_scenes>
    <visual_scene id="Scene" name="Scene">
      <node id="COL_VIZ_BTSegment_link_0" name="COL_VIZ_BTSegment_link_0" type="NODE">
        <instance_geometry url="#Cube_001-mesh" name="COL_VIZ_BTSegment_link_0"/>
      </node>
    </visual_scene>
  </library_visual_scenes>
  <scene>
    <instance_visual_scene url="#Scene"/>
  </scene>
</COLLADA>