<?xml version="1.0" encoding="utf-8"?>
<COLLADA xmlns="http://www.collada.org/2005/11/COLLADASchema" version="1.4.1">
  <asset>
    <contributor>
      <author>Blender User</author>
      <authoring_tool>Blender 2.76.0 commit date:2015-11-03, commit time:10:56, hash:f337fea</authoring_tool>
    </contributor>
    <created>2017-01-25T08:36:10</created>
    <modified>2017-01-25T08:36:10</modified>
    <unit name="meter" meter="1"/>
    <up_axis>Z_UP</up_axis>
  </asset>
  <library_images/>
  <library_geometries>
    <geometry id="Cube_037-mesh" name="Cube.037">
      <mesh>
        <source id="Cube_037-mesh-positions">
          <float_array id="Cube_037-mesh-positions-array" count="294">-27.71262 21.08902 0.9467726 -21.3755 14.88523 24.1344 -27.71262 21.59554 0.9467726 -27.71112 21.09042 -0.1381542 -23.30202 3.45929 20.1718 -21.7039 3.965809 20.1718 -23.2672 20.91733 19.25821 -26.113 21.09042 0.4728888 -26.113 21.09042 0.4728888 -26.113 23.11649 0.4728887 -2.553502 20.01044 41.1899 29.10684 20.94463 0.1834939 -26.113 23.11649 -0.7491973 -27.71112 23.11649 0.4728887 -14.38999 20.50704 35.69229 16.88447 20.30829 28.78524 28.30778 19.93159 -0.4275491 -26.113 21.09042 0.4728888 27.50871 18.91855 0.1834939 26.70674 15.92145 11.03944 29.10684 18.41203 0.1834939 27.50871 18.91855 0.1834939 29.10684 19.42507 0.1834939 25.48644 19.52707 15.32054 21.12534 2.599697 20.04624 27.50871 18.91855 0.1834939 29.10684 19.42507 -0.4275491 -0.02980732 -12.88285 15.0481 -0.1899068 -9.245236 29.79347 -16.14992 -9.100869 18.443 -0.02980732 -12.88285 15.0481 12.28681 -8.161857 18.2981 12.07451 -7.688498 19.5973 -12.38086 -7.757069 24.80884 -14.034 -7.427073 18.2618 7.660968 -12.40999 15.85676 -26.0935 21.08972 -1.971389 -26.89256 21.08972 -0.7493034 -26.0935 22.10276 -1.971389 28.30778 18.91855 -1.038592 27.50871 17.90551 -2.260678 -26.91206 20.5839 -0.7491974 -26.113 21.09042 0.4728888 28.30778 19.42507 -1.038592 27.50871 18.91855 0.1834939 -2.771962 14.07934 41.03509 7.307883 13.71334 39.01197 -2.553502 20.01044 41.1899 -13.84396 14.50773 38.31297 2.609279 2.927388 37.46699 3.408341 2.420869 38.68907 9.99754 19.52035 35.18639 -12.85019 20.43993 37.23219 -9.351875 3.41285 37.20999 -16.14992 -8.087831 17.83196 -14.5518 -7.074794 18.443 -18.78572 -4.229644 20.21874 -11.12719 3.488009 36.16489 -13.04489 14.50773 37.09089 -13.04489 14.50773 37.09089 -25.1309 21.01293 12.7332 -25.1309 21.01293 12.7332 -26.113 21.09042 0.4728888 -26.113 21.09042 0.4728888 -26.113 21.09042 0.4728888 -26.113 21.09042 0.4728888 -13.64926 21.45297 38.45427 -2.553502 21.02347 42.41198 6.787137 19.64204 37.9353 25.48644 20.03359 15.32054 27.50871 18.91855 0.1834939 27.50871 18.91855 0.1834939 27.50871 18.91855 0.1834939 -26.113 21.09042 0.4728888 -26.91206 22.10346 -0.7491974 16.08541 19.29526 28.1742 16.08541 19.29526 28.1742 21.28721 13.16996 19.7575 19.06744 1.358006 23.20034 13.00151 -7.722498 18.4379 29.10684 17.90551 -0.4275491 27.50871 18.91855 0.1834939 27.50871 18.91855 0.1834939 27.50871 18.91855 0.1834939 7.420207 2.742091 34.33419 2.609279 1.914351 38.68907 -10.15094 2.399813 38.43207 -14.83306 -8.44011 17.03971 -0.02980732 -12.88285 15.0481 27.50871 18.91855 0.1834939 -26.113 21.09042 0.4728888 -11.12719 3.488009 36.16489 -26.113 21.09042 0.4728888 -14.38999 20.50704 35.69229 27.50871 18.91855 0.1834939 17.46931 2.371044 22.5893 27.50871 18.91855 0.1834939 21.63431 19.09616 19.81801</float_array>
          <technique_common>
            <accessor source="#Cube_037-mesh-positions-array" count="98" stride="3">
              <param name="X" type="float"/>
              <param name="Y" type="float"/>
              <param name="Z" type="float"/>
            </accessor>
          </technique_common>
        </source>
        <source id="Cube_037-mesh-normals">
          <float_array id="Cube_037-mesh-normals-array" count="399">0.1083932 -0.3419967 0.9334287 -0.8241376 -0.1711459 0.5399134 -0.5424862 -0.3233772 -0.7753297 -0.8038181 -0.2832213 0.5231273 -0.9656617 -0.1141942 0.2333608 0 0 1 -0.8774305 -0.08673948 0.4717965 0.1592522 0.8950761 -0.4165065 0.2962982 0.9549315 -0.01769888 4.93127e-4 -0.9999991 -0.001288592 -0.8384195 -0.4601009 -0.2921643 0 0.9972664 0.07388973 0.2082375 0.9068468 -0.3664233 0.02430838 0.9977771 0.06204897 0.1965457 0.9747832 0.1056768 -0.1885579 0.7560717 -0.626739 0.3256998 -0.8986051 0.2939875 0.01544445 0.5074732 -0.8615291 -0.02428334 -0.5022292 -0.8643935 -0.5478107 -0.432101 -0.7163743 0.9712668 0.05332309 0.2319431 0.9911935 0 0.1324213 0.7594972 0 0.6505106 0.9433888 -0.3009113 0.139535 0.7442558 -0.6231842 0.24026 0.8496893 -0.002939164 0.5272756 0.5703943 0.01369851 0.8212569 0.8919413 -0.3481022 0.2885577 0.3021334 -0.9532657 0 -0.3021334 0.9532657 0 0.2468877 -0.8968203 0.3670966 0.5629321 -0.580303 0.5885202 0.5860409 -0.6471887 0.487548 -0.391175 -0.06329911 0.918137 -0.210771 -0.9496117 0.2319766 -0.6654908 -0.5457248 0.5092214 -0.03929954 -0.6167963 0.7861412 -0.930986 -0.2027675 0.3035629 -0.1778005 0.1190161 -0.9768429 -0.1251689 -0.7220746 0.6803978 -0.02545124 -0.4865874 0.8732612 -0.5319924 -0.5596779 -0.6354092 0.7061694 -0.6501659 -0.2803733 0.1209091 -0.5043438 -0.8549962 -0.0562117 -0.9086708 -0.4137122 -0.8426564 0.03260189 0.5374637 -0.2777675 -0.5833817 -0.7632242 -0.8349688 -0.01027148 0.5502014 -0.5109436 0.7956271 0.3254446 0.01714408 0 -0.9998531 0.8369672 0 0.547253 0.03945225 0.9230643 0.3826172 0.5053182 -0.7971746 0.3304032 -0.7614811 0.2458046 0.5997722 0.7656956 -0.1928871 0.6135998 0.4916806 -0.7756547 0.3957398 -0.6813482 0.4243797 -0.5963779 0.4140838 0.3591961 0.8363689 -0.04046052 -0.9991767 -0.003022611 0.0405181 0.9991741 0.003099143 -0.3591599 -0.01112943 0.9332097 -0.8362834 0.04047197 -0.5468018 -0.2493041 -0.7455706 0.6180389 -0.4289794 -0.8130932 0.3935178 -0.2412999 -0.1922615 0.951215 0.01611095 0.7645801 0.6443274 -0.8328391 -0.09917581 -0.5445579 -0.9580627 0.06472581 0.2791535 -0.8285479 -0.1884916 0.5272374 -0.001628875 0.005146622 0.9999855 -0.9717739 0 0.2359145 0.4581834 -0.8771615 -0.1437214 -0.8259307 0.1743744 0.536127 0.04048866 0.9991754 0.00307542 -0.9999991 0 -0.001381814 -0.1888903 -0.7449593 -0.6398096 -0.1712975 -0.296485 0.9395498 0.008898675 0.9974409 0.07093977 0.2493042 0.7455706 -0.6180388 -0.4869097 0.8380201 0.2462547 0.03947532 0.998456 0.03908276 0.7764023 -0.6124107 0.1488373 0.1029179 0.9773836 0.1847412 0.6540046 -0.6220494 0.4305027 0.05842363 0.9982919 0 -0.02553296 -0.5163285 -0.85601 0.7851486 -0.6193075 2.41927e-6 0 1 0 -0.7837868 -0.6182327 0.05887693 0.2937324 -0.9267632 -0.2341606 0.7473223 -0.3877519 0.5395905 -0.3012007 0.9503289 -0.07844328 -0.495005 0.7962984 -0.3476766 0.2905251 0.9166405 0.2745276 0.7877895 -0.5954717 -0.1574835 0.8490741 0.001427173 0.528272 0.3090363 0.7988288 0.5161097 0.2370557 0.7479354 -0.6199979 0.309103 -0.9225608 0.2309478 0.5967528 -0.5863484 0.5477972 0.4328677 -0.8219341 0.3702026 0.6437419 -0.5138814 0.5670295 -0.1593739 -0.9426284 0.2933459 -0.2587959 0.2041324 -0.9441158 -0.3334729 -0.7288456 0.5979799 -0.6697717 -0.4893554 0.5585134 -0.2187223 0.1725228 -0.9604147 0.1334188 -0.8041068 0.5793201 -0.06695216 -0.4413453 0.8948362 0.3063127 -0.7026404 0.6422375 -0.440601 -0.1625485 -0.8828641 -0.8365346 0.03214073 -0.5469707 -0.04716527 -0.4571204 -0.8881534 -0.8369661 0 -0.5472548 0.01714426 0 -0.9998531 0.03806883 0.9140788 0.4037458 0.04136854 0.7557644 -0.6535356 0.786493 -0.570536 0.2364692 0.1844648 -0.2176441 0.9584382 0.8111508 -0.2945558 0.505244 -0.4385797 0.6918864 0.5735338 0.7497593 -0.09328615 0.6551021 0.1955344 -0.03278559 0.9801487 0.1885579 -0.7560716 0.6267389 0.7539575 0.08031272 0.6519954 0.04056429 0.9991721 0.003135263 -0.2256576 0.2110763 0.9510655 -0.2356404 -0.8183099 0.5242545 -0.7069777 0.006358444 0.7072073 -0.03330206 -0.3191075 0.9471333 0.01753222 0.7697628 0.6380892 -0.4955232 -0.2822881 0.821444 -0.263962 0.820295 0.5073857</float_array>
          <technique_common>
            <accessor source="#Cube_037-mesh-normals-array" count="133" stride="3">
              <param name="X" type="float"/>
              <param name="Y" type="float"/>
              <param name="Z" type="float"/>
            </accessor>
          </technique_common>
        </source>
        <vertices id="Cube_037-mesh-vertices">
          <input semantic="POSITION" source="#Cube_037-mesh-positions"/>
        </vertices>
        <polylist count="192">
          <input semantic="VERTEX" source="#Cube_037-mesh-vertices" offset="0"/>
          <input semantic="NORMAL" source="#Cube_037-mesh-normals" offset="1"/>
          <vcount>3 3 3 3 3 3 3 3 3 3 3 3 3 3 3 3 3 3 3 3 3 3 3 3 3 3 3 3 3 3 3 3 3 3 3 3 3 3 3 3 3 3 3 3 3 3 3 3 3 3 3 3 3 3 3 3 3 3 3 3 3 3 3 3 3 3 3 3 3 3 3 3 3 3 3 3 3 3 3 3 3 3 3 3 3 3 3 3 3 3 3 3 3 3 3 3 3 3 3 3 3 3 3 3 3 3 3 3 3 3 3 3 3 3 3 3 3 3 3 3 3 3 3 3 3 3 3 3 3 3 3 3 3 3 3 3 3 3 3 3 3 3 3 3 3 3 3 3 3 3 3 3 3 3 3 3 3 3 3 3 3 3 3 3 3 3 3 3 3 3 3 3 3 3 3 3 3 3 3 3 3 3 3 3 3 3 3 3 3 3 3 3 </vcount>
          <p>4 0 5 0 1 0 1 1 5 1 57 1 4 2 55 2 56 2 5 3 56 3 91 3 0 4 1 4 6 4 6 5 60 5 61 5 1 5 58 5 59 5 6 6 59 6 93 6 2 7 7 7 3 7 7 5 63 5 64 5 2 8 61 8 62 8 62 5 92 5 63 5 0 9 3 9 8 9 4 10 8 10 54 10 64 5 65 5 8 5 8 5 65 5 90 5 9 11 13 11 14 11 10 12 14 12 66 12 13 5 61 5 60 5 14 5 60 5 93 5 9 13 10 13 15 13 11 14 15 14 69 14 10 15 67 15 68 15 15 16 68 16 97 16 9 17 11 17 16 17 12 18 16 18 72 18 70 5 71 5 16 5 71 5 96 5 72 5 12 19 17 19 13 19 13 5 17 5 62 5 73 5 74 5 17 5 17 5 74 5 92 5 22 20 23 20 19 20 23 5 75 5 76 5 70 21 69 21 23 21 23 22 69 22 97 22 19 23 24 23 20 23 24 24 78 24 79 24 19 25 76 25 77 25 24 26 77 26 95 26 18 5 20 5 25 5 25 5 81 5 82 5 20 27 79 27 80 27 25 5 80 5 94 5 21 28 26 28 22 28 22 29 26 29 71 29 21 5 82 5 83 5 83 5 96 5 71 5 27 30 31 30 32 30 28 31 32 31 84 31 79 32 78 32 32 32 32 33 78 33 95 33 27 34 28 34 33 34 29 35 33 35 56 35 28 36 85 36 86 36 33 37 86 37 91 37 27 38 29 38 34 38 34 39 87 39 88 39 55 40 54 40 34 40 54 41 90 41 87 41 27 5 30 5 35 5 35 42 80 42 79 42 88 43 89 43 35 43 89 5 94 5 80 5 36 44 40 44 41 44 37 45 41 45 65 45 88 46 87 46 41 46 41 47 87 47 90 47 37 48 42 48 38 48 42 5 74 5 73 5 64 5 63 5 42 5 42 5 63 5 92 5 36 49 38 49 43 49 39 50 43 50 83 50 38 51 73 51 72 51 72 5 96 5 83 5 39 52 44 52 40 52 40 5 44 5 89 5 82 5 81 5 44 5 81 5 94 5 89 5 49 53 50 53 46 53 50 54 77 54 76 54 85 55 84 55 50 55 50 56 84 56 95 56 46 57 51 57 47 57 47 58 51 58 68 58 76 5 75 5 51 5 75 59 97 59 68 59 45 60 47 60 52 60 48 61 52 61 59 61 47 62 67 62 66 62 52 63 66 63 93 63 45 64 48 64 53 64 53 65 86 65 85 65 48 66 58 66 57 66 53 5 57 5 91 5 0 67 4 67 1 67 58 68 1 68 57 68 5 69 4 69 56 69 57 5 5 5 91 5 2 70 0 70 6 70 2 71 6 71 61 71 6 72 1 72 59 72 60 73 6 73 93 73 0 74 2 74 3 74 3 5 7 5 64 5 7 5 2 5 62 5 7 5 62 5 63 5 4 75 0 75 8 75 55 76 4 76 54 76 3 5 64 5 8 5 54 5 8 5 90 5 10 77 9 77 14 77 67 78 10 78 66 78 14 79 13 79 60 79 66 5 14 5 93 5 11 80 9 80 15 80 70 81 11 81 69 81 15 82 10 82 68 82 69 83 15 83 97 83 12 84 9 84 16 84 73 85 12 85 72 85 11 86 70 86 16 86 16 5 71 5 72 5 9 87 12 87 13 87 61 88 13 88 62 88 12 5 73 5 17 5 62 5 17 5 92 5 18 89 22 89 19 89 19 90 23 90 76 90 22 91 70 91 23 91 75 92 23 92 97 92 18 93 19 93 20 93 20 94 24 94 79 94 24 95 19 95 77 95 78 96 24 96 95 96 21 5 18 5 25 5 21 5 25 5 82 5 25 97 20 97 80 97 81 5 25 5 94 5 18 5 21 5 22 5 70 5 22 5 71 5 26 5 21 5 83 5 26 5 83 5 71 5 28 98 27 98 32 98 85 99 28 99 84 99 31 100 79 100 32 100 84 101 32 101 95 101 29 102 27 102 33 102 55 103 29 103 56 103 33 104 28 104 86 104 56 105 33 105 91 105 30 5 27 5 34 5 30 5 34 5 88 5 29 106 55 106 34 106 34 107 54 107 87 107 31 108 27 108 35 108 31 109 35 109 79 109 30 5 88 5 35 5 35 110 89 110 80 110 37 111 36 111 41 111 64 5 37 5 65 5 40 112 88 112 41 112 65 5 41 5 90 5 36 113 37 113 38 113 38 5 42 5 73 5 37 5 64 5 42 5 74 5 42 5 92 5 39 114 36 114 43 114 82 5 39 5 83 5 43 115 38 115 72 115 43 5 72 5 83 5 36 116 39 116 40 116 88 117 40 117 89 117 39 5 82 5 44 5 44 5 81 5 89 5 45 118 49 118 46 118 46 119 50 119 76 119 49 120 85 120 50 120 77 121 50 121 95 121 45 122 46 122 47 122 67 123 47 123 68 123 46 124 76 124 51 124 51 125 75 125 68 125 48 126 45 126 52 126 58 5 48 5 59 5 52 127 47 127 66 127 59 128 52 128 93 128 49 129 45 129 53 129 49 130 53 130 85 130 53 131 48 131 57 131 86 132 53 132 91 132</p>
        </polylist>
      </mesh>
    </geometry>
  </library_geometries>
  <library_controllers/>
  <library_visual_scenes>
    <visual_scene id="Scene" name="Scene">
      <node id="COL_VIZ_RFx_link_0" name="COL_VIZ_RFx_link_0" type="NODE">
        <instance_geometry url="#Cube_037-mesh" name="COL_VIZ_RFx_link_0"/>
      </node>
    </visual_scene>
  </library_visual_scenes>
  <scene>
    <instance_visual_scene url="#Scene"/>
  </scene>
</COLLADA>