<?xml version="1.0" encoding="utf-8"?>
<COLLADA xmlns="http://www.collada.org/2005/11/COLLADASchema" version="1.4.1">
  <asset>
    <contributor>
      <author>Blender User</author>
      <authoring_tool>Blender 2.76.0 commit date:2015-10-09, commit time:12:01, hash:a3cf9c5</authoring_tool>
    </contributor>
    <created>2015-10-22T16:23:45</created>
    <modified>2015-10-22T16:23:45</modified>
    <unit name="meter" meter="1"/>
    <up_axis>Z_UP</up_axis>
  </asset>
  <library_images/>
  <library_effects>
    <effect id="Tripott-effect">
      <profile_COMMON>
        <technique sid="common">
          <phong>
            <emission>
              <color sid="emission">0 0 0 1</color>
            </emission>
            <ambient>
              <color sid="ambient">0 0 0 1</color>
            </ambient>
            <diffuse>
              <color sid="diffuse">0.08522785 0.08522785 0.08522785 1</color>
            </diffuse>
            <specular>
              <color sid="specular">0.5 0.5 0.5 1</color>
            </specular>
            <shininess>
              <float sid="shininess">50</float>
            </shininess>
            <index_of_refraction>
              <float sid="index_of_refraction">1</float>
            </index_of_refraction>
          </phong>
        </technique>
      </profile_COMMON>
    </effect>
  </library_effects>
  <library_materials>
    <material id="Tripott-material" name="Tripott">
      <instance_effect url="#Tripott-effect"/>
    </material>
  </library_materials>
  <library_geometries>
    <geometry id="Cylinder_011-mesh" name="Cylinder.011">
      <mesh>
        <source id="Cylinder_011-mesh-positions">
          <float_array id="Cylinder_011-mesh-positions-array" count="1344">0.1913417 0.9619398 0 0.5448951 0.8154932 0 0.8154931 0.5448951 0 0.9619398 0.1913416 0 0.9619398 -0.1913418 0 0.8154932 -0.5448952 0 0.5448951 -0.8154931 0 0.1913418 -0.9619398 0 -0.1913415 -0.9619398 0 -0.5448949 -0.8154934 0 -0.8154931 -0.5448953 0 -0.9619398 -0.1913418 0 -0.9619397 0.1913418 0 -0.815493 0.5448953 0 0.901323 -0.181507 1 -0.1913415 0.9619399 0 -0.5448948 0.8154934 0 0.3269085 0.8827688 -1 -0.4762215 0.7316624 0 -0.7127162 0.4888812 0 -0.7641046 0.5168883 1 0.1792843 0.9124971 1 -0.5105583 -0.7735779 -1 -0.5105583 -0.7735778 1 0.8045789 -0.5389469 -1 -0.5105581 0.7735779 -1 0.7641047 -0.5168882 1 -0.5105581 0.7735779 1 0.5105585 0.7735777 -1 -0.7243667 -0.4952308 -1 0.5105585 0.7735776 1 -0.7641046 -0.5168883 1 0.5105585 -0.7735776 -1 -0.179284 0.9124972 -1 0.5105585 -0.7735777 1 -0.179284 0.9124972 1 0.7641047 0.5168881 -1 -0.901323 -0.181507 -1 0.7641047 0.5168881 1 -0.901323 -0.181507 1 0.1792843 -0.9124971 -1 0.1792843 -0.9124971 1 0.901323 0.1815069 -1 -0.901323 0.181507 -1 0.901323 0.1815069 1 -0.901323 0.181507 1 -0.1792841 -0.9124972 -1 -0.1792841 -0.9124971 1 0.901323 -0.181507 -1 -0.7641046 0.5168883 -1 -0.1672266 0.8630545 0 0.1672269 0.8630544 0 0.4762219 0.7316622 0 0.7127164 0.4888811 0 0.8407062 0.1716722 0 0.8407062 -0.1716722 0 0.7127164 -0.4888811 0 0.4762219 -0.7316622 0 0.1672269 -0.8630544 0 -0.1672267 -0.8630544 0 -0.4762216 -0.7316623 0 -0.7127162 -0.4888812 0 -0.8407062 -0.1716722 0 -0.8407062 0.1716722 0 -0.8196124 -0.4327852 -11.41865 -0.6855725 -0.6358769 -1 -0.8426368 -0.3978996 -1 -0.8038426 -0.5385457 -1 0.7936647 -0.5329986 -11.41865 0.1693561 0.8717856 -1 0.03166013 0.9422254 -1 0.1892125 0.9532086 -1 0.1714853 0.8805168 -11.41865 0.8440919 -0.3956947 -1 0.7236306 -0.4948294 -1 0.6841176 -0.6380815 -1 0.3611049 1.149109 -28.27947 0.9300045 -0.6341245 -28.50986 -0.9334491 -0.7650349 -28.57843 0.2952483 0.8891444 -11.41865 0.7345448 -0.5007777 -11.41865 -0.792192 -0.5321961 -11.41865 0.06332027 0.9358497 -11.41865 0.7056868 -0.6054007 -11.41865 -0.7360172 -0.5015804 -11.41865 0.1870832 0.9444774 -11.41865 0.8225227 -0.4283756 -11.41865 -0.7085968 -0.6009913 -11.41865 -1.018658 -0.6641024 -28.9547 0.2162137 1.206925 -28.9547 0.9817283 -0.6641023 -28.9547 -1.076952 -0.547605 -28.57843 0.8927873 -0.7690529 -28.50986 -1.041507 -0.6761075 -28.57843 0.06431555 1.208876 -28.27947 0.2226902 1.219917 -28.27947 1.043466 -0.54075 -28.50986 -0.9688938 -0.6365325 -28.57843 1.006249 -0.6756784 -28.50986 0.2027302 1.138069 -28.27947 -0.8459565 -0.5652902 -25.01973 -0.9098919 -0.6001355 -25.01973 -0.9411004 -0.4869908 -25.01973 -0.8147478 -0.678435 -25.01973 0.8928709 -0.5995825 -24.95116 0.9256297 -0.480817 -24.95116 0.7930004 -0.6817717 -24.95116 0.8257592 -0.5630062 -24.95116 0.1854703 0.9957953 -24.72076 0.2030206 1.067762 -24.72076 0.06376576 1.058055 -24.72076 0.3247253 1.005503 -24.72076 0.1908094 0.959757 -0.75 0.1883273 0.9495791 0.75 0 0.9809699 0 0.375401 0.906298 0 0.5363109 0.8050143 -0.75 0.5363109 0.8050143 0.75 0.6936504 0.6936505 0 0.8026461 0.5378934 -0.75 0.8026461 0.5378934 0.75 0.906298 0.3754009 0 0.9467856 0.188883 -0.75 0.9467856 0.188883 0.75 0.9809699 0 0 0.9467856 -0.1888831 -0.75 0.9467856 -0.1888831 0.75 0.906298 -0.375401 0 0.8127645 -0.5434081 -0.75 0.8026461 -0.5378934 0.75 0.6936505 -0.6936505 0 0.5363109 -0.8050143 -0.75 0.5363109 -0.8050143 0.75 0.375401 -0.906298 0 0.1883274 -0.9495791 -0.75 0.1883274 -0.9495791 0.75 1.49012e-7 -0.9809699 0 -0.1883271 -0.9495791 -0.75 -0.1883271 -0.9495791 0.75 -0.3754007 -0.9062981 0 -0.5363108 -0.8050145 -0.75 -0.5363108 -0.8050145 0.75 -0.6936503 -0.6936506 0 -0.8125805 -0.5433079 -0.75 -0.802646 -0.5378935 0.75 -0.906298 -0.375401 0 -0.9467856 -0.1888831 -0.75 -0.9467856 -0.1888831 0.75 -0.9809699 0 0 -0.9467855 0.1888831 -0.75 -0.9467855 0.1888831 0.75 -0.9062979 0.3754011 0 -0.8026459 0.5378935 -0.75 -0.8026459 0.5378935 0.75 -0.6936502 0.6936507 0 -0.5363106 0.8050145 -0.75 -0.5363106 0.8050145 0.75 -0.3754006 0.9062982 0 -0.1883271 0.9495792 -0.75 -0.1883271 0.9495792 0.75 0.1677592 0.8652372 -0.75 0.1702412 0.8754151 0.75 0.484806 0.742141 -0.75 0.484806 0.742141 0.75 0.7255635 0.4958828 -0.75 0.7255635 0.4958828 0.75 0.8558605 0.1741309 -0.75 0.8558605 0.1741309 0.75 0.8558605 -0.1741309 -0.75 0.8558605 -0.1741309 0.75 0.7154449 -0.4903682 -0.75 0.7255635 -0.4958829 0.75 0.484806 -0.7421411 -0.75 0.484806 -0.7421411 0.75 0.1702413 -0.8754151 -0.75 0.1702413 -0.8754151 0.75 -0.170241 -0.8754151 -0.75 -0.170241 -0.8754151 0.75 -0.4848058 -0.7421412 -0.75 -0.4848058 -0.7421412 0.75 -0.7156289 -0.4904686 -0.75 -0.7255633 -0.4958829 0.75 -0.8558605 -0.1741309 -0.75 -0.8558605 -0.1741309 0.75 -0.8558605 0.1741309 -0.75 -0.8558605 0.1741309 0.75 -0.7255634 0.495883 -0.75 -0.7255634 0.495883 0.75 -0.4848057 0.7421413 -0.75 -0.4848057 0.7421413 0.75 -0.1702409 0.8754152 -0.75 -0.1702409 0.8754152 0.75 0.388651 0.8522831 -1 -0.03690594 0.9379812 -1 0.919154 0 1 0.8491875 -0.3561058 1 -0.8491874 0.3561058 1 -0.6499398 0.6579977 1 0 0.930549 1 0.351745 0.8597152 1 -0.6303068 -0.6877449 -1 -0.3517448 -0.8597154 -1 -0.3517448 -0.8597154 1 -0.6499398 -0.6579977 1 0.6299432 -0.6882959 -1 0.8691843 -0.3258074 -1 -0.3517446 0.8597155 -1 -0.6499398 0.6579977 -1 0.64994 -0.6579976 1 -0.3517446 0.8597155 1 0.64994 0.6579976 -1 -0.8688205 -0.3263587 -1 0.64994 0.6579976 1 -0.8491875 -0.3561058 1 0.351745 -0.8597152 -1 0.351745 -0.8597152 1 0.8491875 0.3561057 -1 -0.9191539 0 -1 0.8491876 0.3561057 1 -0.9191539 0 1 1.41561e-7 -0.930549 -1 1.45286e-7 -0.930549 1 0.919154 0 -1 -0.8491874 0.3561059 -1 -0.792077 0.3368106 0 -0.6062293 0.6223449 0 -0.3280887 0.8131327 0 0 0.8801283 0 0.3280891 0.8131325 0 0.6062296 0.6223447 0 0.7920771 0.3368105 0 0.857338 0 0 0.792077 -0.3368106 0 0.6062296 -0.6223447 0 0.3280891 -0.8131325 0 1.41561e-7 -0.8801283 0 -0.3280888 -0.8131325 0 -0.6062293 -0.6223448 0 -0.792077 -0.3368106 0 -0.857338 0 0 -0.7951046 -0.5337834 -3.604662 -0.7331046 -0.499993 -3.604662 -0.7028407 -0.6097127 -3.604662 -0.8253685 -0.4240638 -3.604662 -0.6780429 -0.586663 -1 -0.7905595 -0.4146273 -1 -0.7323682 -0.6255964 -1 -0.8554479 -0.4406662 -1 0.1876155 0.9466603 -3.604662 0.170953 0.878334 -3.604662 0.3031634 0.8875505 -3.604662 0.05540519 0.9374436 -3.604662 0.2775922 0.8604726 -1 0.3024126 0.9199291 -1 0.06608414 0.9034543 -1 0.0710482 0.9661324 -1 0.7963932 -0.5344856 -3.604662 0.7318162 -0.4992907 -3.604662 0.7002944 -0.6135709 -3.604662 0.827915 -0.4202054 -3.604662 0.7317803 -0.6276106 -1 0.8571404 -0.4392538 -1 0.7910497 -0.4127324 -1 0.6764484 -0.5879558 -1 -0.821617 -0.5491809 -20.02824 -0.763502 -0.5175079 -20.02824 -0.7351346 -0.6203523 -20.02824 -0.8499844 -0.4463366 -20.02824 0.1910676 0.9752987 -19.9535 0.1749816 0.9093364 -19.9535 0.3026176 0.9182341 -19.9535 0.06343162 0.966401 -19.9535 0.8184663 -0.5496445 -20.0111 0.7573484 -0.5163348 -20.0111 0.7275152 -0.6244934 -20.0111 0.8482995 -0.4414859 -20.0111 0.09036153 0.9053936 -11.41865 0.2565087 0.87163 -11.41865 0.7404968 -0.5977534 -11.41865 0.8320526 -0.4601885 -11.41865 -0.7828034 -0.4446086 -11.41865 -0.8286675 -0.4630133 -11.41865 0.276006 0.9183352 -11.41865 0.7837838 -0.4408189 -11.41865 0.7000857 -0.5687918 -11.41865 -0.7416728 -0.5937249 -11.41865 0.09426099 0.9546296 -11.41865 -0.7032747 -0.5662062 -11.41865 -1.042753 -0.6771225 -28.86063 -0.9878338 -0.6471912 -28.86063 -0.9610264 -0.7443799 -28.86063 -1.06956 -0.5799338 -28.86063 0.2229371 1.231104 -28.78589 0.2077385 1.168781 -28.78589 0.3283334 1.177187 -28.78589 0.1023423 1.222697 -28.78589 1.007205 -0.6775404 -28.84349 0.9494507 -0.6460638 -28.84349 0.9212593 -0.7482703 -28.84349 1.035397 -0.575334 -28.84349 -0.9762044 -0.7556421 -28.57843 -0.8086906 -0.6388441 -25.01973 0.9935063 -0.5567978 -28.50986 0.7866421 -0.6402142 -24.95116 0.3115313 1.126697 -28.27947 0.3030743 1.038348 -24.72076 -1.029371 -0.5628885 -28.57843 -0.9514065 -0.5213949 -25.01973 0.832516 -0.6730906 -24.95116 0.1039092 1.232908 -28.27947 0.0941919 1.023786 -24.72076 1.055757 -0.5817781 -28.50986 -0.8523933 -0.6701647 -25.01973 -0.9265696 -0.7200703 -28.57843 -0.8992061 -0.5004476 -25.01973 -1.088657 -0.5866791 -28.57843 -0.9316603 -0.6149557 -27.50063 -1.001646 -0.6530982 -27.50063 -1.035807 -0.5292471 -27.50063 -0.8974986 -0.7388069 -27.50063 0.8816542 -0.4949424 -24.95116 0.8855639 -0.7218397 -28.50986 0.9376807 -0.7591903 -28.50986 0.9364479 -0.5169304 -24.95116 0.9708185 -0.6518985 -27.39776 1.006642 -0.522021 -27.39776 0.8616039 -0.7417775 -27.39776 0.8974278 -0.6119 -27.39776 0.2811363 0.9857962 -24.72076 0.3364812 1.186464 -28.27947 0.09857946 1.079185 -24.72076 0.09891921 1.169903 -28.27947 0.1967778 1.089003 -27.05218 0.2159067 1.167443 -27.05218 0.06412595 1.156862 -27.05218 0.3485586 1.099584 -27.05218 0.004196345 0.9778347 -0.84 0 0.9683647 0.75 0.3695303 0.9049973 -0.84 0.3694869 0.8946523 0.75 0.6827228 0.6847373 -0.75 0.6827228 0.6847373 0.75 0.8920204 0.3705771 -0.75 0.8920204 0.3705771 0.75 0.9655159 0 -0.75 0.9655159 0 0.75 0.8992024 -0.3786185 -0.84 0.8920204 -0.3705772 0.75 0.6931689 -0.6876797 -0.84 0.6827229 -0.6847373 0.75 0.369487 -0.8946523 -0.75 0.369487 -0.8946523 0.75 1.46196e-7 -0.9683647 -0.75 1.47127e-7 -0.9683647 0.75 -0.3694868 -0.8946524 -0.75 -0.3694868 -0.8946524 0.75 -0.6932629 -0.6873576 -0.84 -0.6827227 -0.6847375 0.75 -0.8989315 -0.3788446 -0.84 -0.8920204 -0.3705772 0.75 -0.9655159 0 -0.75 -0.9655159 0 0.75 -0.8920203 0.3705773 -0.75 -0.8920203 0.3705773 0.75 -0.6827226 0.6847375 -0.75 -0.6827226 0.6847375 0.75 -0.3694866 0.8946525 -0.75 -0.3694866 0.8946525 0.75 0.003402113 0.8947308 -0.84 0.3312742 0.8279714 -0.84 0.334003 0.8247781 0.75 0 0.8927335 0.75 0.6171572 0.6312579 -0.75 0.6171572 0.6312579 0.75 0.8063547 0.3416343 -0.75 0.8063547 0.3416343 0.75 0.872792 0 -0.75 0.872792 0 0.75 0.805857 -0.3464103 -0.84 0.8063547 -0.3416344 0.75 0.6209657 -0.6296627 -0.84 0.6171572 -0.6312579 0.75 0.3340031 -0.8247781 -0.75 0.3340031 -0.8247781 0.75 1.42807e-7 -0.8927335 -0.75 1.43738e-7 -0.8927335 0.75 -0.3340028 -0.8247783 -0.75 -0.3340028 -0.8247783 0.75 -0.6212207 -0.6294561 -0.84 -0.6171569 -0.631258 0.75 -0.8057786 -0.3467136 -0.84 -0.8063547 -0.3416344 0.75 -0.872792 0 -0.75 -0.872792 0 0.75 -0.8063546 0.3416345 -0.75 -0.8063546 0.3416345 0.75 -0.6171569 0.6312581 -0.75 -0.6171569 0.6312581 0.75 -0.3340027 0.8247784 -0.75 -0.3340027 0.8247784 0.75 -0.7393466 -0.6016928 -3.604662 -0.8353626 -0.4574266 -3.604662 -0.6969668 -0.5713204 -3.604662 -0.7847424 -0.4371133 -3.604662 0.08845782 0.9575052 -3.604662 0.2826077 0.9187337 -3.604662 0.08429217 0.9049088 -3.604662 0.2617796 0.8688407 -3.604662 0.8383246 -0.4549548 -3.604662 0.7383177 -0.6052176 -3.604662 0.7856003 -0.4337972 -3.604662 0.6941764 -0.5735828 -3.604662 -0.7693529 -0.6128349 -20.02824 -0.8593522 -0.4776087 -20.02824 -0.7296288 -0.5843657 -20.02824 -0.8119041 -0.4585683 -20.02824 0.0953406 0.9857684 -19.9535 0.2827731 0.9483383 -19.9535 0.09131914 0.9349918 -19.9535 0.2626656 0.9001716 -19.9535 0.8581514 -0.474374 -20.0111 0.7635017 -0.6165876 -20.0111 0.8082514 -0.4543498 -20.0111 0.7217248 -0.5866473 -20.0111 -0.9918134 -0.7337037 -28.78747 -1.074085 -0.6096808 -28.78747 -0.9534132 -0.7089884 -28.78747 -1.031395 -0.5902016 -28.78747 0.1348372 1.234569 -28.65459 0.3056665 1.200341 -28.65459 0.1280823 1.187961 -28.65459 0.2900405 1.155173 -28.65459 1.040221 -0.6064532 -28.75699 0.9537573 -0.7367967 -28.75699 0.9953573 -0.5859784 -28.75699 0.9133973 -0.710824 -28.75699 -0.9387063 -0.729754 -27.50063 -0.8908681 -0.6954697 -27.50063 -0.9899489 -0.5439773 -27.50063 -1.047089 -0.5669068 -27.50063 0.9585525 -0.537468 -27.39776 0.8546508 -0.6963317 -27.39776 0.9048167 -0.7322842 -27.39776 1.018473 -0.5615132 -27.39776 0.3010489 1.078104 -27.05218 0.3249602 1.135383 -27.05218 0.1020711 1.179894 -27.05218 0.0972889 1.119512 -27.05218</float_array>
          <technique_common>
            <accessor source="#Cylinder_011-mesh-positions-array" count="448" stride="3">
              <param name="X" type="float"/>
              <param name="Y" type="float"/>
              <param name="Z" type="float"/>
            </accessor>
          </technique_common>
        </source>
        <source id="Cylinder_011-mesh-normals">
          <float_array id="Cylinder_011-mesh-normals-array" count="1338">0.1953837 0.9807029 0.006866812 0.1955038 0.9806322 -0.01178026 -0.05804777 0.9948997 -0.08249372 -0.006744742 0.9999646 0.005035638 0 0.9965333 0.08319449 0.1953841 0.9771343 0.08386683 0.3829852 0.9197565 0.08585041 0.3895523 0.9209902 0.005096733 0.4375503 0.8949685 -0.08707058 0.5616455 0.8273764 0.001648008 0.5778435 0.812167 -0.08050864 0.5553801 0.8268443 0.08877903 0.705937 0.7022442 0.09222865 0.7077016 0.7065114 0 0.705937 0.7022442 -0.09222865 0.8318954 0.5549326 0 0.8289932 0.5510243 -0.09561663 0.8289932 0.5510243 0.09561663 0.9200928 0.3791095 0.09851592 0.9241102 0.3821263 0 0.9200928 0.3791095 -0.09851592 0.9808486 0.194772 0 0.9760205 0.1931227 -0.1004372 0.9760205 0.1931227 0.1004372 0.9948755 0 0.1011081 1 0 0 0.9948755 0 -0.1011081 0.9821332 -0.1881803 0.001678526 0.9819014 -0.1656899 -0.09174138 0.9760205 -0.1931227 0.1004372 0.9200928 -0.3791095 0.09851592 0.926953 -0.3751393 0.005371332 0.9420124 -0.3184701 -0.1057803 0.8318498 -0.554953 0.007293939 0.8319488 -0.5545613 -0.01797568 0.8289932 -0.5510243 0.09561663 0.705937 -0.7022442 0.09222865 0.702535 -0.7116299 0.005249381 0.6619723 -0.7434904 -0.09494674 0.5508623 -0.8345946 0.001648008 0.5329535 -0.8423551 -0.07999032 0.5553801 -0.8268443 0.08877903 0.3829852 -0.9197565 0.08585041 0.3832259 -0.9236547 0 0.3829852 -0.9197565 -0.08585041 0.1953824 -0.9807271 0 0.1953841 -0.9771343 -0.08386683 0.1953841 -0.9771343 0.08386683 0 -0.9965333 0.08319449 0 -1 0 0 -0.9965333 -0.08319449 -0.1953824 -0.9807271 0 -0.1953841 -0.9771343 -0.08386683 -0.1953841 -0.9771343 0.08386683 -0.3829852 -0.9197565 0.08585041 -0.3832259 -0.9236547 0 -0.3829852 -0.9197565 -0.08585041 -0.5509682 -0.8345247 0.001617491 -0.533264 -0.8421499 -0.08008265 -0.5553801 -0.8268443 0.08877903 -0.705937 -0.7022442 0.09222865 -0.7026428 -0.7115239 0.005188226 -0.6629644 -0.7424054 -0.09650111 -0.8318504 -0.5549535 0.007202386 -0.8319211 -0.5545632 -0.01916599 -0.8289932 -0.5510243 0.09561663 -0.9200928 -0.3791095 0.09851592 -0.926881 -0.3753179 0.005310237 -0.9413709 -0.3198433 -0.1073367 -0.9821096 -0.1883038 0.001648008 -0.9818314 -0.1660546 -0.0918321 -0.9760205 -0.1931227 0.1004372 -0.9948755 0 0.1011081 -1 0 0 -0.9948755 0 -0.1011081 -0.9808486 0.194772 0 -0.9760205 0.1931227 -0.1004372 -0.9760205 0.1931227 0.1004372 -0.9200928 0.3791095 0.09851592 -0.9241102 0.3821263 0 -0.9200928 0.3791095 -0.09851592 -0.8318954 0.5549326 0 -0.8289932 0.5510243 -0.09561663 -0.8289932 0.5510243 0.09561663 -0.705937 0.7022442 0.09222865 -0.7077016 0.7065114 0 -0.705937 0.7022442 -0.09222865 0.05740606 -0.01834183 0.9981825 0.05169928 -0.03540211 0.9980351 0.06094563 0 0.9981411 -0.9947724 0 0.1021171 -0.9764472 0.1904369 0.1014137 -0.9218974 0.3744416 0.09949296 -0.2016707 0.9794521 0.001617491 -0.2214161 0.9722473 -0.07556527 -0.3829852 0.9197565 -0.08585041 -0.3832259 0.9236547 0 -0.3829852 0.9197565 0.08585041 -0.1953841 0.9771343 0.08386683 -0.5562136 0.8310395 0 -0.5553801 0.8268443 -0.08877903 -0.5553801 0.8268443 0.08877903 0.9020111 -0.1922984 -0.3865195 0.5052137 0.8603953 -0.06692844 0.523103 -0.1694439 -0.8352557 -0.3212735 -0.9395885 -0.118139 0.00238049 -0.9955638 -0.09405988 0.1591255 -0.9872557 -0.002288877 0.960532 -0.2781218 -0.005157709 0.5942988 0.8042399 -0.002685666 0.564696 -0.8252991 0 0.7154347 -0.6986797 0 0.7108852 -0.697121 -0.09308373 0.5608442 -0.8230618 -0.08957266 0.3876491 -0.9177291 -0.08661216 0.3904652 -0.9206177 0 0.3876491 -0.9177291 0.08661216 0.5608442 -0.8230618 0.08957266 0.7108852 -0.697121 0.09308373 0.8374892 -0.546454 0 0.927028 -0.3749923 0 0.9218974 -0.3744416 -0.09949296 0.832547 -0.5454787 -0.09653377 0.832547 -0.5454787 0.09653377 0.9218974 -0.3744416 0.09949296 -0.04065173 0.04812902 0.9980136 -0.02996933 0.05795496 0.9978693 -0.05169928 0.03540211 0.9980351 0.003784298 0.06228852 0.9980511 0.009979665 0.06390649 0.997906 0 0.06311357 0.9980064 0 -0.996472 0.08392691 -0.198071 -0.97653 0.08459979 -0.3876491 -0.9177291 0.08661216 0.1293075 -0.1533256 -0.979679 -0.009979665 -0.06390649 -0.997906 0.3269597 -0.4213883 -0.8458896 0.7556759 0.642146 -0.1288504 0.5650699 0.8203051 -0.08829307 0.3876491 0.9177291 -0.08661216 -0.01828074 -0.06158691 0.9979344 -0.02996933 -0.05795496 0.9978693 -0.009979665 -0.06390649 0.997906 0.3876491 0.9177291 0.08661216 0.5608442 0.8230618 0.08957266 0.7108852 0.697121 0.09308373 0.8324171 -0.5536832 -0.02273696 0.9707686 -0.2244648 -0.08499449 0.6084966 -0.7899651 -0.07541352 0.523035 -0.8523047 -0.003326535 0.8329772 -0.5533039 -0.001953184 0.9952161 -0.09762942 -0.003662228 -0.01828074 0.06158691 -0.9979344 -0.02996933 0.05795496 -0.9978693 -0.009979665 0.06390649 -0.997906 0.04065173 -0.04812902 0.9980136 0.02996933 -0.05795496 0.9978693 -0.832547 0.5454787 0.09653377 -0.7108852 0.697121 0.09308373 -0.01828074 0.06158691 0.9979344 -0.009979665 0.06390649 0.997906 0.1609278 -0.04602295 -0.9858927 0.02996933 0.05795496 -0.9978693 -0.7108852 -0.697121 -0.09308373 -0.5579812 -0.8250845 -0.08884114 0.8365405 0.5461472 -0.04385656 0.6914084 0.7142061 -0.1089224 0.887562 0.4402713 -0.1356277 0.8369336 0.5460532 -0.03698951 0.9349193 0.3376318 -0.1092275 0.9873552 0.1584858 -0.003448605 0.8374133 0.5465664 -0.002105772 0.5626234 0.826707 -0.003265559 0.01828074 0.06158691 0.9979344 0.02996933 0.05795496 0.9978693 -0.5608442 -0.8230618 0.08957266 -0.7108852 -0.697121 0.09308373 -0.04065173 -0.04812902 0.9980136 -0.05169928 -0.03540211 0.9980351 0.832547 0.5454787 0.09653377 0.9218974 0.3744416 0.09949296 -0.1304708 -0.1537266 -0.9794619 -0.3344645 -0.4279156 -0.8396558 0.009979665 -0.06390649 -0.997906 -0.3876491 0.9177291 -0.08661216 -0.5650335 0.8203271 -0.08832269 -0.7565118 0.641332 -0.1279978 -0.1772546 0.01828086 -0.9839953 -0.5565729 0.05252295 -0.8291369 -0.06814807 -0.991001 -0.1152078 0.1952002 -0.9771606 -0.08398854 0.01828074 -0.06158691 0.9979344 0.009979665 -0.06390649 0.997906 -0.5608442 0.8230618 0.08957266 -0.3876491 0.9177291 0.08661216 -0.003784298 0.06228852 0.9980511 0.198071 -0.97653 0.08459979 0.04065173 0.04812902 -0.9980136 0.05169928 0.03540211 -0.9980351 -0.9218974 -0.3744416 -0.09949296 -0.832547 -0.5454787 -0.09653377 -0.08325654 0.1530541 -0.9847045 -0.2380199 0.4541575 -0.858538 -0.06094563 0 -0.9981411 0.9947724 0 -0.1021171 0.9753822 0.1966329 -0.09982711 0.04065173 0.04812902 0.9980136 0.05169928 0.03540211 0.9980351 -0.832547 -0.5454787 0.09653377 -0.9218974 -0.3744416 0.09949296 -0.05740606 -0.01834183 0.9981825 -0.06094563 0 0.9981411 0.9764472 0.1904369 0.1014137 0.9947724 0 0.1021171 0.003784298 -0.06228852 -0.9980511 0 -0.06311357 -0.9980064 0 0.996472 -0.08392691 -0.198071 0.97653 -0.08459979 0.003784298 -0.06228852 0.9980511 0 -0.06311357 0.9980064 -0.198071 0.97653 0.08459979 0 0.996472 0.08392691 0.05740606 0.01834183 -0.9981825 0.06094563 0 -0.9981411 -0.9947724 0 -0.1021171 -0.9764472 -0.1904369 -0.1014137 -0.05740606 0.01834183 -0.9981825 -0.05169928 0.03540211 -0.9980351 0.9764472 -0.1904369 -0.1014137 0.05740606 0.01834183 0.9981825 -0.9764472 -0.1904369 0.1014137 -0.05740606 0.01834183 0.9981825 0.9764472 -0.1904369 0.1014137 -0.003784298 -0.06228852 -0.9980511 0.198071 0.97653 -0.08459979 -0.003784298 -0.06228852 0.9980511 0.198071 0.97653 0.08459979 0.08316504 0.154275 -0.9845217 0.2406122 0.463798 -0.8526413 -0.8871577 0.4413663 -0.134711 -0.9753878 0.196573 -0.09988874 -0.04065173 0.04812902 -0.9980136 0.1996539 -0.9798666 0 -0.008514821 -0.9999627 0.001464903 -0.1996237 -0.9798681 0.003021359 -0.1995041 -0.9794226 -0.03048866 -0.3825293 -0.9239422 0.001525938 -0.5646402 -0.8253373 0 -0.7154347 -0.6986797 0 -0.8374892 -0.546454 0 -0.927028 -0.3749923 0 -0.9816516 -0.1906842 0 -0.9815326 0.1912952 1.22077e-4 -0.9234856 0.3836284 0.001953184 -0.8375673 0.5463231 0.0035097 -0.8369587 0.5460802 -0.03601264 -0.7217972 0.6921024 0.001770079 -0.5649126 0.8251507 6.10386e-5 -0.3904652 0.9206177 0 -0.199566 0.9798845 0 0 1 0 0.199566 0.9798845 0 0.3904652 0.9206177 0 0.5649126 0.8251507 6.10386e-5 0.7217076 0.6921959 0.001739561 0.8375673 0.5463232 0.003448605 0.9235378 0.3835027 0.001892149 0.9815326 0.1912952 1.22077e-4 0.9816516 -0.1906842 0 -0.4649236 0.8853507 -5.1882e-4 -0.9952992 -0.09683811 0.001434385 -0.9952123 -0.09765958 -0.003906369 -0.4655059 0.8850198 -0.00665313 0.5623733 0.8268813 -0.001922667 0.5627386 0.8265748 -0.009979665 -0.462493 0.8866228 6.7143e-4 -0.9952936 -0.09622716 0.01144468 0.4573006 -0.7918223 -0.404838 -0.6105141 -0.7882297 -0.07724505 -0.5230704 -0.8522821 -0.003540217 0.5657868 -0.8245246 -0.006683588 -0.4656996 0.7807847 -0.4165324 -0.9699371 -0.227339 -0.08682769 -0.8323765 -0.5536766 -0.02432364 -0.8329769 -0.5533037 -0.002105772 0.8329778 -0.5533043 0.001525878 0.9952995 -0.09683811 0.001220762 0.5224887 -0.8526453 0.001281797 0.5220562 -0.8528506 0.01016277 0.8329396 -0.5532585 0.01080387 0.9953105 -0.09622585 0.009888052 -0.19932 -0.9792959 -0.0353716 -0.3943054 -0.9141658 -0.09393745 -0.5402269 -0.8415161 -0.002349972 -0.1994718 -0.9799026 -0.001434385 -0.8997218 0.212753 -0.3810999 -0.1216198 0.9905682 -0.0631141 -0.216041 0.9763809 -0.002594053 -0.9888342 0.1489309 -0.005157649 0.1959006 0.9805102 -0.01492369 0.1961452 0.9805738 -0.001434385 -0.1994717 -0.9799019 -0.001831114 0.1593684 -0.9872176 -0.001800596 -0.540399 -0.8414072 -0.001709043 -0.5399975 -0.8416135 -0.009460747 -0.1994431 -0.9798503 -0.01077324 0.1590976 -0.9872109 -0.01013243 0.4683815 0.782701 -0.4098758 -0.6899135 0.7157936 -0.1079763 0.4655311 0.8850097 -0.006225764 -0.5625888 0.8267314 -0.003051877 -0.8365945 0.5461731 -0.04248279 -0.9357824 0.335529 -0.1083129 -0.8374135 0.5465665 -0.001953184 -0.9873607 0.1584562 -0.003235042 -0.4581332 -0.7947974 -0.3980091 -0.5657883 -0.8245269 -0.006256341 0.9637396 -0.2633818 -0.04284912 0.578359 0.815611 0.01672416 0.5943549 0.8032565 0.03900307 0.9605975 -0.27794 -0.00137335 0.1594599 -0.9864847 -0.03769052 0.1519846 -0.9867707 -0.05642962 0.1321185 -0.9870893 -0.09055107 0.8942387 -0.1741722 -0.4123123 0.5467242 0.8370857 -0.01950186 -0.8360995 0.5458329 -0.05481213 -0.9844554 0.1648338 -0.06064146 -0.9869906 0.1577537 -0.03103798 -0.8369028 0.5462056 -0.03540247 -0.561859 0.8266133 -0.03201466 -0.5658553 0.8223075 -0.06015318 -0.5822744 0.8043316 -0.1183531 -0.8184213 0.529775 -0.2225427 -0.9741495 0.1912041 -0.1203075 0.5586882 -0.8270147 -0.06256473 0.9840177 0.1639775 -0.06943023 0.9868162 0.1577245 -0.0362876 0.5657848 -0.8245521 0.001190185 -0.5220609 -0.8520341 0.0386067 -0.5332318 -0.8459622 0.003448665 -0.5661228 -0.8216563 -0.06622564 0.4537618 -0.7255366 -0.5173946 0.9715103 0.1920558 -0.1388612 0.9603427 -0.278822 -5.49343e-4 0.5948255 0.8038537 0.00137335 0.95955 -0.2815384 -4.57786e-4 0.5952787 0.8034508 0.01049858 -0.8374138 0.5465667 -0.001800596 -0.9874185 0.15812 -0.001709043 -0.5623384 0.8269054 -0.001739561 -0.5626178 0.8266682 -0.009003102 -0.8373783 0.5465329 -0.009979665 -0.9873132 0.1585451 -0.008728325 -0.8329775 -0.5533041 0.001739561 -0.5224306 -0.8526808 0.001403868 -0.8329035 -0.5532853 0.01214665 -0.5218775 -0.8529493 0.01101738 -0.9889621 0.1481688 -2.4415e-4 -0.2165618 0.9762678 0.00149542 -0.2169296 0.9761223 0.01126152 -0.9893909 0.1452698 0.001556456 -0.5663993 -0.824131 -4.27264e-4 -0.5684762 -0.822699 0.001159667 0.8374273 0.546545 -0.002044796 0.9874179 0.1581199 -0.002014219 0.987302 0.1585177 -0.01034605 0.8373799 0.5465035 -0.01135301 0.1961452 0.9805735 0.001648008 0.1961441 0.9805068 0.01156657 0.4650204 0.8852998 -5.79864e-4 0.4628799 0.886421 6.10378e-5 0.5664899 -0.8240686 -6.10376e-4 0.5688179 -0.8224635 2.44154e-4 -0.0318309 -0.0195319 -0.9993025 -0.8263701 -0.5367118 -0.17045 -0.9843771 -0.1607769 -0.07178193 -0.4700315 0.7156528 -0.5166348 0.5819367 0.8020094 -0.1346499 0.8141821 0.526908 -0.2438761 0.004913449 0.03949099 -0.9992079 -0.892953 0.1931542 -0.4066035 -0.1645282 0.9862539 -0.01529002 0.19938 0.97569 -0.09097689 -0.1977605 -0.9655167 -0.1693171 -0.5136107 -0.853383 -0.08911657 0.02777206 -0.0192573 -0.9994289 0.4777522 0.7291107 -0.4900515 0.9853456 -0.1589444 -0.0618931 0.8284084 -0.5379588 -0.1560132 0.5649657 -0.8232777 -0.05502551 -0.4652968 -0.7389631 -0.4872707 -0.4792078 0.8755872 -0.06088519 -0.9935787 -0.1131342 0.001434385 -0.9945009 -0.09674608 0.0401023 -0.4656957 0.8849409 0.002685666 0.5617887 0.8265386 -0.03503549 0.5649656 0.8224229 -0.06659221 -0.5592623 -0.8273116 -0.05273693 0.5339732 -0.845488 0.00476104 0.5221281 -0.8521052 0.03604352 -0.5658291 -0.8245112 0.004333734 -0.8331965 -0.5526057 0.0202645 -0.8322291 -0.5527949 0.04257428 -0.9865269 0.1596754 -0.03561568 -0.532986 -0.8443726 -0.05441558 -0.5402834 -0.8407459 -0.03521925 -0.9888378 0.1488704 0.006134212 -0.2164081 0.9754086 0.04178011 -0.1990149 0.9797845 0.02038669 0.1963264 0.9800758 0.03012186 0.1959645 0.9796704 0.04294067 0.478994 0.8760144 -0.05624628 0.4657212 0.8849314 4.88305e-4 0.9946871 -0.0967769 0.03509724 0.9934503 -0.1142627 7.93491e-4 0.83578 0.5455994 -0.06158858 0.8367596 0.5461202 -0.03982824 0.8332208 -0.5526322 0.01846379 0.8323767 -0.5528832 0.03833192 -0.1991066 -0.9785644 -0.05261492 -0.1993202 -0.9791136 -0.04010206 0.8370781 0.546292 -0.02942037 0.5627484 0.826223 -0.02588045 0.9869679 0.1586705 -0.02679604 -0.832538 -0.553072 0.03149598 -0.5214754 -0.852788 0.02856558 -0.994946 -0.0959208 0.02969485 -0.46133 0.8872271 0.001678526 0.5698826 -0.821726 5.49343e-4 0.8326565 -0.5530697 0.02823024 0.9950553 -0.09589201 0.02588045 0.5217224 -0.8527011 0.02658206 0.4617909 0.8869888 1.22078e-4 -0.5626472 0.8263614 -0.02356058 -0.5695186 -0.8219733 0.002960324 -0.9870573 0.1587312 -0.02285897 -0.8371323 0.5463792 -0.02606308 -0.1993478 -0.9794962 -0.02911478 0.1588217 -0.9869286 -0.02734512 -0.5396056 -0.8415296 -0.02557486 0.1960849 0.9800888 0.03125149 -0.2170495 0.9756854 0.03045773 0.5953643 0.8029544 0.02838265 -0.9896548 0.1434109 0.004120111 0.9590555 -0.2832151 -0.001342773</float_array>
          <technique_common>
            <accessor source="#Cylinder_011-mesh-normals-array" count="446" stride="3">
              <param name="X" type="float"/>
              <param name="Y" type="float"/>
              <param name="Z" type="float"/>
            </accessor>
          </technique_common>
        </source>
        <vertices id="Cylinder_011-mesh-vertices">
          <input semantic="POSITION" source="#Cylinder_011-mesh-positions"/>
        </vertices>
        <polylist material="Tripott-material" count="448">
          <input semantic="VERTEX" source="#Cylinder_011-mesh-vertices" offset="0"/>
          <input semantic="NORMAL" source="#Cylinder_011-mesh-normals" offset="1"/>
          <vcount>4 4 4 4 4 4 4 4 4 4 4 4 4 4 4 4 4 4 4 4 4 4 4 4 4 4 4 4 4 4 4 4 4 4 4 4 4 4 4 4 4 4 4 4 4 4 4 4 4 4 4 4 4 4 4 4 4 4 4 4 4 4 4 4 4 4 4 4 4 4 4 4 4 4 4 4 4 4 4 4 4 4 4 4 4 4 4 4 4 4 4 4 4 4 4 4 4 4 4 4 4 4 4 4 4 4 4 4 4 4 4 4 4 4 4 4 4 4 4 4 4 4 4 4 4 4 4 4 4 4 4 4 4 4 4 4 4 4 4 4 4 4 4 4 4 4 4 4 4 4 4 4 4 4 4 4 4 4 4 4 4 4 4 4 4 4 4 4 4 4 4 4 4 4 4 4 4 4 4 4 4 4 4 4 4 4 4 4 4 4 4 4 4 4 4 4 4 4 4 4 4 4 4 4 4 4 4 4 4 4 4 4 4 4 4 4 4 4 4 4 4 4 4 4 4 4 4 4 4 4 4 4 4 4 4 4 4 4 4 4 4 4 4 4 4 4 4 4 4 4 4 4 4 4 4 4 4 4 4 4 4 4 4 4 4 4 4 4 4 4 4 4 4 4 4 4 4 4 4 4 4 4 4 4 4 4 4 4 4 4 4 4 4 4 4 4 4 4 4 4 4 4 4 4 4 4 4 4 4 4 4 4 4 4 4 4 4 4 4 4 4 4 4 4 4 4 4 4 4 4 4 4 4 4 4 4 4 4 4 4 4 4 4 4 4 4 4 4 4 4 4 4 4 4 4 4 4 4 4 4 4 4 4 4 4 4 4 4 4 4 4 4 4 4 4 4 4 4 4 4 4 4 4 4 4 4 4 4 4 4 4 4 4 4 4 4 4 4 4 4 4 4 4 4 4 4 4 4 4 4 4 4 4 4 4 4 4 4 4 4 4 4 4 4 4 4 4 4 4 4 4 4 4 4 4 4 4 4 4 4 4 4 4 4 4 4 4 4 </vcount>
          <p>0 0 112 1 336 2 114 3 0 0 114 3 337 4 113 5 0 0 113 5 339 6 115 7 0 0 115 7 338 8 112 1 1 9 116 10 338 8 115 7 1 9 115 7 339 6 117 11 1 9 117 11 341 12 118 13 1 9 118 13 340 14 116 10 2 15 119 16 340 14 118 13 2 15 118 13 341 12 120 17 2 15 120 17 343 18 121 19 2 15 121 19 342 20 119 16 3 21 122 22 342 20 121 19 3 21 121 19 343 18 123 23 3 21 123 23 345 24 124 25 3 21 124 25 344 26 122 22 4 27 125 28 344 26 124 25 4 27 124 25 345 24 126 29 4 27 126 29 347 30 127 31 4 27 127 31 346 32 125 28 5 33 128 34 346 32 127 31 5 33 127 31 347 30 129 35 5 33 129 35 349 36 130 37 5 33 130 37 348 38 128 34 6 39 131 40 348 38 130 37 6 39 130 37 349 36 132 41 6 39 132 41 351 42 133 43 6 39 133 43 350 44 131 40 7 45 134 46 350 44 133 43 7 45 133 43 351 42 135 47 7 45 135 47 353 48 136 49 7 45 136 49 352 50 134 46 8 51 137 52 352 50 136 49 8 51 136 49 353 48 138 53 8 51 138 53 355 54 139 55 8 51 139 55 354 56 137 52 9 57 140 58 354 56 139 55 9 57 139 55 355 54 141 59 9 57 141 59 357 60 142 61 9 57 142 61 356 62 140 58 10 63 143 64 356 62 142 61 10 63 142 61 357 60 144 65 10 63 144 65 359 66 145 67 10 63 145 67 358 68 143 64 11 69 146 70 358 68 145 67 11 69 145 67 359 66 147 71 11 69 147 71 361 72 148 73 11 69 148 73 360 74 146 70 12 75 149 76 360 74 148 73 12 75 148 73 361 72 150 77 12 75 150 77 363 78 151 79 12 75 151 79 362 80 149 76 13 81 152 82 362 80 151 79 13 81 151 79 363 78 153 83 13 81 153 83 365 84 154 85 13 81 154 85 364 86 152 82 14 87 195 88 347 30 126 29 14 87 126 29 345 24 194 89 14 87 194 89 377 90 169 91 14 87 169 91 379 92 195 88 15 93 158 94 366 95 157 96 15 93 157 96 367 97 159 98 15 93 159 98 337 4 114 3 15 93 114 3 336 2 158 94 16 99 155 100 364 86 154 85 16 99 154 85 365 84 156 101 16 99 156 101 367 97 157 96 16 99 157 96 366 95 155 100 17 102 253 103 338 8 192 104 17 102 192 104 369 105 252 106 17 102 252 106 407 107 250 108 17 102 250 108 405 109 253 103 18 110 225 111 396 112 188 113 18 110 188 113 398 114 226 115 18 110 226 115 399 116 189 117 18 110 189 117 397 118 225 111 19 119 224 120 394 121 186 122 19 119 186 122 396 112 225 111 19 119 225 111 397 118 187 123 19 119 187 123 395 124 224 120 20 125 197 126 365 84 153 83 20 125 153 83 363 78 196 127 20 125 196 127 395 124 187 123 20 125 187 123 397 118 197 126 21 128 199 129 339 6 113 5 21 128 113 5 337 4 198 130 21 128 198 130 371 131 161 132 21 128 161 132 370 133 199 129 22 134 201 135 354 56 140 58 22 134 140 58 356 62 200 136 22 134 200 136 388 137 178 138 22 134 178 138 386 139 201 135 23 140 203 141 357 60 141 59 23 140 141 59 355 54 202 142 23 140 202 142 387 143 179 144 23 140 179 144 389 145 203 141 24 146 261 147 346 32 128 34 24 146 128 34 348 38 260 148 24 146 260 148 409 149 256 150 24 146 256 150 408 151 261 147 25 152 207 153 364 86 155 100 25 152 155 100 366 95 206 154 25 152 206 154 398 114 188 113 25 152 188 113 396 112 207 153 26 155 208 156 349 36 129 35 26 155 129 35 347 30 195 88 26 155 195 88 379 92 171 157 26 155 171 157 381 158 208 156 27 159 209 160 367 97 156 101 27 159 156 101 365 84 197 126 27 159 197 126 397 118 189 117 27 159 189 117 399 116 209 160 28 161 192 104 338 8 116 10 28 161 116 10 340 14 210 162 28 161 210 162 372 163 162 164 28 161 162 164 369 105 192 104 29 165 245 166 390 167 180 168 29 165 180 168 388 137 244 169 29 165 244 169 402 170 241 171 29 165 241 171 403 172 245 166 30 173 212 174 341 12 117 11 30 173 117 11 339 6 199 129 30 173 199 129 370 133 163 175 30 173 163 175 373 176 212 174 31 177 213 178 359 66 144 65 31 177 144 65 357 60 203 141 31 177 203 141 389 145 181 179 31 177 181 179 391 180 213 178 32 181 204 182 348 38 131 40 32 181 131 40 350 44 214 183 32 181 214 183 382 184 172 185 32 181 172 185 380 186 204 182 33 187 206 154 366 95 158 94 33 187 158 94 336 2 193 188 33 187 193 188 368 189 190 190 33 187 190 190 398 114 206 154 34 191 215 192 351 42 132 41 34 191 132 41 349 36 208 156 34 191 208 156 381 158 173 193 34 191 173 193 383 194 215 192 35 195 198 130 337 4 159 98 35 195 159 98 367 97 209 160 35 195 209 160 399 116 191 196 35 195 191 196 371 131 198 130 36 197 210 162 340 14 119 16 36 197 119 16 342 20 216 198 36 197 216 198 374 199 164 200 36 197 164 200 372 163 210 162 37 201 211 202 358 68 146 70 37 201 146 70 360 74 217 203 37 201 217 203 392 204 182 205 37 201 182 205 390 167 211 202 38 206 218 207 343 18 120 17 38 206 120 17 341 12 212 174 38 206 212 174 373 176 165 208 38 206 165 208 375 209 218 207 39 210 219 211 361 72 147 71 39 210 147 71 359 66 213 178 39 210 213 178 391 180 183 212 39 210 183 212 393 213 219 211 40 214 214 183 350 44 134 46 40 214 134 46 352 50 220 215 40 214 220 215 384 216 174 217 40 214 174 217 382 184 214 183 41 218 221 219 353 48 135 47 41 218 135 47 351 42 215 192 41 218 215 192 383 194 175 220 41 218 175 220 385 221 221 219 42 222 216 198 342 20 122 22 42 222 122 22 344 26 222 223 42 222 222 223 376 224 166 225 42 222 166 225 374 199 216 198 43 226 217 203 360 74 149 76 43 226 149 76 362 80 223 227 43 226 223 227 394 121 184 228 43 226 184 228 392 204 217 203 44 229 194 89 345 24 123 23 44 229 123 23 343 18 218 207 44 229 218 207 375 209 167 230 44 229 167 230 377 90 194 89 45 231 196 127 363 78 150 77 45 231 150 77 361 72 219 211 45 231 219 211 393 213 185 232 45 231 185 232 395 124 196 127 46 233 220 215 352 50 137 52 46 233 137 52 354 56 201 135 46 233 201 135 386 139 176 234 46 233 176 234 384 216 220 215 47 235 202 142 355 54 138 53 47 235 138 53 353 48 221 219 47 235 221 219 385 221 177 236 47 235 177 236 387 143 202 142 48 237 222 223 344 26 125 28 48 237 125 28 346 32 205 238 48 237 205 238 378 239 168 240 48 237 168 240 376 224 222 223 49 241 223 227 362 80 152 82 49 241 152 82 364 86 207 153 49 241 207 153 396 112 186 122 49 241 186 122 394 121 223 227 50 242 226 115 398 114 190 190 50 242 190 190 368 189 227 243 50 242 227 243 371 131 191 196 50 242 191 196 399 116 226 115 51 244 227 243 368 189 160 245 51 244 160 245 369 105 228 246 51 244 228 246 370 133 161 132 51 244 161 132 371 131 227 243 52 247 228 246 369 105 162 164 52 247 162 164 372 163 229 248 52 247 229 248 373 176 163 175 52 247 163 175 370 133 228 246 53 249 229 248 372 163 164 200 53 249 164 200 374 199 230 250 53 249 230 250 375 209 165 208 53 249 165 208 373 176 229 248 54 251 230 250 374 199 166 225 54 251 166 225 376 224 231 73 54 251 231 73 377 90 167 230 54 251 167 230 375 209 230 250 55 252 231 73 376 224 168 240 55 252 168 240 378 239 232 253 55 252 232 253 379 92 169 91 55 252 169 91 377 90 231 73 56 254 232 253 378 239 170 255 56 254 170 255 380 186 233 256 56 254 233 256 381 158 171 157 56 254 171 157 379 92 232 253 57 257 233 256 380 186 172 185 57 257 172 185 382 184 234 258 57 257 234 258 383 194 173 193 57 257 173 193 381 158 233 256 58 259 234 258 382 184 174 217 58 259 174 217 384 216 235 260 58 259 235 260 385 221 175 220 58 259 175 220 383 194 234 258 59 261 235 260 384 216 176 234 59 261 176 234 386 139 236 262 59 261 236 262 387 143 177 236 59 261 177 236 385 221 235 260 60 263 236 262 386 139 178 138 60 263 178 138 388 137 237 264 60 263 237 264 389 145 179 144 60 263 179 144 387 143 236 262 61 265 237 264 388 137 180 168 61 265 180 168 390 167 238 266 61 265 238 266 391 180 181 179 61 265 181 179 389 145 237 264 62 267 238 266 390 167 182 205 62 267 182 205 392 204 239 25 62 267 239 25 393 213 183 212 62 267 183 212 391 180 238 266 63 268 239 25 392 204 184 228 63 268 184 228 394 121 224 120 63 268 224 120 395 124 185 232 63 268 185 232 393 213 239 25 64 269 281 270 401 271 243 272 64 269 243 272 403 172 280 273 64 269 280 273 415 274 267 275 64 269 267 275 413 276 281 270 65 277 244 169 388 137 200 136 65 277 200 136 356 62 246 278 65 277 246 278 400 279 242 280 65 277 242 280 402 170 244 169 66 281 247 282 358 68 211 202 66 281 211 202 390 167 245 166 66 281 245 166 403 172 243 272 66 281 243 272 401 271 247 282 67 283 246 278 356 62 143 64 67 283 143 64 358 68 247 282 67 283 247 282 401 271 240 284 67 283 240 284 400 279 246 278 68 285 279 286 408 151 256 150 68 285 256 150 409 149 278 287 68 285 278 287 421 288 272 289 68 285 272 289 420 290 279 286 69 291 252 106 369 105 160 245 69 291 160 245 368 189 254 292 69 291 254 292 406 293 249 294 69 291 249 294 407 107 252 106 70 295 254 292 368 189 193 188 70 295 193 188 336 2 255 296 70 295 255 296 404 297 251 298 70 295 251 298 406 293 254 292 71 299 255 296 336 2 112 1 71 299 112 1 338 8 253 103 71 299 253 103 405 109 248 300 71 299 248 300 404 297 255 296 72 301 277 302 407 107 249 294 72 301 249 294 406 293 276 303 72 301 276 303 418 304 269 305 72 301 269 305 419 306 277 302 73 307 262 308 378 239 205 238 73 307 205 238 346 32 261 147 73 307 261 147 408 151 259 309 73 307 259 309 410 310 262 308 74 311 263 312 380 186 170 255 74 311 170 255 378 239 262 308 74 311 262 308 410 310 257 313 74 311 257 313 411 314 263 312 75 315 260 148 348 38 204 182 75 315 204 182 380 186 263 312 75 315 263 312 411 314 258 316 75 315 258 316 409 149 260 148 76 317 329 318 445 319 335 320 76 317 335 320 444 321 304 322 76 317 304 322 431 323 294 324 76 317 294 324 429 325 329 318 77 326 321 327 441 328 327 329 77 326 327 329 440 330 302 331 77 326 302 331 434 332 297 333 77 326 297 333 435 334 321 327 78 335 313 336 437 337 319 338 78 335 319 338 436 339 300 340 78 335 300 340 424 341 290 342 78 335 290 342 426 343 313 336 79 344 282 345 405 109 250 108 79 344 250 108 407 107 277 302 79 344 277 302 419 306 270 346 79 344 270 346 417 347 282 345 80 348 284 349 411 314 257 313 80 348 257 313 410 310 283 350 80 348 283 350 422 351 273 352 80 348 273 352 423 353 284 349 81 354 285 355 400 279 240 284 81 354 240 284 401 271 281 270 81 354 281 270 413 276 264 356 81 354 264 356 412 357 285 355 82 358 276 303 406 293 251 298 82 358 251 298 404 297 286 359 82 358 286 359 416 360 271 361 82 358 271 361 418 304 276 303 83 362 278 287 409 149 258 316 83 362 258 316 411 314 284 349 83 362 284 349 423 353 274 363 83 362 274 363 421 288 278 287 84 364 280 273 403 172 241 171 84 364 241 171 402 170 287 365 84 364 287 365 414 366 265 367 84 364 265 367 415 274 280 273 85 368 286 359 404 297 248 300 85 368 248 300 405 109 282 345 85 368 282 345 417 347 268 369 85 368 268 369 416 360 286 359 86 370 283 350 410 310 259 309 86 370 259 309 408 151 279 286 86 370 279 286 420 290 275 371 86 370 275 371 422 351 283 350 87 372 287 365 402 170 242 280 87 372 242 280 400 279 285 355 87 372 285 355 412 357 266 373 87 372 266 373 414 366 287 365 88 374 290 342 424 341 288 375 88 374 288 375 425 376 291 377 88 374 291 377 427 378 289 379 88 374 289 379 426 343 290 342 89 380 295 381 428 382 292 383 89 380 292 383 429 325 294 324 89 380 294 324 431 323 293 384 89 380 293 384 430 385 295 381 90 386 299 387 432 388 296 389 90 386 296 389 433 390 298 391 90 386 298 391 435 334 297 333 90 386 297 333 434 332 299 387 91 392 315 393 439 394 318 395 91 392 318 395 438 396 306 397 91 392 306 397 427 378 291 377 91 392 291 377 425 376 315 393 92 398 322 399 442 400 326 401 92 398 326 401 441 328 321 327 92 398 321 327 435 334 298 391 92 398 298 391 433 390 322 399 93 402 300 340 436 339 317 403 93 402 317 403 439 394 315 393 93 402 315 393 425 376 288 375 93 402 288 375 424 341 300 340 94 404 331 405 447 406 334 407 94 404 334 407 446 408 309 409 94 404 309 409 428 382 295 381 94 404 295 381 430 385 331 405 95 410 309 409 446 408 333 411 95 410 333 411 445 319 329 318 95 410 329 318 429 325 292 383 95 410 292 383 428 382 309 409 96 412 302 331 440 330 325 413 96 412 325 413 443 414 311 415 96 412 311 415 432 388 299 387 96 412 299 387 434 332 302 331 97 416 306 397 438 396 316 417 97 416 316 417 437 337 313 336 97 416 313 336 426 343 289 379 97 416 289 379 427 378 306 397 98 418 311 415 443 414 324 419 98 418 324 419 442 400 322 399 98 418 322 399 433 390 296 389 98 418 296 389 432 388 311 415 99 420 304 322 444 321 332 421 99 420 332 421 447 406 331 405 99 420 331 405 430 385 293 384 99 420 293 384 431 323 304 322 100 422 314 423 415 274 265 367 100 422 265 367 414 366 301 424 100 422 301 424 437 337 316 417 100 422 316 417 438 396 314 423 101 425 312 426 412 357 264 356 101 425 264 356 413 276 307 427 101 425 307 427 439 394 317 403 101 425 317 403 436 339 312 426 102 428 307 427 413 276 267 275 102 428 267 275 415 274 314 423 102 428 314 423 438 396 318 395 102 428 318 395 439 394 307 427 103 429 301 424 414 366 266 373 103 429 266 373 412 357 312 426 103 429 312 426 436 339 319 338 103 429 319 338 437 337 301 424 104 430 323 431 420 290 272 289 104 430 272 289 421 288 308 432 104 430 308 432 442 400 324 419 104 430 324 419 443 414 323 431 105 433 320 434 422 351 275 371 105 433 275 371 420 290 323 431 105 433 323 431 443 414 325 413 105 433 325 413 440 330 320 434 106 435 308 432 421 288 274 363 106 435 274 363 423 353 303 436 106 435 303 436 441 328 326 401 106 435 326 401 442 400 308 432 107 437 303 436 423 353 273 352 107 437 273 352 422 351 320 434 107 437 320 434 440 330 327 329 107 437 327 329 441 328 303 436 108 438 328 439 419 306 269 305 108 438 269 305 418 304 310 440 108 438 310 440 447 406 332 421 108 438 332 421 444 321 328 439 109 441 330 442 416 360 268 369 109 441 268 369 417 347 305 443 109 441 305 443 445 319 333 411 109 441 333 411 446 408 330 442 110 444 310 440 418 304 271 361 110 444 271 361 416 360 330 442 110 444 330 442 446 408 334 407 110 444 334 407 447 406 310 440 111 445 305 443 417 347 270 346 111 445 270 346 419 306 328 439 111 445 328 439 444 321 335 320 111 445 335 320 445 319 305 443</p>
        </polylist>
      </mesh>
    </geometry>
  </library_geometries>
  <library_controllers/>
  <library_visual_scenes>
    <visual_scene id="Scene" name="Scene">
      <node id="Tripott_003" name="Tripott_003" type="NODE">
        <matrix sid="transform">-0.2956073 -5.21311e-8 0 -10.31088 4.46355e-8 -0.3452488 0 -6.517206 0 0 0.02456324 4.706899 0 0 0 1</matrix>
        <instance_geometry url="#Cylinder_011-mesh" name="Tripott_003">
          <bind_material>
            <technique_common>
              <instance_material symbol="Tripott-material" target="#Tripott-material"/>
            </technique_common>
          </bind_material>
        </instance_geometry>
      </node>
    </visual_scene>
  </library_visual_scenes>
  <scene>
    <instance_visual_scene url="#Scene"/>
  </scene>
</COLLADA>