<?xml version="1.0" encoding="utf-8"?>
<COLLADA xmlns="http://www.collada.org/2005/11/COLLADASchema" version="1.4.1">
  <asset>
    <contributor>
      <author>Blender User</author>
      <authoring_tool>Blender 2.78.0 commit date:2017-02-24, commit time:14:33, hash:e92f2352830</authoring_tool>
    </contributor>
    <created>2017-07-14T10:06:19</created>
    <modified>2017-07-14T10:06:19</modified>
    <unit name="meter" meter="1"/>
    <up_axis>Z_UP</up_axis>
  </asset>
  <library_images/>
  <library_effects>
    <effect id="Metall_Alu_007_001-effect">
      <profile_COMMON>
        <technique sid="common">
          <phong>
            <emission>
              <color sid="emission">0 0 0 1</color>
            </emission>
            <ambient>
              <color sid="ambient">0 0 0 1</color>
            </ambient>
            <diffuse>
              <color sid="diffuse">0.45 0.45 0.45 1</color>
            </diffuse>
            <specular>
              <color sid="specular">0.325 0.325 0.325 1</color>
            </specular>
            <shininess>
              <float sid="shininess">70</float>
            </shininess>
            <index_of_refraction>
              <float sid="index_of_refraction">1</float>
            </index_of_refraction>
          </phong>
        </technique>
      </profile_COMMON>
    </effect>
    <effect id="Metall_goeldlich_003_001-effect">
      <profile_COMMON>
        <technique sid="common">
          <phong>
            <emission>
              <color sid="emission">0 0 0 1</color>
            </emission>
            <ambient>
              <color sid="ambient">0 0 0 1</color>
            </ambient>
            <diffuse>
              <color sid="diffuse">0.831 0.686 0.216 1</color>
            </diffuse>
            <specular>
              <color sid="specular">0.075 0.075 0.075 1</color>
            </specular>
            <shininess>
              <float sid="shininess">80</float>
            </shininess>
            <index_of_refraction>
              <float sid="index_of_refraction">1</float>
            </index_of_refraction>
          </phong>
        </technique>
      </profile_COMMON>
    </effect>
  </library_effects>
  <library_materials>
    <material id="Metall_Alu_007_001-material" name="Metall_Alu_007_001">
      <instance_effect url="#Metall_Alu_007_001-effect"/>
    </material>
    <material id="Metall_goeldlich_003_001-material" name="Metall_goeldlich_003_001">
      <instance_effect url="#Metall_goeldlich_003_001-effect"/>
    </material>
  </library_materials>
  <library_geometries>
    <geometry id="Cylinder_013-mesh" name="Cylinder.013">
      <mesh>
        <source id="Cylinder_013-mesh-positions">
          <float_array id="Cylinder_013-mesh-positions-array" count="525">0.003909707 -0.001628696 -0.001204788 0.003949522 -0.001642644 -0.003204822 0.003195881 -0.001330375 -0.001195907 0.002987086 -0.003000736 -0.001204788 0.003019511 -0.003034472 -0.003204822 0.006788194 -0.002818942 -0.003321766 0.002455055 -0.00246793 -0.001196265 0.00303471 -0.001269519 -2.28035e-5 -0.003077149 -0.001262068 -3.4704e-5 -0.002351045 -0.002359449 -2.79753e-5 -0.001284599 -0.003060996 -3.66331e-5 4.58194e-6 -0.00331521 -1.97062e-5 0.001238703 -0.003061532 -2.42172e-5 0.002330482 -0.002334475 -3.16128e-5 0.001608669 -0.003921449 -0.001204788 0.001627624 -0.003964483 -0.003204822 0.005197644 -0.005207717 -0.003323078 0.006913244 -0.002870261 -0.005161762 0.00131452 -0.003208458 -0.001195788 -0.003228127 -0.001331984 -0.001195967 -0.002472579 -0.002459287 -0.001195967 -0.001348495 -0.003220498 -0.001196026 -1.45976e-5 -0.003500759 -0.001195967 -1.33541e-5 -0.004250288 -0.001204788 -1.41494e-5 -0.004291057 -0.003204822 0.002803444 -0.006804466 -0.003325164 0.005284667 -0.005299687 -0.005161821 0.01058566 -0.004392683 -0.005454897 -0.003934979 -0.001626312 -0.001204788 -0.0030182 -0.003002047 -0.001204788 -0.001637876 -0.003920376 -0.001204788 -0.001655936 -0.003964483 -0.003204822 -5.29744e-6 -0.007367193 -0.003321468 0.002853393 -0.006923556 -0.005161821 0.008097589 -0.008112192 -0.005454897 0.01059716 -0.004419326 -0.007779955 0.01105487 -0.002251565 -0.00629425 -0.003977775 -0.001642644 -0.003204822 -0.003047764 -0.003034472 -0.003204822 -0.002833127 -0.006800413 -0.003331661 -1.48055e-5 -0.007500708 -0.005161821 0.004379749 -0.01060473 -0.005454897 0.008108258 -0.008125662 -0.01591777 0.009606838 -0.006100773 -0.01397186 0.009601175 -0.006095051 -0.01170039 0.009903371 -0.005544364 -0.009410381 -0.004997789 -0.002903997 -0.003204822 -0.004840672 -0.005724608 -0.003454864 -0.00287795 -0.006914019 -0.005161762 -1.28278e-5 -0.01149731 -0.005454897 0.004364132 -0.0105974 -0.01821172 -0.005005955 -0.002903997 -0.003713011 -0.004980564 -0.005949318 -0.005204916 -0.004955589 -0.01037329 -0.005454897 3.72971e-4 -0.01126188 -0.01918154 -0.004987657 -0.01035618 -0.02038609 -0.007980048 -0.006050288 -0.007554948 -0.007849216 -0.006049335 -0.02097767 -0.007999062 -0.008147418 -0.02096283 -0.005011618 -0.006029069 -0.007554948 -0.004982292 -0.01034599 -0.007556676 -0.006920218 -0.006051003 -0.02209663 -0.007968187 -0.008147418 -0.007554948 -0.006905734 -0.008500754 -0.02207475 -0.005028665 -0.006051361 -0.02252966 -0.005030095 -0.008500754 -0.02252614 0.002462506 -0.008000731 -0.02078956 0.002450883 -0.009200096 -0.02078908 0.005024015 -0.006862521 -0.0194174 0.004524886 -0.009198188 -0.01976501 0.005957007 -0.006250023 -0.01852291 0.006768763 -0.009281218 -0.01751989 0.005895376 -0.004437744 -0.00777626 0.005894958 -0.00224924 -0.006289899 0.005895733 -0.006095111 -0.01170045 0.005895078 -0.005538105 -0.00941348 0.004939138 -0.005994975 -0.007526755 0.005168735 -0.002904117 -0.003204822 0.004767894 -0.005146503 -0.005555391 0.004228651 -8.49633e-7 -0.001204788 0.004276096 -8.49504e-7 -0.003204822 0.003468036 -8.49517e-7 -0.001196026 0.003909707 0.001626968 -0.001204788 0.003949522 0.001640915 -0.003204822 0.007352292 -8.50212e-7 -0.003325104 0.003195881 0.001328647 -0.001195907 0.003300547 -8.49573e-7 -3.02011e-5 0.002987086 0.002999067 -0.001204788 0.003019511 0.003032743 -0.003204822 0.006788194 0.002817213 -0.003321766 0.007478475 -8.50109e-7 -0.005161821 0.002455055 0.002466261 -0.001196265 0.00303471 0.00126785 -2.28035e-5 -0.003328859 -8.47805e-7 -3.02011e-5 -0.003077149 0.001260399 -3.4704e-5 -0.002351045 0.002357721 -2.79753e-5 -0.001284599 0.003059327 -3.66331e-5 4.58348e-6 0.003313541 -1.97062e-5 0.001238703 0.003059864 -2.42172e-5 0.002330482 0.002332806 -3.16117e-5 0.001608669 0.00391978 -0.001204788 0.001627624 0.003962755 -0.003204822 0.005197644 0.005205988 -0.003323078 0.006913244 0.002868533 -0.005161762 0.01147162 -8.51203e-7 -0.005454897 0.00131452 0.003206729 -0.001195788 -0.003496348 -8.47956e-7 -0.001196026 -0.003228127 0.001330256 -0.001195967 -0.002472579 0.002457559 -0.001195967 -0.001348495 0.00321877 -0.001196026 -1.45961e-5 0.00349909 -0.001195967 -1.3352e-5 0.004248559 -0.001204788 -1.41473e-5 0.004289329 -0.003204822 0.002803444 0.006802737 -0.003325164 0.005284667 0.005298018 -0.005161821 0.01058566 0.004391014 -0.005454897 0.01147687 -8.51182e-7 -0.005756437 0.01147687 -8.51182e-7 -0.005756437 -0.004256963 -8.47587e-7 -0.001204788 -0.003934979 0.001624584 -0.001204788 -0.0030182 0.003000319 -0.001204788 -0.001637876 0.003918647 -0.001204788 -0.001655936 0.003962755 -0.003204822 -5.29386e-6 0.007365524 -0.003321468 0.002853393 0.006921887 -0.005161821 0.008097589 0.008110463 -0.005454897 0.01059716 0.004417598 -0.007779955 0.01105487 0.002249836 -0.00629425 -0.004304349 -8.47698e-7 -0.003204822 -0.003977775 0.001640915 -0.003204822 -0.003047764 0.003032743 -0.003204822 -0.002833127 0.006798684 -0.003331661 -1.48014e-5 0.007498979 -0.005161762 0.004379808 0.01060307 -0.005454897 0.008108258 0.008123934 -0.01591777 0.009606838 0.006099045 -0.01397186 0.009601175 0.006093382 -0.01170039 0.009903371 0.005542635 -0.009410381 -0.005012035 -8.47333e-7 -0.003204822 -0.004997789 0.002902328 -0.003204822 -0.004840672 0.005722939 -0.003454864 -0.00287795 0.006912291 -0.005161762 -1.28222e-5 0.01149564 -0.005454897 0.004364132 0.01059573 -0.01821172 -0.005007982 -8.47295e-7 -0.003710985 -0.005005955 0.002902269 -0.003713011 -0.004980564 0.005947589 -0.005204856 -0.00495553 0.01037162 -0.005454897 3.72976e-4 0.01126015 -0.01918154 -0.004987657 0.01035445 -0.02038609 -0.007980048 0.00604856 -0.007554948 -0.007849216 0.006047666 -0.02097767 -0.007999062 0.008145749 -0.02096283 -0.005011558 0.00602734 -0.007554948 -0.004982292 0.01034426 -0.007556676 -0.006920218 0.006049275 -0.02209663 -0.007968187 0.008145749 -0.007554948 -0.006905734 0.008499026 -0.02207475 -0.005028665 0.006049692 -0.02252966 -0.005030095 0.008499026 -0.02252614 0.002462506 0.007999062 -0.02078956 0.002450883 0.009198427 -0.02078908 0.005024015 0.006860852 -0.0194174 0.004524886 0.009196519 -0.01976501 0.005957007 0.006248354 -0.01852291 0.006768763 0.009279549 -0.01751989 0.005895197 -8.49822e-7 -0.005855917 0.005895376 0.004436016 -0.00777626 0.005894958 0.002247571 -0.006289899 0.005895733 0.006093382 -0.01170045 0.005895078 0.005536437 -0.00941348 0.004939198 0.005993247 -0.007526755 0.005168735 -8.49895e-7 -0.003204822 0.005168735 0.002902388 -0.003204822 0.004767894 0.005144834 -0.005555391</float_array>
          <technique_common>
            <accessor source="#Cylinder_013-mesh-positions-array" count="175" stride="3">
              <param name="X" type="float"/>
              <param name="Y" type="float"/>
              <param name="Z" type="float"/>
            </accessor>
          </technique_common>
        </source>
        <source id="Cylinder_013-mesh-normals">
          <float_array id="Cylinder_013-mesh-normals-array" count="522">0.6861351 -0.2848672 0.66938 0.6147448 -0.2548034 0.7464343 0.6655602 0 0.7463442 0.7412603 0 0.6712177 0.6057756 0 0.7956355 0.5241132 -0.5249678 0.6706073 0.4700883 -0.4701799 0.7469591 0.7352421 0 0.6778047 0.5639924 -0.2312735 0.7927328 0.9139314 -0.3785921 0.146279 0.284958 -0.6846071 0.670904 0.2549868 -0.6145932 0.7464965 0.5198385 -0.5193501 0.6782651 0.6774565 -0.2802542 0.6800811 0.6628775 0 0.748728 0.2377138 -0.5663138 0.7891647 0.425473 -0.4255646 0.7986661 -0.6074887 0 0.7943285 -0.5626846 -0.2333812 0.7930444 -0.9899404 0 0.1414854 -0.4324849 -0.4322103 0.791297 -0.697243 -0.7041098 0.1344678 -0.2349362 -0.5587136 0.7953894 -0.3785907 -0.9144773 0.1428298 -4.57783e-4 -0.5999706 0.800022 0.003143429 -0.9882083 0.1530838 0.3798667 -0.9134564 0.1459406 -3.05195e-5 -0.743027 0.6692615 2.13634e-4 -0.6658987 0.7460421 0.4687481 -0.4688397 0.7486419 0.6107177 -0.2529118 0.750373 0.7623052 0 0.6472178 -0.7416226 0 0.6708174 -0.6856738 -0.2836145 0.6703837 -0.5251176 -0.524904 0.6698713 -0.2843449 -0.6845091 0.6712639 -0.255874 -0.614995 0.7458618 0.281354 -0.6782221 0.678863 0.2542279 -0.6122529 0.7486754 0.703561 -0.295915 0.6460932 -0.6484383 0 0.7612673 -0.5979105 -0.2629878 0.7571926 -0.4868067 -0.4739277 0.7337656 -8.5455e-4 -0.7336004 0.6795806 -0.002105832 -0.6608982 0.7504727 0.2928618 -0.7097535 0.6406887 0.5397067 -0.5427892 0.6435034 0.8153613 0.118538 -0.5666877 -0.6641843 -0.05969506 0.7451817 -0.6658097 -0.4061512 0.6258904 -0.2450999 -0.6763061 0.6946482 -0.2176037 -0.6502169 0.7279195 -0.01162785 -0.7752833 0.6315066 0.5109201 -0.3705933 -0.7756426 0.7338417 -0.540531 -0.411464 0.3651281 -0.8793105 -0.3057689 -0.7100914 0 0.7041096 -0.753071 0.1438999 -0.6420102 -0.9684747 0.2487948 -0.01257401 -0.6318182 -0.5319274 0.56379 0.05603367 -0.9234269 -0.3796619 -0.7021916 -0.3544834 0.6174696 -0.5839942 0.5731902 0.5748077 -0.7041602 0.6551469 -0.2737535 0.7772749 0.1129533 -0.6189389 -0.5719608 -0.8023504 0.1705719 -0.2642946 -0.9059264 -0.3308261 -0.8769348 -0.3638178 -0.3140412 -0.3130635 0.9025065 0.2957592 0.04364252 0.6667544 -0.7439987 0.3140715 0.5264841 -0.7900466 0.3061357 -0.3976315 -0.8649683 0.2226679 0.6825613 -0.6960813 0.2443677 0.7752807 -0.5824295 0.8758979 0.4537883 -0.1639485 0.8354537 -0.4357177 -0.3349139 -0.01791483 -0.3862217 -0.922232 -0.5017917 -0.4476512 -0.7401443 -0.5363154 0.6355641 -0.5553594 0.8686341 0.2804093 -0.4084674 -0.3286928 0.9004413 -0.2848976 0.9302403 0.3567447 -0.08594346 0.4011147 0.903187 -0.1528404 0.8031786 0 -0.5957384 -0.6601874 0.2950884 -0.6907064 -0.4049279 0.638033 -0.6549406 -0.4480874 0.8568352 -0.2550515 -0.550879 0.3101097 -0.7748318 -0.6866774 0 -0.7269624 -0.6481737 0 -0.7614927 -0.4777212 0.7364959 -0.4789115 0.6861351 0.2848672 0.66938 0.5639924 0.2312735 0.7927328 0.5241132 0.5249678 0.6706073 0.6147448 0.2548034 0.7464343 0.425473 0.4255646 0.7986661 0.9139314 0.3785921 0.146279 0.284958 0.6846071 0.670904 0.4700883 0.4701799 0.7469591 0.6774565 0.2802542 0.6800811 0.5198385 0.5193501 0.6782651 0.2377138 0.5663138 0.7891647 0.7002029 0.6969679 0.1547631 -0.5626846 0.2333812 0.7930444 -0.9156066 0.3763017 0.1416396 -0.697243 0.7041098 0.1344678 -0.4324601 0.432216 0.7913075 -0.3785907 0.9144773 0.1428298 -0.2349362 0.5587136 0.7953894 0.003143429 0.9882083 0.1530838 -4.57783e-4 0.5999706 0.800022 0.3798667 0.9134564 0.1459406 -3.05195e-5 0.743027 0.6692615 0.2549868 0.6145932 0.7464965 0.6107177 0.2529118 0.750373 0.4687481 0.4688397 0.7486419 -0.6856738 0.2836145 0.6703837 -0.5251176 0.524904 0.6698713 -0.2843449 0.6845091 0.6712639 -0.2558455 0.6149998 0.7458677 0.281354 0.6782221 0.678863 2.13634e-4 0.6658987 0.7460421 0.2542279 0.6122529 0.7486754 0.703561 0.295915 0.6460932 -0.4868067 0.4739277 0.7337656 -8.5455e-4 0.7336004 0.6795806 -0.002105832 0.6608982 0.7504727 0.5397067 0.5427892 0.6435034 0.2928618 0.7097535 0.6406887 0.8153613 -0.118538 -0.5666877 -0.5979105 0.2629878 0.7571926 -0.6641843 0.05969506 0.7451817 -0.6658097 0.4061512 0.6258904 -0.2450999 0.6763061 0.6946482 -0.2176037 0.6502169 0.7279195 -0.01162785 0.7752833 0.6315066 0.5109201 0.3705933 -0.7756426 0.3651315 0.8793187 -0.3057411 0.7338417 0.540531 -0.411464 -0.753071 -0.1438999 -0.6420102 -0.9684747 -0.2487948 -0.01257401 -0.6318182 0.5319274 0.56379 0.05603367 0.9234269 -0.3796619 -0.7021916 0.3544834 0.6174696 -0.8769348 0.3638178 -0.3140412 -0.7041602 -0.6551469 -0.2737535 0.7772749 -0.1129533 -0.6189389 -0.5719608 0.8023504 0.1705719 -0.2642946 0.9059264 -0.3308261 -0.3130635 -0.9025065 0.2957592 -0.5839942 -0.5731902 0.5748077 0.04364252 -0.6667544 -0.7439987 -0.01791483 0.3862217 -0.922232 0.3061357 0.3976315 -0.8649683 0.3140715 -0.5264841 -0.7900466 0.2226679 -0.6825613 -0.6960813 0.2443677 -0.7752807 -0.5824295 0.8354537 0.4357177 -0.3349139 -0.5017917 0.4476512 -0.7401443 -0.6601874 -0.2950884 -0.6907064 -0.5363154 -0.6355641 -0.5553594 -0.3286928 -0.9004413 -0.2848976 0.8686341 -0.2804093 -0.4084674 0.4011147 -0.903187 -0.1528404 -0.4480874 -0.8568352 -0.2550515 -0.4049279 -0.638033 -0.6549406 -0.4777212 -0.7364959 -0.4789115 -0.550879 -0.3101097 -0.7748318 0.9302445 -0.3567346 -0.08594101 0.989835 0 0.1422203 0.7002029 -0.6969679 0.1547631 -0.9156066 -0.3763017 0.1416396 -0.5865809 0 -0.8098906 0.8758979 -0.4537883 -0.1639485</float_array>
          <technique_common>
            <accessor source="#Cylinder_013-mesh-normals-array" count="174" stride="3">
              <param name="X" type="float"/>
              <param name="Y" type="float"/>
              <param name="Z" type="float"/>
            </accessor>
          </technique_common>
        </source>
        <vertices id="Cylinder_013-mesh-vertices">
          <input semantic="POSITION" source="#Cylinder_013-mesh-positions"/>
        </vertices>
        <lines count="1">
          <input semantic="VERTEX" source="#Cylinder_013-mesh-vertices" offset="0"/>
          <p>116 117</p>
        </lines>
        <polylist material="Metall_Alu_007_001-material" count="322">
          <input semantic="VERTEX" source="#Cylinder_013-mesh-vertices" offset="0"/>
          <input semantic="NORMAL" source="#Cylinder_013-mesh-normals" offset="1"/>
          <vcount>3 3 3 3 3 3 3 3 3 3 3 3 3 3 3 3 3 3 3 3 3 3 3 3 3 3 3 3 3 3 3 3 3 3 3 3 3 3 3 3 3 3 3 3 3 3 3 3 3 3 3 3 3 3 3 3 3 3 3 3 3 3 3 3 3 3 3 3 3 3 3 3 3 3 3 3 3 3 3 3 3 3 3 3 3 3 3 3 3 3 3 3 3 3 3 3 3 3 3 3 3 3 3 3 3 3 3 3 3 3 3 3 3 3 3 3 3 3 3 3 3 3 3 3 3 3 3 3 3 3 3 3 3 3 3 3 3 3 3 3 3 3 3 3 3 3 3 3 3 3 3 3 3 3 3 3 3 3 3 3 3 3 3 3 3 3 3 3 3 3 3 3 3 3 3 3 3 3 3 3 3 3 3 3 3 3 3 3 3 3 3 3 3 3 3 3 3 3 3 3 3 3 3 3 3 3 3 3 3 3 3 3 3 3 3 3 3 3 3 3 3 3 3 3 3 3 3 3 3 3 3 3 3 3 3 3 3 3 3 3 3 3 3 3 3 3 3 3 3 3 3 3 3 3 3 3 3 3 3 3 3 3 3 3 3 3 3 3 3 3 3 3 3 3 3 3 3 3 3 3 3 3 3 3 3 3 3 3 3 3 3 3 3 3 3 3 3 3 3 3 3 3 3 3 3 3 3 3 3 3 3 3 3 3 3 3 3 3 3 3 3 3 </vcount>
          <p>0 0 1 1 80 2 0 0 79 3 81 4 3 5 4 6 1 1 80 2 1 1 84 7 3 5 0 0 2 8 2 8 81 4 7 9 14 10 15 11 4 6 1 1 4 6 16 12 84 7 5 13 90 14 14 10 3 5 18 15 6 16 2 8 7 9 106 17 19 18 93 19 19 18 20 20 9 21 20 20 21 22 10 23 21 22 22 24 11 25 22 24 18 15 12 26 18 15 6 16 12 26 23 27 24 28 15 11 4 6 15 11 16 12 5 13 16 12 26 29 90 14 17 30 104 31 23 27 14 10 18 15 118 32 28 33 106 17 28 33 29 34 19 18 29 34 30 35 21 22 30 35 23 27 21 22 30 35 31 36 23 27 15 11 24 28 25 37 16 12 25 37 33 38 17 30 26 29 27 39 118 32 128 40 28 33 28 33 37 41 38 42 29 34 38 42 31 36 24 28 31 36 32 43 25 37 32 43 40 44 26 29 33 38 41 45 27 39 34 46 35 47 37 41 128 40 46 48 38 42 37 41 47 49 31 36 38 42 39 50 32 43 39 50 48 51 33 38 40 44 49 52 69 53 71 54 50 55 46 48 138 56 51 57 47 49 46 48 52 58 39 50 47 49 52 58 40 44 48 51 53 59 41 45 49 52 54 60 62 61 56 62 57 63 48 51 52 58 53 59 27 39 35 47 36 64 53 59 52 58 60 65 54 60 60 65 55 66 55 66 60 65 58 67 59 68 56 62 60 65 64 69 66 70 67 71 66 70 68 72 67 71 68 72 70 73 71 54 70 73 43 74 42 75 54 60 55 66 67 71 50 55 54 60 69 53 34 46 41 45 42 75 65 76 55 66 63 77 55 66 58 67 63 77 36 64 35 47 72 78 35 47 45 79 75 80 45 79 44 81 74 82 68 72 74 82 70 73 116 83 36 64 73 84 75 80 74 82 68 72 56 62 59 68 61 85 61 85 59 68 64 69 76 86 72 78 75 80 66 70 76 86 68 72 66 70 64 69 76 86 52 58 51 57 77 87 51 57 144 88 77 87 73 84 77 87 166 89 72 78 78 90 77 87 72 78 76 86 78 90 52 58 78 90 76 86 44 81 43 74 70 73 82 91 79 3 80 2 82 91 85 92 81 4 87 93 82 91 83 94 80 2 84 7 83 94 87 93 91 95 85 92 85 92 92 96 81 4 100 97 87 93 88 98 83 94 89 99 102 100 84 7 90 14 89 99 100 97 105 101 87 93 91 95 99 102 92 96 106 17 93 19 107 103 107 103 94 104 95 105 108 106 95 105 96 107 109 108 96 107 97 109 110 110 97 109 98 111 105 101 98 111 91 95 111 112 100 97 101 113 88 98 102 100 101 113 89 99 103 114 114 115 90 14 104 31 103 114 111 112 110 110 105 101 118 32 106 17 119 116 119 116 107 103 120 117 120 117 108 106 109 108 121 118 109 108 111 112 121 118 111 112 122 119 101 113 113 120 112 121 102 100 114 115 124 122 103 114 115 123 114 115 118 32 119 116 128 40 119 116 120 117 130 124 120 117 121 118 122 119 112 121 123 125 122 119 113 120 124 122 132 126 114 115 125 127 133 128 115 123 126 129 125 127 129 130 139 131 128 40 130 124 140 132 129 130 122 119 131 133 130 124 123 125 132 126 141 134 124 122 133 128 142 135 163 136 143 137 165 138 139 131 145 139 138 56 140 132 146 140 139 131 131 133 141 134 146 140 132 126 142 135 147 141 133 128 143 137 148 142 156 143 152 144 151 145 141 134 147 141 146 140 115 123 127 146 126 129 147 141 154 147 146 140 148 142 149 148 154 147 149 148 152 144 154 147 153 149 154 147 150 150 158 151 159 152 161 153 160 154 161 153 162 155 162 155 163 136 165 138 164 156 165 138 134 157 148 142 161 153 149 148 143 137 163 136 148 142 125 127 134 157 133 128 159 152 157 158 149 148 149 148 157 158 152 144 127 146 168 159 167 160 126 129 167 160 170 161 137 162 170 161 169 163 162 155 164 156 169 163 116 83 166 89 168 159 170 161 171 164 162 155 150 150 151 145 155 165 155 165 158 151 153 149 171 164 170 161 167 160 160 154 162 155 171 164 160 154 171 164 158 151 146 140 174 166 173 167 145 139 173 167 144 88 168 159 166 89 173 167 167 160 168 159 173 167 167 160 174 166 171 164 146 140 153 149 171 164 136 168 169 163 164 156 79 3 0 0 80 2 2 8 0 0 81 4 0 0 3 5 1 1 1 1 5 13 84 7 6 16 3 5 2 8 81 4 86 169 7 9 3 5 14 10 4 6 5 13 1 1 16 12 5 13 17 30 90 14 3 5 6 16 18 15 13 170 6 16 7 9 19 18 8 171 93 19 8 171 19 18 9 21 9 21 20 20 10 23 10 23 21 22 11 25 11 25 22 24 12 26 6 16 13 170 12 26 14 10 23 27 15 11 15 11 25 37 16 12 17 30 5 13 26 29 17 30 27 39 104 31 22 24 23 27 18 15 28 33 19 18 106 17 29 34 20 20 19 18 20 20 29 34 21 22 23 27 22 24 21 22 31 36 24 28 23 27 24 28 32 43 25 37 26 29 16 12 33 38 26 29 34 46 27 39 128 40 37 41 28 33 29 34 28 33 38 42 30 35 29 34 31 36 31 36 39 50 32 43 33 38 25 37 40 44 34 46 26 29 41 45 35 47 34 46 45 79 34 46 42 75 45 79 42 75 43 74 44 81 45 79 42 75 44 81 128 40 138 56 46 48 37 41 46 48 47 49 38 42 47 49 39 50 40 44 32 43 48 51 41 45 33 38 49 52 138 56 144 88 51 57 46 48 51 57 52 58 48 51 39 50 52 58 49 52 40 44 53 59 50 55 41 45 54 60 58 67 62 61 57 63 104 31 27 39 116 83 27 39 36 64 116 83 52 58 59 68 60 65 49 52 53 59 54 60 53 59 60 65 54 60 60 65 62 61 58 67 56 62 62 61 60 65 65 76 64 69 67 71 68 72 69 53 67 71 69 53 68 72 71 54 71 54 70 73 42 75 55 66 65 76 67 71 54 60 67 71 69 53 41 45 50 55 71 54 42 75 41 45 71 54 73 84 36 64 72 78 72 78 35 47 75 80 75 80 45 79 74 82 166 89 116 83 73 84 76 86 75 80 68 72 57 63 56 62 61 85 64 69 59 68 76 86 78 90 52 58 77 87 144 88 172 172 77 87 77 87 172 172 166 89 73 84 72 78 77 87 59 68 52 58 76 86 74 82 44 81 70 73 83 94 82 91 80 2 79 3 82 91 81 4 88 98 87 93 83 94 84 7 89 99 83 94 82 91 87 93 85 92 92 96 86 169 81 4 101 113 100 97 88 98 88 98 83 94 102 100 90 14 103 114 89 99 105 101 91 95 87 93 85 92 91 95 92 96 93 19 94 104 107 103 108 106 107 103 95 105 109 108 108 106 96 107 110 110 109 108 97 109 105 101 110 110 98 111 98 111 99 102 91 95 112 121 111 112 101 113 102 100 113 120 101 113 102 100 89 99 114 115 104 31 115 123 103 114 100 97 111 112 105 101 106 17 107 103 119 116 107 103 108 106 120 117 121 118 120 117 109 108 109 108 110 110 111 112 111 112 112 121 122 119 113 120 123 125 112 121 113 120 102 100 124 122 115 123 125 127 114 115 119 116 129 130 128 40 129 130 119 116 130 124 130 124 120 117 122 119 123 125 131 133 122 119 123 125 113 120 132 126 124 122 114 115 133 128 126 129 137 162 125 127 125 127 137 162 134 157 137 162 136 168 134 157 136 168 135 173 134 157 139 131 138 56 128 40 140 132 139 131 129 130 131 133 140 132 130 124 131 133 123 125 141 134 132 126 124 122 142 135 145 139 144 88 138 56 146 140 145 139 139 131 140 132 131 133 146 140 141 134 132 126 147 141 142 135 133 128 148 142 150 150 156 143 151 145 104 31 116 83 115 123 116 83 127 146 115 123 154 147 153 149 146 140 142 135 148 142 147 141 148 142 154 147 147 141 152 144 156 143 154 147 154 147 156 143 150 150 160 154 158 151 161 153 161 153 163 136 162 155 164 156 162 155 165 138 135 173 164 156 134 157 161 153 159 152 149 148 163 136 161 153 148 142 134 157 165 138 133 128 165 138 143 137 133 128 126 129 127 146 167 160 137 162 126 129 170 161 136 168 137 162 169 163 127 146 116 83 168 159 169 163 170 161 162 155 153 149 150 150 155 165 171 164 153 149 158 151 145 139 146 140 173 167 173 167 172 172 144 88 166 89 172 172 173 167 174 166 167 160 173 167 174 166 146 140 171 164 135 173 136 168 164 156</p>
        </polylist>
        <polylist material="Metall_goeldlich_003_001-material" count="8">
          <input semantic="VERTEX" source="#Cylinder_013-mesh-vertices" offset="0"/>
          <input semantic="NORMAL" source="#Cylinder_013-mesh-normals" offset="1"/>
          <vcount>3 3 3 3 3 3 3 3 </vcount>
          <p>57 63 61 85 63 77 61 85 64 69 65 76 151 145 152 144 157 158 155 165 157 158 159 152 58 67 57 63 63 77 63 77 61 85 65 76 155 165 151 145 157 158 158 151 155 165 159 152</p>
        </polylist>
      </mesh>
    </geometry>
  </library_geometries>
  <library_controllers/>
  <library_visual_scenes>
    <visual_scene id="Scene" name="Scene">
      <node id="COL_hollie_left_hand_virtual_k" name="COL_hollie_left_hand_virtual_k" type="NODE">
        <instance_geometry url="#Cylinder_013-mesh" name="COL_hollie_left_hand_virtual_k">
          <bind_material>
            <technique_common>
              <instance_material symbol="Metall_Alu_007_001-material" target="#Metall_Alu_007_001-material"/>
              <instance_material symbol="Metall_goeldlich_003_001-material" target="#Metall_goeldlich_003_001-material"/>
            </technique_common>
          </bind_material>
        </instance_geometry>
      </node>
    </visual_scene>
  </library_visual_scenes>
  <scene>
    <instance_visual_scene url="#Scene"/>
  </scene>
</COLLADA>